Name,Country,Age,Sex,Equipment,Division,BodyweightKg,WeightClassKg,Squat1Kg,Squat2Kg,Squat3Kg,Best3SquatKg,Bench1Kg,Bench2Kg,Bench3Kg,Best3BenchKg,Bench4Kg,Deadlift1Kg,Deadlift2Kg,Deadlift3Kg,Best3DeadliftKg,TotalKg,Place,Event
Samppa Nyman,Finland,35,M,Raw,M-O-R,88.4,90,215,225,235,235,155,-160,165,165,,250,275,-290,275,675,1,SBD
Rami Anttila,Finland,26,M,Raw,M-O-R,157.6,140+,230,245,255,255,155,165,172.5,172.5,,265,280,305,305,732.5,2,SBD
Sauli Kallunki,Finland,23,M,Raw,M-J-R,115,125,205,220,230,230,170,182.5,-187.5,182.5,,255,-265,,255,667.5,3,SBD
Lauri Härkä,Finland,34,M,Raw,M-O-R,122.8,125,200,-230,-230,200,190,-205,-205,190,,240,265,-280,265,655,4,SBD
Krista Pellikka,Finland,30,F,Raw,F-O-R,73.5,75,120,130,137.5,137.5,105,112.5,-115,112.5,,-140,155,165,165,415,5,SBD
Kalle-Ville Korhonen,Finland,62,M,Raw,M-M5-R,97.5,100,100,-110,110,110,-100,100,110,110,,160,180,,180,400,6,SBD
Aki Tiainen,Finland,46,M,Raw,M-M2-R,131.8,140,200,-230,-230,200,130,145,-162.5,145,,220,-250,-250,220,565,7,SBD
Angelica Khanjyan,Finland,27,F,Raw,F-O-R,69.1,75,100,110,-117.5,110,55,60,62.5,62.5,,100,110,120,120,292.5,8,SBD
Henry Lehtola,Finland,36,M,Raw,M-O-R,109.3,110,-225,-225,,,,,,,,,,,,,DQ,SBD
Vanessa Torres,Finland,31,F,Wraps,F-O-RC,55.3,56,160,180,-200.5,180,95,-101,-101,95,,160,175,-182.5,175,450,1,SBD
Tomi Luhtanen,Finland,27,M,Wraps,M-O-RC,99,100,287.5,305,320,320,157.5,165,,165,,280,302.5,315,315,800,2,SBD
Timo Termonen,Finland,40,M,Wraps,M-O-RC,97.3,100,285,310,-320,310,130,-140,140,140,,250,-265,,250,700,3,SBD
Mika Kallio,Finland,31,M,Wraps,M-O-RC,89.6,90,240,-255,255,255,160,170,-175.5,170,,240,-260,-260,240,665,4,SBD
Raimo Hiisiö,Finland,49,M,Wraps,M-M2-RC,118,125,240,260,-265,260,160,170,-177.5,170,,225,232.5,-237.5,232.5,662.5,5,SBD
Rachael Malott,Finland,26,F,Wraps,F-O-RC,66.6,67.5,160,-175.5,-175.5,160,92.5,95,-97.5,95,,165,180,190.5,190.5,445.5,6,SBD
Jere Marttila,Finland,56,M,Wraps,M-M4-RC,102,110,165,175,185,185,115,125,132.5,132.5,,185,195,207.5,207.5,525,7,SBD
Jan-Erik Maantila,Finland,32,M,Wraps,M-O-RC,116.7,125,230,245,260,260,180,190,195,195,,220,-235,,220,675,8,SBD
Nuno Nobre,Finland,40,M,Wraps,M-M1-RC,88.3,90,185,205,-225,205,135,145,152.5,152.5,,205,220,230,230,587.5,9,SBD
Eemeli Salomäki,Finland,30,M,Wraps,M-O-RC,80,82.5,155,170,180,180,125,132.5,-140,132.5,,187.5,200,212.5,212.5,525,10,SBD
Pekka Anttila,Finland,53,M,Wraps,M-M3-RC,87.1,90,170,-185,-190,170,90,92.5,,92.5,,190.5,195,200,200,462.5,11,SBD
Vesa Järveläinen,Finland,42,M,Wraps,M-M1-RC,76.1,82.5,140,160,170,170,120,-130,-130,120,,200,-220,-220,200,490,12,SBD
Jussi Jantunen,Finland,30,M,Wraps,M-O-RC,102.6,110,185,202.5,-207.5,202.5,125,135,-137.5,135,,180,200,-215,200,537.5,13,SBD
Ari Salmi,Finland,47,M,Wraps,M-M2-RC,88,90,150,-170,170,170,100,-115,-115,100,,165,175,-180,175,445,14,SBD
Vesa Taavitsainen,Finland,33,M,Wraps,M-O-RC,96.3,100,185,205,215,215,140,155,-162.5,155,,100,,,100,470,15,SBD
Keit Kaljukivi,Finland,24,M,Wraps,M-O-RC,88.3,90,225,-235,235,235,-140,140,,140,,-225,,,,,DQ,SBD
Zahir Khudayarov,Finland,34,M,Wraps,M-O-RC,127.1,140,-440,,,,,,,,,,,,,,DQ,SBD
Eduard Khanjyan,Finland,32,M,Wraps,M-O-RC,109.8,110,-320,,,,,,,,,,,,,,DQ,SBD
Antti Hämäläinen,Finland,44,M,Multi-ply,M-M1,88.2,90,275,300,-320,300,175,-187.5,-187.5,175,,260,280,-300,280,755,1,SBD
Vesa Nissilä,Finland,55,M,Multi-ply,M-M4,110.3,125,265,-275,-275,265,-190,190,-195,190,,200,220,230,230,685,2,SBD
Pekka Räihä,Finland,36,M,Multi-ply,M-O,108,110,305,330,-350,330,180,190,200,200,,260,280,300,300,830,3,SBD
Jani Lantiainen,Finland,31,M,Multi-ply,M-O,82.4,82.5,-355,355,375,375,-240,-240,-240,,,,,,,,DQ,SBD
Joni Nikkari,Finland,36,M,Multi-ply,M-O,125.6,140,-380,-390,-402.5,,,,,,,,,,,,DQ,SBD
Jukka Matikainen,Finland,23,M,Multi-ply,M-J,97.7,100,-300,-315,-315,,,,,,,,,,,,DQ,SBD
Nicky Norris,Finland,28,M,Multi-ply,M-O,81,82.5,-235,-235,-235,,,,,,,,,,,,DQ,SBD
Maiju Hilander,Finland,60,F,Raw,F-M5-R,71.9,75,,,,,65,70,-75,70,,,,,,70,1,B
Mira Mustonen,Finland,47,F,Raw,F-M2-R,72.8,75,,,,,92.5,102.5,-105,102.5,,,,,,102.5,1,B
Johanna Bies,Finland,46,F,Raw,F-M2-R,63.3,67.5,,,,,107.5,112.5,117.5,117.5,120,,,,,117.5,1,B
Jonna Korte,Finland,23,F,Raw,F-J-R,67.4,67.5,,,,,80,-82.5,82.5,82.5,-85,,,,,82.5,1,B
Anna Khudayarov,Finland,30,F,Raw,F-O-R,89.8,90,,,,,110,115,-120,115,,,,,,115,1,B
Rachael Mallott,Finland,26,F,Raw,F-O-R,75,75,,,,,90,-95,-95,90,,,,,,90,1,B
Johanna Bies,Finland,46,F,Raw,F-O-R,63.3,67.5,,,,,107.5,112.5,117.5,117.5,120,,,,,117.5,1,B
Vanessa Torres,Finland,31,F,Raw,F-O-R,59.4,60,,,,,92.5,-97.5,97.5,97.5,,,,,,97.5,1,B
Aimo Mursu,Finland,75,M,Raw,M-M8-R,81.5,82.5,,,,,70,75,-80,75,,,,,,75,1,B
Vesa Keskimaa,Finland,55,M,Raw,M-M4-R,109,110,,,,,192.5,205,-221,205,,,,,,205,1,B
Juha Ojanen,Finland,56,M,Raw,M-M4-R,97.7,100,,,,,152.5,162.5,-167.5,162.5,,,,,,162.5,1,B
Rane Ovaska,Finland,57,M,Raw,M-M4-R,80.1,82.5,,,,,100,110,-117.5,110,,,,,,110,1,B
Tero Ylivinkka,Finland,52,M,Raw,M-M3-R,133.7,140,,,,,175,182.5,-192.5,182.5,,,,,,182.5,1,B
Marcus Young,Finland,53,M,Raw,M-M3-R,87.7,90,,,,,125,130,135,135,141,,,,,135,1,B
Aarre Laurila,Finland,54,M,Raw,M-M3-R,82.1,82.5,,,,,100,105,107.5,107.5,,,,,,107.5,1,B
Vladlen Astaptsev,Finland,53,M,Raw,M-M3-R,74.2,75,,,,,85,90,92.5,92.5,,,,,,92.5,1,B
Sami Salonen,Finland,48,M,Raw,M-M2-R,140.9,140+,,,,,170,180,190,190,,,,,,190,1,B
Klaus Renfors,Finland,45,M,Raw,M-M2-R,99.7,100,,,,,162.5,175,177.5,177.5,,,,,,177.5,1,B
Aki Lehtinen,Finland,41,M,Raw,M-M1-R,118.4,125,,,,,190,205,215.5,215.5,-222.5,,,,,215.5,1,B
Nico Viljakainen,Finland,15,M,Raw,M-T1-R,95.4,100,,,,,100,105,110,110,,,,,,110,1,B
Jani Virtanen,Finland,22,M,Raw,M-J-R,96.9,100,,,,,180,-190,190,190,,,,,,190,1,B
Maks Larionov,Finland,22,M,Raw,M-J-R,87.8,90,,,,,160,-162.5,,160,,,,,,160,1,B
Jussi Kananen,Finland,33,M,Raw,M-O-R,157.1,140+,,,,,185,200,-205,200,,,,,,200,1,B
Tero Ylivinkka,Finland,52,M,Raw,M-O-R,133.7,140,,,,,175,182.5,-192.5,182.5,,,,,,182.5,1,B
Walter Köckritz,Finland,24,M,Raw,M-O-R,127.3,140,,,,,105,120,-140,120,,,,,,120,2,B
Henry Lehtola,Finland,36,M,Raw,M-O-R,110.5,125,,,,,190,205,212.5,212.5,,,,,,212.5,1,B
Heikki Hyvärinen,Finland,33,M,Raw,M-O-R,115.5,125,,,,,-165,-170,-170,,,,,,,,DQ,B
Juha Tuomainen,Finland,34,M,Raw,M-O-R,106.9,110,,,,,225.5,235,240,240,245,,,,,240,1,B
Lauri Marttila,Finland,27,M,Raw,M-O-R,105.4,110,,,,,210,220,230,230,,,,,,230,2,B
Jani Virtanen,Finland,22,M,Raw,M-O-R,96.9,100,,,,,180,-190,190,190,,,,,,190,1,B
Klaus Renfors,Finland,45,M,Raw,M-O-R,99.7,100,,,,,162.5,175,177.5,177.5,,,,,,177.5,2,B
Jasu Harlin,Finland,24,M,Raw,M-O-R,97.6,100,,,,,160,165,170,170,,,,,,170,3,B
Aliaksandr Shatsilenia,Finland,30,M,Raw,M-O-R,86.3,90,,,,,-120,-125,125,125,,,,,,125,1,B
Marko Vesalainen,Finland,28,M,Raw,M-O-R,74.8,75,,,,,130,140,145,145,,,,,,145,1,B
Sami Vaskelainen,Finland,34,M,Raw,M-O-R,74.8,75,,,,,130,135,142.5,142.5,,,,,,142.5,2,B
Tapio Laine,Finland,66,M,Multi-ply,M-M6,119.1,125,,,,,-240,-240,-240,,,,,,,,DQ,B
Marcus Young,Finland,53,M,Multi-ply,M-M3,87.5,90,,,,,160,170,180,180,,,,,,180,1,B
Pentti Rimpi,Finland,50,M,Multi-ply,M-M3,63.8,67.5,,,,,105,112.5,117.5,117.5,,,,,,117.5,1,B
Jukka Matikainen,Finland,23,M,Multi-ply,M-J,99.7,100,,,,,190,202.5,-212.5,202.5,,,,,,202.5,1,B
Ilkka Lukkarinen,Finland,29,M,Multi-ply,M-O,150.3,140+,,,,,-400.5,400.5,-425.5,400.5,,,,,,400.5,1,B
Jussi Kananen,Finland,33,M,Multi-ply,M-O,157.1,140+,,,,,200,-210,-210,200,,,,,,200,2,B
Petteri Hosio Henrik,Finland,39,M,Multi-ply,M-O,123.7,125,,,,,350,365,-380,365,,,,,,365,1,B
Maiju Hilander,Finland,60,F,Raw,F-M6-R,71.9,75,,,,,,,,,,157.5,162.5,165,165,165,1,D
Amra Halilovic,Finland,25,F,Raw,F-O-R,67.3,67.5,,,,,,,,,,125,135,145,145,145,1,D
Aimo Mursu,Finland,75,M,Raw,M-M8-R,81.5,82.5,,,,,,,,,,160,172.5,-180,172.5,172.5,1,D
Kauko Viitala,Finland,79,M,Raw,M-M8-R,79.3,82.5,,,,,,,,,,140,152.5,157.5,157.5,157.5,2,D
Vesa Keskimaa,Finland,55,M,Raw,M-M4-R,109,110,,,,,,,,,,250,270,280,280,280,1,D
Rane Ovaska,Finland,57,M,Raw,M-M4-R,80.1,82.5,,,,,,,,,,210,222.5,,222.5,222.5,1,D
Aarre Laurila,Finland,54,M,Raw,M-M3-R,82.1,82.5,,,,,,,,,,175,190,-200,190,190,1,D
Osku Zetterlund,Finland,44,M,Raw,M-M1-R,106.2,110,,,,,,,,,,160,180,-190,180,180,1,D
Teppo Koskinen,Finland,44,M,Raw,M-M1-R,97,100,,,,,,,,,,220,235,242.5,242.5,242.5,1,D
Nico Viljakainen,Finland,15,M,Raw,M-T1-R,95.4,100,,,,,,,,,,150,170,175,175,175,1,D
Henry Lehtola,Finland,36,M,Raw,M-O-R,110.5,125,,,,,,,,,,235,255,277.5,277.5,277.5,1,D
Kalle Helminen,Finland,33,M,Raw,M-O-R,124.4,125,,,,,,,,,,200,220,240,240,240,2,D
Teppo Koskinen,Finland,44,M,Raw,M-O-R,97,100,,,,,,,,,,220,235,242.5,242.5,242.5,1,D
Aleksi Hiissa,Finland,24,M,Raw,M-O-R,99.1,100,,,,,,,,,,235,-250,-250,235,235,2,D
Ville Miikki,Finland,32,M,Raw,M-O-R,97.2,100,,,,,,,,,,210,220,-230,220,220,3,D
Kalle Lahti,Finland,33,M,Raw,M-O-R,87.3,90,,,,,,,,,,240,262.5,270,270,270,1,D
Tuomas Kiander,Finland,26,M,Raw,M-O-R,88,90,,,,,,,,,,150,165,180,180,180,2,D
Aliaksandr Shatsilenia,Finland,30,M,Raw,M-O-R,86.3,90,,,,,,,,,,120,130,140,140,140,3,D
Sami Vaskelainen,Finland,34,M,Raw,M-O-R,74.8,75,,,,,,,,,,252.5,265,-270.5,265,265,1,D
Seppo Laukkanen,Finland,55,M,Multi-ply,M-M4,106.3,110,,,,,,,,,,286,295,-300,295,295,1,D
Antti Kousa,Finland,44,M,Multi-ply,M-M1,108.5,110,,,,,,,,,,260,280,-301.5,280,280,1,D
Jukka Matikainen,Finland,23,M,Multi-ply,M-J,99.7,100,,,,,,,,,,240,260,-272.5,260,260,1,D
Joni Nikkari,Finland,36,M,Multi-ply,M-O,126.9,140,,,,,,,,,,305,-330,-330,305,305,1,D
Jani Lantiainen,Finland,31,M,Multi-ply,M-O,89,90,,,,,,,,,,310,335,-352.5,335,335,1,D
