Division,WeightClassKg,Place,Name,Team,BodyweightKg,Best3SquatKg,Best3BenchKg,Best3DeadliftKg,TotalKg,Equipment,Event,Sex
Boys,51.71,1,Brandon Nguyen,Palacios,51.17,81.65,47.63,102.06,231.33,Single-ply,SBD,M
Boys,55.79,1,Ruben Rivera,El Campo,55.34,104.33,72.57,142.88,319.78,Single-ply,SBD,M
Boys,55.79,2,Brice LaMach,Van Vleck,55.34,106.59,70.31,142.88,319.78,Single-ply,SBD,M
Boys,55.79,3,Vuong Nguyen,Palacios,54.16,102.06,58.97,129.27,290.3,Single-ply,SBD,M
Boys,55.79,4,Mario Belman,East Bernard,52.53,63.5,31.75,77.11,172.37,Single-ply,SBD,M
Boys,67.13,1,Jay Robles,Van Vleck,60.06,156.49,81.65,158.76,396.89,Single-ply,SBD,M
Boys,59.87,2,David Fercado,Palacios,58.06,127.01,79.38,147.42,353.8,Single-ply,SBD,M
Boys,59.87,3,Joe Boone,Goliad,57.79,122.47,65.77,142.88,331.12,Single-ply,SBD,M
Boys,59.87,4,Nathan Korenek,East Bernard,59.51,108.86,68.04,127.01,303.91,Single-ply,SBD,M
Boys,67.13,5,Myles Parker,Goliad,59.96,106.59,61.23,129.27,297.1,Single-ply,SBD,M
Boys,59.87,6,Jeremy Johnson,Edna,57.7,92.99,70.31,117.93,281.23,Single-ply,SBD,M
Boys,59.87,7,Kristian Grifaldo,Edna,57.61,88.45,52.16,102.06,242.67,Single-ply,SBD,M
Boys,59.87,DQ,Valentine Vences,Brookshire Royal,58.33,120.2,,,,Single-ply,SBD,M
Boys,59.87,DQ,Eder Ramirez,Brookshire Royal,58.15,115.67,,,,Single-ply,SBD,M
Boys,59.87,DQ,Dean Boniface,Goliad,58.51,131.54,,,,Single-ply,SBD,M
Boys,59.87,DQ,Kollin Smith,Ganado,59.87,,,,,Single-ply,SBD,M
Boys,67.13,1,Bryan Pham,Palacios,66.59,174.63,95.25,204.12,474,Single-ply,SBD,M
Boys,67.13,2,Bradley Lamach,Van Vleck,66.22,167.83,79.38,167.83,415.04,Single-ply,SBD,M
Boys,67.13,3,Mark Hernandez,Van Vleck,63.87,142.88,86.18,176.9,405.97,Single-ply,SBD,M
Boys,67.13,4,Sergio Edison,Goliad,65.5,142.88,83.91,172.37,399.16,Single-ply,SBD,M
Boys,67.13,5,Tanner Surratt,Louise,64.68,145.15,90.72,158.76,394.63,Single-ply,SBD,M
Boys,67.13,6,Jonathan Pesina,Louise,64.95,140.61,86.18,158.76,385.55,Single-ply,SBD,M
Boys,67.13,7,Chris Huffman,Palacios,65.41,133.81,77.11,170.1,381.02,Single-ply,SBD,M
Boys,67.13,8,Trey McDonald,Ganado,66.68,136.08,83.91,142.88,362.87,Single-ply,SBD,M
Boys,67.13,9,Logan Henslee,Louise,66.5,113.4,88.45,142.88,344.73,Single-ply,SBD,M
Boys,67.13,10,Billy Luster,El Maton Tidehaven,61.87,111.13,63.5,124.74,299.37,Single-ply,SBD,M
Boys,67.13,11,Caleb Jones,Van Vleck,60.24,102.06,74.84,117.93,294.84,Single-ply,SBD,M
Boys,67.13,12,Tyler Mikes,East Bernard,62.05,104.33,56.7,117.93,278.96,Single-ply,SBD,M
Boys,67.13,13,Michael Mendoza,Boling,66.68,95.25,74.84,108.86,278.96,Single-ply,SBD,M
Boys,67.13,14,Jack Delmar,East Bernard,63.78,92.99,54.43,104.33,251.74,Single-ply,SBD,M
Boys,67.13,15,Tristan Tomas,Edna,61.96,63.5,61.23,102.06,226.8,Single-ply,SBD,M
Boys,67.13,16,Dillon Kuhlman,Ganado,66.95,61.23,61.23,102.06,224.53,Single-ply,SBD,M
Boys,67.13,DQ,Tanner Jackson,Goliad,67.13,,,,,Single-ply,SBD,M
Boys,74.84,1,Daniel Dominguez,El Campo,71.85,210.92,136.08,213.19,560.19,Single-ply,SBD,M
Boys,74.84,2,Nathan Markiewicz,Edna,70.85,183.7,113.4,197.31,494.42,Single-ply,SBD,M
Boys,74.84,3,Wayne Foston,Van Vleck,71.67,181.44,113.4,183.7,478.54,Single-ply,SBD,M
Boys,74.84,4,Greg Sexton,Palacios,73.84,161.03,97.52,195.04,453.59,Single-ply,SBD,M
Boys,74.84,5,Wesley Demicelli,Ganado,72.21,181.44,83.91,172.37,437.72,Single-ply,SBD,M
Boys,74.84,6,Matthew Nguyen,Palacios,67.95,154.22,83.91,181.44,419.57,Single-ply,SBD,M
Boys,74.84,7,Tyler Sample,Edna,71.94,149.69,92.99,170.1,412.77,Single-ply,SBD,M
Boys,74.84,8,Jontrey Goff,East Bernard,70.49,145.15,83.91,158.76,387.82,Single-ply,SBD,M
Boys,74.84,9,Derek Sless,Louise,70.31,136.08,86.18,145.15,367.41,Single-ply,SBD,M
Boys,74.84,10,Ke'Von Brown,Edna,71.21,136.08,77.11,142.88,356.07,Single-ply,SBD,M
Boys,74.84,11,Sean Dannels,El Maton Tidehaven,74.84,115.67,83.91,138.35,337.93,Single-ply,SBD,M
Boys,74.84,12,Allan Zapata,Brookshire Royal,69.85,111.13,65.77,129.27,306.17,Single-ply,SBD,M
Boys,74.84,13,James Clements,Louise,68.4,104.33,65.77,102.06,272.16,Single-ply,SBD,M
Boys,74.84,DQ,Brandon Gilley,Karnes City,74.84,,,,,Single-ply,SBD,M
Boys,74.84,DQ,Kevin Smith,Ganado,74.21,181.44,,,,Single-ply,SBD,M
Boys,74.84,DQ,Chris Orsak,East Bernard,74.84,,,,,Single-ply,SBD,M
Boys,82.1,1,Sam Bryant,Van Vleck,76.93,188.24,115.67,217.72,521.63,Single-ply,SBD,M
Boys,82.1,2,Juan Lopez,Palacios,75.21,145.15,95.25,188.24,428.64,Single-ply,SBD,M
Boys,82.1,3,John Wirt,Goliad,79.47,158.76,88.45,181.44,428.64,Single-ply,SBD,M
Boys,82.1,4,Abe Sanchez,Brookshire Royal,81.01,158.76,81.65,147.42,387.82,Single-ply,SBD,M
Boys,82.1,5,Demontrey Wiggins,Stafford,80.29,142.88,92.99,145.15,381.02,Single-ply,SBD,M
Boys,82.1,6,Michael Rios,Boling,79.47,142.88,95.25,136.08,374.21,Single-ply,SBD,M
Boys,82.1,7,Jerome Vernon,El Maton Tidehaven,79.29,142.88,83.91,138.35,365.14,Single-ply,SBD,M
Boys,82.1,8,Jeff McDonald,Van Vleck,75.75,136.08,79.38,145.15,360.61,Single-ply,SBD,M
Boys,82.1,9,Austin Block,Karnes City,80.92,117.93,70.31,122.47,310.71,Single-ply,SBD,M
Boys,82.1,10,Weston Block,Karnes City,78.38,117.93,68.04,113.4,299.37,Single-ply,SBD,M
Boys,82.1,11,Aaron Kieler,East Bernard,79.65,99.79,54.43,113.4,267.62,Single-ply,SBD,M
Boys,82.1,DQ,Robert Duenes,Karnes City,82.1,,,,,Single-ply,SBD,M
Boys,82.1,DQ,DreShaun Campbell,East Bernard,82.1,,,,,Single-ply,SBD,M
Boys,89.81,1,Marcus Ferree,Palacios,88.18,204.12,145.15,226.8,576.06,Single-ply,SBD,M
Boys,89.81,2,Marcus Moody,Stafford,85,181.44,113.4,213.19,508.02,Single-ply,SBD,M
Boys,89.81,3,Koley Karl,Edna,89.72,190.51,113.4,181.44,485.34,Single-ply,SBD,M
Boys,89.81,4,Jeremy Quiroga,Van Vleck,87.36,158.76,124.74,181.44,464.93,Single-ply,SBD,M
Boys,89.81,5,Joseph Woodson,El Maton Tidehaven,84.28,149.69,92.99,183.7,426.38,Single-ply,SBD,M
Boys,89.81,6,Cameron Berger,Goliad,84.28,124.74,70.31,136.08,331.12,Single-ply,SBD,M
Boys,89.81,DQ,Eddie Moreno,El Campo,89.27,127.01,,,,Single-ply,SBD,M
Boys,99.79,DQ,Alex Tamez,Louise,89.99,167.83,77.11,,,Single-ply,SBD,M
Boys,99.79,1,Zach Quiroga,Van Vleck,91.35,226.8,133.81,195.04,555.65,Single-ply,SBD,M
Boys,99.79,2,Case Silliman,Ganado,91.9,192.78,108.86,192.78,494.42,Single-ply,SBD,M
Boys,99.79,3,Aaron Oates,Stafford,95.07,172.37,113.4,190.51,476.27,Single-ply,SBD,M
Boys,99.79,4,Brandon Garay,Van Vleck,92.08,170.1,113.4,188.24,471.74,Single-ply,SBD,M
Boys,99.79,5,Michael Garcia,Palacios,99.16,167.83,111.13,181.44,460.4,Single-ply,SBD,M
Boys,99.79,6,Demarius Blunston,Brookshire Royal,92.44,183.7,92.99,176.9,453.59,Single-ply,SBD,M
Boys,99.79,7,Nathan Gruetzmacher,Goliad,91.44,158.76,117.93,154.22,430.91,Single-ply,SBD,M
Boys,99.79,8,Colin Dusek,East Bernard,91.26,142.88,72.57,145.15,360.61,Single-ply,SBD,M
Boys,99.79,9,Bobby Bluntson,East Bernard,99.61,117.93,86.18,124.74,328.85,Single-ply,SBD,M
Boys,99.79,DQ,Jarayl Spears,Boling,99.79,,,,,Single-ply,SBD,M
Boys,109.77,1,Adam Aucoin,Palacios,104.69,242.67,142.88,208.65,594.21,Single-ply,SBD,M
Boys,109.77,2,Rj Rubesh,Louise,101.42,240.4,131.54,201.85,573.79,Single-ply,SBD,M
Boys,109.77,3,Tyler Rush,El Maton Tidehaven,101.79,215.46,106.59,183.7,505.76,Single-ply,SBD,M
Boys,109.77,4,Gustabo Sandoval,El Maton Tidehaven,102.97,195.04,104.33,190.51,489.88,Single-ply,SBD,M
Boys,109.77,5,Clark Pustka,Goliad,109.32,181.44,136.08,161.03,478.54,Single-ply,SBD,M
Boys,109.77,6,Tyler Gorman,Ganado,105.41,183.7,102.06,183.7,469.47,Single-ply,SBD,M
Boys,124.74,7,Jaylon Bradford,Louise,109.95,142.88,90.72,181.44,415.04,Single-ply,SBD,M
Boys,109.77,8,Lucas Janysek,Karnes City,106.78,120.2,79.38,145.15,344.73,Single-ply,SBD,M
Boys,124.74,9,Dustin Bachus,Edna,109.95,88.45,74.84,102.06,265.35,Single-ply,SBD,M
Boys,109.77,DQ,Danny Segura,Brookshire Royal,104.14,163.29,83.91,,,Single-ply,SBD,M
Boys,124.74,1,Justin Rooks,Edna,115.94,195.04,113.4,185.97,494.42,Single-ply,SBD,M
Boys,124.74,2,Denton Lesak,Ganado,117.39,192.78,95.25,181.44,469.47,Single-ply,SBD,M
Boys,124.74,3,Aaron Kuecker,Goliad,123.38,167.83,117.93,183.7,469.47,Single-ply,SBD,M
Boys,124.74,4,Garrett Fredrichs,Goliad,123.47,181.44,102.06,181.44,464.93,Single-ply,SBD,M
Boys,124.74,5,Will Clark,Boling,123.1,149.69,111.13,183.7,444.52,Single-ply,SBD,M
Boys,124.74,6,Adley Lai,Stafford,124.47,151.95,83.91,190.51,426.38,Single-ply,SBD,M
Boys,124.74,7,Izzy Perez,Karnes City,123.01,149.69,92.99,181.44,424.11,Single-ply,SBD,M
Boys,124.74,8,Logan Robinson,Edna,111.04,129.27,65.77,163.29,358.34,Single-ply,SBD,M
Boys,124.74,DQ,John Mendoza,Karnes City,124.74,,,,,Single-ply,SBD,M
Boys,124.74,DQ,Joseph Barkeley,Karnes City,124.74,,,,,Single-ply,SBD,M
Boys,124.74,DQ,Anthony Parks,Ganado,118.12,208.65,,,,Single-ply,SBD,M
Boys,124.74,DQ,Tony Cardenas,Louise,122.74,,,,,Single-ply,SBD,M
Boys,124.74+,1,Nate Hobby,Brookshire Royal,135.53,226.8,136.08,183.7,546.58,Single-ply,SBD,M
Boys,124.74+,2,Kenneth Sifuentes,El Campo,129.46,192.78,136.08,151.95,480.81,Single-ply,SBD,M
Boys,124.74+,3,Zack Pawelek,Karnes City,142.16,185.97,92.99,190.51,469.47,Single-ply,SBD,M
Boys,124.74+,4,Aiden Hernandez,Brookshire Royal,142.7,174.63,102.06,156.49,433.18,Single-ply,SBD,M
Boys,124.74+,DQ,Rico Cortez,Karnes City,136.08,,,,,Single-ply,SBD,M
Boys,124.74+,DQ,Dylan Carillo,El Maton Tidehaven,136.08,,,,,Single-ply,SBD,M
Boys,124.74+,DQ,Ryan Savage,El Maton Tidehaven,131.18,238.14,124.74,,,Single-ply,SBD,M
Boys,124.74+,DQ,Derek Fiew,Edna,135.53,210.92,104.33,,,Single-ply,SBD,M
