Division,WeightClassKg,Place,Name,Team,BodyweightKg,Best3SquatKg,Best3BenchKg,Best3DeadliftKg,TotalKg,Equipment,Event,Sex
Girls,44.23,1,Briana Cisneros,McAllen Memorial,43.82,90.72,45.36,97.52,233.6,Single-ply,SBD,F
Girls,44.23,2,Leah Sandoval,La Joya Palmview,43.36,86.18,47.63,95.25,229.06,Single-ply,SBD,F
Girls,44.23,3,Victoria Plata,McAllen,44.18,77.11,22.68,70.31,170.1,Single-ply,SBD,F
Girls,47.85,1,Laisha Lopez,La Joya Palmview,47.08,133.81,68.04,108.86,310.71,Single-ply,SBD,F
Girls,47.85,2,Cassandra Puente,Los Fresnos,46.36,117.93,56.7,117.93,292.57,Single-ply,SBD,F
Girls,47.85,3,Valeria Perez,Weslaco East,46.95,115.67,47.63,106.59,269.89,Single-ply,SBD,F
Girls,47.85,4,Stephanie Martinez,Weslaco East,47.49,108.86,47.63,95.25,251.74,Single-ply,SBD,F
Girls,47.85,5,Michelle Rodriguez,La Joya Palmview,46.99,99.79,47.63,97.52,244.94,Single-ply,SBD,F
Girls,47.85,6,Mia Munoz,McAllen Memorial,47.45,77.11,47.63,77.11,201.85,Single-ply,SBD,F
Girls,47.85,7,Carolina Suarez,McAllen,47.26,81.65,31.75,74.84,188.24,Single-ply,SBD,F
Girls,47.85,8,Lesly Alonzo,McAllen,46.45,65.77,31.75,77.11,174.63,Single-ply,SBD,F
Girls,51.94,1,Brissa Ramirez,Mission Sharyland,51.26,133.81,56.7,131.54,322.05,Single-ply,SBD,F
Girls,51.94,2,Amanda Rodriguez,Mission Sharyland,51.17,124.74,54.43,133.81,312.98,Single-ply,SBD,F
Girls,51.94,3,Jackie Martinez,Los Fresnos,50.71,129.27,47.63,122.47,299.37,Single-ply,SBD,F
Girls,51.94,4,Pricilla Hernandez,La Joya Palmview,50.71,113.4,56.7,122.47,292.57,Single-ply,SBD,F
Girls,51.94,5,Melanie Loa,Los Fresnos,50.71,120.2,49.9,117.93,288.03,Single-ply,SBD,F
Girls,51.94,6,Julie Escobar,Los Fresnos,48.63,113.4,52.16,106.59,272.16,Single-ply,SBD,F
Girls,51.94,7,Sabrina Espinoza,McAllen,50.71,88.45,47.63,106.59,242.67,Single-ply,SBD,F
Girls,51.94,8,Cassandra Rangel,Sharyland Pioneer,49.9,86.18,43.09,92.99,222.26,Single-ply,SBD,F
Girls,51.94,9,Salma Talavera,Mission Veterans Memorial,50.8,92.99,43.09,79.38,215.46,Single-ply,SBD,F
Girls,51.94,10,Gisselle Garza,Rio Grande City Grulla,51.71,95.25,31.75,88.45,215.46,Single-ply,SBD,F
Girls,51.94,11,Daniela Plata,McAllen,48.99,68.04,29.48,79.38,176.9,Single-ply,SBD,F
Girls,51.94,DQ,Ashley Tijerina,Mission Sharyland,51.07,104.33,,,,Single-ply,SBD,F
Girls,56.02,1,Misty Prado,McAllen Memorial,54.34,136.08,97.52,147.42,381.02,Single-ply,SBD,F
Girls,56.02,2,Victoria Olivarez,Mission Veterans Memorial,55.79,127.01,56.7,129.27,312.98,Single-ply,SBD,F
Girls,56.02,3,Janice Fan,Weslaco East,55.97,115.67,49.9,124.74,290.3,Single-ply,SBD,F
Girls,56.02,4,Angel Esquibel,Los Fresnos,53.71,115.67,43.09,124.74,283.5,Single-ply,SBD,F
Girls,56.02,5,AnaLuz Velasquez,Rio Grande City Grulla,55.97,117.93,45.36,120.2,283.5,Single-ply,SBD,F
Girls,56.02,6,Natalie Villalon,La Joya Palmview,53.34,111.13,56.7,113.4,281.23,Single-ply,SBD,F
Girls,56.02,7,Camila Velez,Mission Sharyland,52.39,120.2,45.36,106.59,272.16,Single-ply,SBD,F
Girls,56.02,8,Veida Gonzalez,La Joya,55.97,104.33,43.09,113.4,260.82,Single-ply,SBD,F
Girls,56.02,9,Wendy Olivarez,Weslaco East,55.29,113.4,38.56,104.33,256.28,Single-ply,SBD,F
Girls,56.02,10,Bianca Galindo,McAllen,55.43,97.52,45.36,102.06,244.94,Single-ply,SBD,F
Girls,56.02,11,Kaytlan Serna,McAllen,54.61,97.52,52.16,90.72,240.4,Single-ply,SBD,F
Girls,56.02,12,Brianna Anzaldua,Sharyland Pioneer,55.16,88.45,40.82,102.06,231.33,Single-ply,SBD,F
Girls,56.02,13,Josefina Bueno,McAllen Memorial,55.88,77.11,47.63,97.52,222.26,Single-ply,SBD,F
Girls,56.02,DQ,Donna Mondragon,La Joya Palmview,54.79,124.74,58.97,,,Single-ply,SBD,F
Girls,60.1,1,Lorena Martinez,Los Fresnos,60.06,163.29,68.04,167.83,399.16,Single-ply,SBD,F
Girls,60.1,2,Jessica Luna,Mission,59.96,145.15,54.43,156.49,356.07,Single-ply,SBD,F
Girls,60.1,3,Victoria Torres,Sharyland Pioneer,58.69,117.93,61.23,108.86,288.03,Single-ply,SBD,F
Girls,60.1,4,Anna Vela,Mission Veterans Memorial,60.06,106.59,54.43,122.47,283.5,Single-ply,SBD,F
Girls,60.1,5,Emily Cahue,Rio Grande City Grulla,59.96,115.67,45.36,120.2,281.23,Single-ply,SBD,F
Girls,60.1,6,Alissa Reyna,La Joya,56.7,122.47,54.43,102.06,278.96,Single-ply,SBD,F
Girls,60.1,7,Erica Trevino,Mission Veterans Memorial,59.19,106.59,47.63,111.13,265.35,Single-ply,SBD,F
Girls,60.1,8,Penelope Brambila,McAllen Memorial,58.24,88.45,58.97,108.86,256.28,Single-ply,SBD,F
Girls,60.1,9,Brandy Ortiz,Mission,56.34,97.52,43.09,88.45,229.06,Single-ply,SBD,F
Girls,60.1,10,Sofia Longoria,Mission Veterans Memorial,60.1,97.52,38.56,88.45,224.53,Single-ply,SBD,F
Girls,60.1,11,Valeria Guerra,Mission,59.96,70.31,29.48,90.72,190.51,Single-ply,SBD,F
Girls,60.1,DQ,Tina Alaniz,La Joya,60.06,,,,,Single-ply,SBD,F
Girls,67.36,1,Mary Jane Maldonado,Los Fresnos,66.41,145.15,81.65,151.95,378.75,Single-ply,SBD,F
Girls,67.36,2,Christina Ybarra,Sharyland Pioneer,64.86,140.61,65.77,138.35,344.73,Single-ply,SBD,F
Girls,67.36,3,Josie Munoz,Weslaco East,64.77,156.49,58.97,117.93,333.39,Single-ply,SBD,F
Girls,67.36,4,Isabella Contreras,McAllen,65.77,120.2,61.23,124.74,306.17,Single-ply,SBD,F
Girls,67.36,5,Joanna Villarreal,Rio Grande City Grulla,65.14,115.67,47.63,102.06,265.35,Single-ply,SBD,F
Girls,67.36,6,April Arellano,McAllen Memorial,64.77,90.72,52.16,113.4,256.28,Single-ply,SBD,F
Girls,67.36,7,Adelita Arevalo,Mission Veterans Memorial,66.63,97.52,52.16,106.59,256.28,Single-ply,SBD,F
Girls,67.36,8,Roman Alejandra,Sharyland Pioneer,65.41,74.84,56.7,97.52,229.06,Single-ply,SBD,F
Girls,67.36,DQ,Cynthia Serrato,Rio Hondo,67.31,108.86,,,,Single-ply,SBD,F
Girls,67.36,DQ,Alizandra Castillo,Mission Sharyland,64.86,106.59,,,,Single-ply,SBD,F
Girls,75.07,1,Felissa Ponce de Leon,La Joya Palmview,68.95,185.97,102.06,176.9,464.93,Single-ply,SBD,F
Girls,75.07,2,Paola Espinoza,Weslaco East,74.12,158.76,92.99,165.56,417.3,Single-ply,SBD,F
Girls,75.07,3,Alex Bazan,La Joya Palmview,74.03,154.22,92.99,145.15,392.36,Single-ply,SBD,F
Girls,75.07,4,Jaslyn Olivarez,McAllen,73.3,149.69,70.31,129.27,349.27,Single-ply,SBD,F
Girls,75.07,5,Keyla Puente,La Joya,72.12,149.69,56.7,120.2,326.59,Single-ply,SBD,F
Girls,75.07,6,Nehemiah Coronado,La Joya,68.67,142.88,49.9,129.27,322.05,Single-ply,SBD,F
Girls,75.07,7,Brianna Flores,Mission Veterans Memorial,73.03,111.13,65.77,138.35,315.25,Single-ply,SBD,F
Girls,75.07,8,Nayely Garcia,Rio Hondo,73.94,108.86,47.63,102.06,258.55,Single-ply,SBD,F
Girls,75.07,9,Lorraine Valencia,La Joya Palmview,70.13,102.06,52.16,97.52,251.74,Single-ply,SBD,F
Girls,75.07,10,Keyla Leal,La Joya,73.84,104.33,43.09,104.33,251.74,Single-ply,SBD,F
Girls,75.07,11,Valerie Cordova,Mission Veterans Memorial,74.62,95.25,43.09,102.06,240.4,Single-ply,SBD,F
Girls,75.07,12,Tiffany Silguero,Rio Hondo,68.86,83.91,49.9,97.52,231.33,Single-ply,SBD,F
Girls,75.07,13,Anessa Ledesma,Mission,67.59,56.7,24.95,70.31,151.95,Single-ply,SBD,F
Girls,75.07,DQ,Carolina Constantino,Mission Sharyland,68.86,136.08,,,,Single-ply,SBD,F
Girls,75.07,DQ,Carmen Flores,Los Fresnos,73.12,140.61,,,,Single-ply,SBD,F
Girls,75.07,DQ,Monett Rodriguez,Sharyland Pioneer,68.49,68.04,,,,Single-ply,SBD,F
Girls,82.33,1,Alyssa Juarez,Weslaco East,79.74,158.76,86.18,142.88,387.82,Single-ply,SBD,F
Girls,82.33,2,Katrina Mendez,Mission Sharyland,80.47,145.15,77.11,131.54,353.8,Single-ply,SBD,F
Girls,82.33,3,Gabby Augilera,La Joya,80.83,138.35,56.7,131.54,326.59,Single-ply,SBD,F
Girls,82.33,4,Samantha Walter,Mission Veterans Memorial,79.47,104.33,52.16,108.86,265.35,Single-ply,SBD,F
Girls,82.33,5,Allyson Gutierrez,McAllen Memorial,77.56,90.72,56.7,115.67,263.08,Single-ply,SBD,F
Girls,82.33,6,Angela Lopez,Rio Hondo,78.93,106.59,54.43,92.99,254.01,Single-ply,SBD,F
Girls,82.33,DQ,Layla Carrizales,Los Fresnos,78.56,133.81,,,,Single-ply,SBD,F
Girls,90.04,1,Itzayanni Martinez,McAllen Memorial,89.54,170.1,77.11,131.54,378.75,Single-ply,SBD,F
Girls,90.04,2,Jaretze Ramon,La Joya Palmview,88.45,149.69,74.84,151.95,376.48,Single-ply,SBD,F
Girls,90.04,3,Anyssa Barrientes,Rio Hondo,82.83,142.88,63.5,156.49,362.87,Single-ply,SBD,F
Girls,90.04,4,Alyssa Garza,Mission,89.81,147.42,56.7,129.27,333.39,Single-ply,SBD,F
Girls,90.04,5,Kassandra Rodriguez,McAllen,85.28,136.08,70.31,113.4,319.78,Single-ply,SBD,F
Girls,90.04,6,Ashlea Perales,Rio Hondo,86.82,120.2,56.7,129.27,306.17,Single-ply,SBD,F
Girls,90.04,DQ,Landry Munoz,Weslaco East,88.5,,,,,Single-ply,SBD,F
Girls,90.04,DQ,Victoria Hernandez,McAllen,88.09,108.86,61.23,,,Single-ply,SBD,F
Girls,100.02,1,Carolina De Leon,Weslaco East,92.99,195.04,81.65,167.83,444.52,Single-ply,SBD,F
Girls,100.02,2,Lisa Zuniga,Rio Hondo,97.98,147.42,79.38,136.08,362.87,Single-ply,SBD,F
Girls,100.02,3,Sitlalik Chapa,La Joya,98.43,138.35,68.04,127.01,333.39,Single-ply,SBD,F
Girls,100.02,4,Casey Najar,Rio Hondo,93.35,129.27,63.5,133.81,326.59,Single-ply,SBD,F
Girls,100.02,DQ,Rosalinda Castillo,Mission Sharyland,98.43,136.08,,,,Single-ply,SBD,F
Girls,117.71,1,Brandy Gonzales,Rio Hondo,101.15,165.56,74.84,127.01,367.41,Single-ply,SBD,F
Girls,117.71+,1,Melissa Morales,Weslaco East,125.19,242.67,115.67,172.37,530.7,Single-ply,SBD,F
