Division,WeightClassKg,Place,Name,Team,BodyweightKg,Best3SquatKg,Best3BenchKg,Best3DeadliftKg,TotalKg,Equipment,Event,Sex
Boys,51.71,1,Mohammad Ali,Mansfield Timberview,46.9,108.86,70.31,131.54,310.71,Single-ply,SBD,M
Boys,51.71,2,Hamza Hamid,Mansfield,50.98,83.91,65.77,97.52,247.21,Single-ply,SBD,M
Boys,55.79,1,Dominique Moreland,Mansfield Summit,55.79,174.63,95.25,192.78,462.66,Single-ply,SBD,M
Boys,59.87,2,Prince Ofori-Nyadu,Mansfield Lake Ridge,55.88,124.74,70.31,136.08,331.12,Single-ply,SBD,M
Boys,67.13,1,Avery Carter,Mansfield Summit,60.06,147.42,90.72,185.97,424.11,Single-ply,SBD,M
Boys,67.13,2,J'Von Varra,Mansfield Summit,60.06,136.08,92.99,142.88,371.95,Single-ply,SBD,M
Boys,59.87,3,Cubie Ward,Mansfield Legacy,57.79,147.42,90.72,131.54,369.68,Single-ply,SBD,M
Boys,59.87,4,Kris Glynn,Waco University,58.33,133.81,70.31,149.69,353.8,Single-ply,SBD,M
Boys,59.87,5,Angelo Romo,Waco University,58.88,117.93,68.04,120.2,306.17,Single-ply,SBD,M
Boys,59.87,DQ,Austin Craft,Waco University,56.34,,,,,Single-ply,SBD,M
Boys,67.13,1,Matthew Barrett,Mansfield Summit,63.78,208.65,92.99,222.26,523.9,Single-ply,SBD,M
Boys,67.13,2,Antwan Coleman,Waco University,66.04,208.65,113.4,195.04,517.1,Single-ply,SBD,M
Boys,67.13,3,Kyle Van Pelt,Mansfield Timberview,63.59,195.04,106.59,199.58,501.22,Single-ply,SBD,M
Boys,74.84,4,Dondrell Hawkins,Mansfield,67.31,199.58,108.86,192.78,501.22,Single-ply,SBD,M
Boys,67.13,5,Devante Owens,Mansfield,64.86,185.97,104.33,185.97,476.27,Single-ply,SBD,M
Boys,67.13,6,Caleb Waugh,Mansfield Legacy,66.59,158.76,111.13,158.76,428.64,Single-ply,SBD,M
Boys,67.13,7,Brennan Morrell,Mansfield Legacy,62.51,147.42,88.45,142.88,378.75,Single-ply,SBD,M
Boys,67.13,8,Aaron Rodriguez,Waco University,61.23,133.81,83.91,136.08,353.8,Single-ply,SBD,M
Boys,67.13,9,Jarrett Powell,Duncanville,64.95,138.35,90.72,124.74,353.8,Single-ply,SBD,M
Boys,67.13,10,Trevor Dever,Waco University,65.77,158.76,70.31,111.13,340.19,Single-ply,SBD,M
Boys,74.84,1,Tumarius Flowers,Mansfield Summit,73.94,201.85,127.01,215.46,544.31,Single-ply,SBD,M
Boys,74.84,2,Josh Smith,Mansfield Timberview,71.94,217.72,115.67,199.58,532.97,Single-ply,SBD,M
Boys,82.1,3,Nick Hall,Mansfield,75.02,192.78,122.47,204.12,519.36,Single-ply,SBD,M
Boys,74.84,4,Wictor Dos Anjos,Mansfield Summit,68.86,136.08,74.84,163.29,374.21,Single-ply,SBD,M
Boys,74.84,5,Steven Sims,Mansfield Legacy,67.59,115.67,70.31,136.08,322.05,Single-ply,SBD,M
Boys,74.84,6,Kendall Chalk,Mansfield Lake Ridge,69.4,99.79,72.57,120.2,292.57,Single-ply,SBD,M
Boys,74.84,7,Tyler Strawn,Mansfield Legacy,70.58,102.06,72.57,113.4,288.03,Single-ply,SBD,M
Boys,74.84,DQ,Tyler Wawrzynski,Mansfield Legacy,74.3,151.95,,172.37,,Single-ply,SBD,M
Boys,82.1,1,Jt Ibe,Mansfield,77.84,208.65,106.59,204.12,519.36,Single-ply,SBD,M
Boys,82.1,2,Garrick Orth,Mansfield Summit,79.92,147.42,81.65,167.83,396.89,Single-ply,SBD,M
Boys,82.1,3,Noah Newhouse,Mansfield Lake Ridge,79.83,122.47,102.06,163.29,387.82,Single-ply,SBD,M
Boys,89.81,1,Dayton Boling,Mansfield Summit,85.64,192.78,117.93,201.85,512.56,Single-ply,SBD,M
Boys,89.81,2,Dylan Briscoe,Mansfield Summit,85.55,165.56,111.13,179.17,455.86,Single-ply,SBD,M
Boys,89.81,3,Kendall Dewitt,Mansfield Lake Ridge,89.36,142.88,99.79,179.17,421.84,Single-ply,SBD,M
Boys,89.81,DQ,Jawon Denmark,Duncanville,85.91,,,,,Single-ply,SBD,M
Boys,99.79,1,Samuel Amaka,Mansfield Timberview,98.07,272.16,145.15,265.35,682.66,Single-ply,SBD,M
Boys,99.79,2,Alejandro Anzaldua,Mansfield Timberview,98.07,283.5,161.03,219.99,664.51,Single-ply,SBD,M
Boys,99.79,3,Maurice Isuo,Mansfield,94.35,213.19,115.67,226.8,555.65,Single-ply,SBD,M
Boys,99.79,4,Jared Walsh,Mansfield Lake Ridge,96.34,188.24,108.86,195.04,492.15,Single-ply,SBD,M
Boys,99.79,5,Matt Harmon,Mansfield Timberview,98.61,181.44,106.59,172.37,460.4,Single-ply,SBD,M
Boys,99.79,6,Michael Coleman,Mansfield Timberview,92.17,176.9,108.86,172.37,458.13,Single-ply,SBD,M
Boys,99.79,7,Fox James,Mansfield Timberview,93.35,97.52,56.7,136.08,290.3,Single-ply,SBD,M
Boys,109.77,1,Noel Escalon,Mansfield,106.87,192.78,115.67,179.17,487.61,Single-ply,SBD,M
Boys,109.77,2,Ashantiz Cox,Duncanville,101.7,174.63,113.4,172.37,460.4,Single-ply,SBD,M
Boys,109.77,3,Sean Gil,Mansfield,102.24,172.37,120.2,165.56,458.13,Single-ply,SBD,M
Boys,109.77,4,Quincy Canady,Duncanville,103.42,167.83,120.2,151.95,439.98,Single-ply,SBD,M
Boys,109.77,5,Kyle Harper,Duncanville,107.14,151.95,111.13,167.83,430.91,Single-ply,SBD,M
Boys,109.77,6,Cameron Sorrells,Mansfield Lake Ridge,108.59,158.76,104.33,149.69,412.77,Single-ply,SBD,M
Boys,124.74,7,Quailon Haynes,Duncanville,109.86,174.63,83.91,149.69,408.23,Single-ply,SBD,M
Boys,109.77,8,Darian Flores,Mansfield Timberview,106.59,145.15,70.31,151.95,367.41,Single-ply,SBD,M
Boys,109.77,9,Thomas Patterson,Mansfield Lake Ridge,103.6,70.31,74.84,142.88,288.03,Single-ply,SBD,M
Boys,109.77,DQ,Moses Arawole,Mansfield Timberview,102.78,190.51,99.79,,,Single-ply,SBD,M
Boys,124.74,1,Thomas Turner,Waco University,121.93,231.33,133.81,181.44,546.58,Single-ply,SBD,M
Boys,124.74,2,Johnathan Ayala,Mansfield Summit,118.02,215.46,129.27,199.58,544.31,Single-ply,SBD,M
Boys,124.74,3,Seth Turnbough,Mansfield Legacy,117.12,206.38,142.88,188.24,537.51,Single-ply,SBD,M
Boys,124.74,4,Anthony Dominguez,Mansfield,116.39,199.58,127.01,188.24,514.83,Single-ply,SBD,M
Boys,124.74,5,Gabriel Vega,Waco University,118.57,217.72,97.52,195.04,510.29,Single-ply,SBD,M
Boys,124.74,6,Doug Thomas,Mansfield,112.49,204.12,142.88,158.76,505.76,Single-ply,SBD,M
Boys,124.74,7,Kameron Alston,Mansfield Legacy,116.03,213.19,117.93,163.29,494.42,Single-ply,SBD,M
Boys,124.74,8,Bronsyn Smith,Mansfield Lake Ridge,122.92,183.7,106.59,185.97,476.27,Single-ply,SBD,M
Boys,124.74,9,Chase Snyder,Mansfield Summit,110.4,172.37,108.86,188.24,469.47,Single-ply,SBD,M
Boys,124.74,10,Eric Fedon,Mansfield Lake Ridge,112.67,158.76,90.72,174.63,424.11,Single-ply,SBD,M
Boys,124.74,DQ,Terrance Bell,Mansfield Legacy,117.12,133.81,90.72,,,Single-ply,SBD,M
Boys,124.74,DQ,Hunter Childress,Duncanville,121.47,179.17,104.33,,,Single-ply,SBD,M
Boys,124.74+,1,Ben Hughes,Waco University,148.87,299.37,183.7,308.44,791.52,Single-ply,SBD,M
Boys,124.74+,2,Michael Bonilla,Waco University,137.26,233.6,124.74,226.8,585.13,Single-ply,SBD,M
Boys,124.74+,3,Michael Ryan Pescka,Mansfield Timberview,130.36,176.9,127.01,206.38,510.29,Single-ply,SBD,M
Boys,124.74+,4,Simont Scott,Mansfield Lake Ridge,149.41,136.08,74.84,142.88,353.8,Single-ply,SBD,M
Boys,124.74+,DQ,Terry Fulton,Waco University,128.19,,,,,Single-ply,SBD,M
Boys,124.74+,DQ,Jordan Toliver,Duncanville,127.91,204.12,,,,Single-ply,SBD,M
Boys,124.74+,DQ,Cornelius Henderson,Duncanville,135.9,204.12,,,,Single-ply,SBD,M
