Division,WeightClassKg,Place,Name,Team,BodyweightKg,Best3SquatKg,Best3BenchKg,Best3DeadliftKg,TotalKg,Equipment,Event,Sex
Boys,51.71,1,Kyle Reed,Wichita Falls City View,49.71,108.86,47.63,111.13,267.62,Single-ply,SBD,M
Boys,51.71,2,Trace Thompson,Burkburnett,49.99,92.99,52.16,104.33,249.48,Single-ply,SBD,M
Boys,55.79,1,Stanley Stevens,Ranger,54.98,149.69,77.11,138.35,365.14,Single-ply,SBD,M
Boys,55.79,2,Angel Garza,Decatur,54.61,131.54,63.5,140.61,335.66,Single-ply,SBD,M
Boys,59.87,3,Brysan Garrard,Vernon,55.88,127.01,61.23,124.74,312.98,Single-ply,SBD,M
Boys,55.79,4,Sergio Romero,Childress,55.16,104.33,61.23,127.01,292.57,Single-ply,SBD,M
Boys,55.79,5,Michael Sturtevant,Wichita Falls City View,55.25,70.31,52.16,113.4,235.87,Single-ply,SBD,M
Boys,67.13,1,David Watson,Seymour,59.96,183.7,97.52,190.51,471.74,Single-ply,SBD,M
Boys,59.87,2,J. Paul Axtell,Olney,59.42,165.56,97.52,158.76,421.84,Single-ply,SBD,M
Boys,67.13,3,Jesus Gam,Decatur,60.06,158.76,81.65,156.49,396.89,Single-ply,SBD,M
Boys,59.87,4,Marc Lara,Decatur,58.33,154.22,68.04,149.69,371.95,Single-ply,SBD,M
Boys,59.87,5,Alexis Rodriguez,Jacksboro,58.24,127.01,70.31,131.54,328.85,Single-ply,SBD,M
Boys,59.87,6,Caleb McWhorter,Wichita Falls City View,56.88,111.13,61.23,138.35,310.71,Single-ply,SBD,M
Boys,59.87,7,Chris McKinney,Decatur,59.06,106.59,70.31,88.45,265.35,Single-ply,SBD,M
Boys,59.87,DQ,Devon Hall,Seymour,58.97,,,,,Single-ply,SBD,M
Boys,67.13,1,Tinnin Smith,Jacksboro,65.68,170.1,117.93,181.44,469.47,Single-ply,SBD,M
Boys,67.13,2,Josh Wells,Jacksboro,64.95,145.15,86.18,172.37,403.7,Single-ply,SBD,M
Boys,74.84,3,Keith Hawkins,Wichita Falls City View,67.31,142.88,74.84,140.61,358.34,Single-ply,SBD,M
Boys,67.13,4,Jesse Romero,Decatur,64.68,102.06,86.18,131.54,319.78,Single-ply,SBD,M
Boys,67.13,5,Chad Thomas,Vernon,60.96,108.86,56.7,129.27,294.84,Single-ply,SBD,M
Boys,67.13,DQ,Aj Hilbers,Seymour,64.32,,,,,Single-ply,SBD,M
Boys,74.84,1,Bodi Gilbert,Electra,73.39,174.63,122.47,181.44,478.54,Single-ply,SBD,M
Boys,74.84,2,Parker Taylor,Argyle,74.03,176.9,102.06,192.78,471.74,Single-ply,SBD,M
Boys,74.84,3,Dylan Davidson,Childress,73.12,181.44,95.25,176.9,453.59,Single-ply,SBD,M
Boys,74.84,4,Isaiah Charles,Wichita Falls City View,73.3,165.56,102.06,181.44,449.06,Single-ply,SBD,M
Boys,74.84,5,Nick Golden,Argyle,72.48,158.76,74.84,174.63,408.23,Single-ply,SBD,M
Boys,74.84,6,Jacob Hull,Jacksboro,70.49,133.81,77.11,154.22,365.14,Single-ply,SBD,M
Boys,82.1,7,Tyler Campbell,Iowa Park,74.93,138.35,74.84,149.69,362.87,Single-ply,SBD,M
Boys,74.84,8,Davion Davis,Burkburnett,70.22,122.47,65.77,142.88,331.12,Single-ply,SBD,M
Boys,74.84,9,Allan Allsbrooks,Decatur,70.49,113.4,65.77,120.2,299.37,Single-ply,SBD,M
Boys,82.1,DQ,Dakota Cruthrid,Iowa Park,74.93,,,,,Single-ply,SBD,M
Boys,82.1,1,Danny Ho,Wichita Falls City View,76.93,219.99,120.2,222.26,562.45,Single-ply,SBD,M
Boys,89.81,2,Alex Guerrero,Childress,82.28,185.97,124.74,238.14,548.85,Single-ply,SBD,M
Boys,82.1,3,Nate McLemore,Iowa Park,75.66,190.51,136.08,183.7,510.29,Single-ply,SBD,M
Boys,82.1,4,Landon Bale,Burkburnett,80.92,149.69,106.59,204.12,460.4,Single-ply,SBD,M
Boys,82.1,5,Brent McCallon,Vernon,77.38,163.29,95.25,181.44,439.98,Single-ply,SBD,M
Boys,82.1,6,Johnathan Green,Jacksboro,78.65,154.22,92.99,154.22,401.43,Single-ply,SBD,M
Boys,82.1,7,Walynn Williams,Iowa Park,79.92,158.76,81.65,142.88,383.29,Single-ply,SBD,M
Boys,82.1,8,John Robison,Iowa Park,82.01,131.54,83.91,140.61,356.07,Single-ply,SBD,M
Boys,82.1,DQ,Matt Castle,Argyle,81.19,,,,,Single-ply,SBD,M
Boys,82.1,DQ,Marquis Askew,Burkburnett,81.65,179.17,127.01,,,Single-ply,SBD,M
Boys,89.81,1,Triston Matthews,Howe,88.99,208.65,102.06,195.04,505.76,Single-ply,SBD,M
Boys,89.81,2,Spencer Garcia,Wichita Falls City View,89.54,183.7,102.06,215.46,501.22,Single-ply,SBD,M
Boys,89.81,3,Hunter Shawver,Iowa Park,89.72,204.12,97.52,199.58,501.22,Single-ply,SBD,M
Boys,89.81,4,Hunter Bagley,Iowa Park,89.81,174.63,106.59,199.58,480.81,Single-ply,SBD,M
Boys,89.81,5,Adrian Cantu,Decatur,86.55,174.63,97.52,172.37,444.52,Single-ply,SBD,M
Boys,89.81,6,Chance Arndt,Burkburnett,83.46,113.4,79.38,163.29,356.07,Single-ply,SBD,M
Boys,99.79,1,Jai Shepard,Electra,96.25,226.8,124.74,204.12,555.65,Single-ply,SBD,M
Boys,99.79,2,Trevor Methvin,Vernon,98.52,204.12,108.86,240.4,553.38,Single-ply,SBD,M
Boys,109.77,3,Connor Bales,Burkburnett,99.97,192.78,111.13,231.33,535.24,Single-ply,SBD,M
Boys,99.79,4,Ramon Guerra,Wichita Falls City View,99.06,226.8,108.86,188.24,523.9,Single-ply,SBD,M
Boys,109.77,1,David Madore,Ranger,107.23,226.8,151.95,215.46,594.21,Single-ply,SBD,M
Boys,109.77,2,Rhett Buckley,Childress,101.33,199.58,115.67,170.1,485.34,Single-ply,SBD,M
Boys,109.77,3,Ryan Lambert,Childress,103.96,181.44,106.59,195.04,483.08,Single-ply,SBD,M
Boys,109.77,4,Kame Oshiro,Iowa Park,108.59,176.9,122.47,163.29,462.66,Single-ply,SBD,M
Boys,109.77,DQ,Guillermo Parham,Wichita Falls Rider,103.51,260.82,163.29,,,Single-ply,SBD,M
Boys,124.74,1,Jacob Boswell,Burkburnett,117.66,226.8,131.54,208.65,566.99,Single-ply,SBD,M
Boys,124.74,2,Deondre Clark,Wichita Falls Hirschi,119.11,233.6,133.81,188.24,555.65,Single-ply,SBD,M
Boys,124.74,3,Cody Caballero,Iowa Park,123.29,204.12,124.74,210.92,539.77,Single-ply,SBD,M
Boys,124.74,4,Cedric Watts,Burkburnett,120.11,183.7,99.79,183.7,467.2,Single-ply,SBD,M
Boys,124.74+,1,Ryan Ford,Wichita Falls City View,140.61,213.19,129.27,219.99,562.45,Single-ply,SBD,M
Boys,124.74+,2,Martin Cunningham,Wichita Falls Hirschi,126.64,204.12,138.35,174.63,517.1,Single-ply,SBD,M
Boys,,NS,Grant Griffis,Burkburnett,,,,,,Single-ply,SBD,M
Boys,,NS,Danny Wood,Burkburnett,,,,,,Single-ply,SBD,M
Boys,,NS,Daniel Castro,Burkburnett,,,,,,Single-ply,SBD,M
Boys,,NS,Kolby Youngblood,Burkburnett,,,,,,Single-ply,SBD,M
Boys,,NS,Carlos Fuentes,Graham,,,,,,Single-ply,SBD,M
Boys,,NS,Dylan Alred,Graham,,,,,,Single-ply,SBD,M
Boys,,NS,Justin Elmore,Graham,,,,,,Single-ply,SBD,M
Boys,,NS,Clayton Hawkins,Graham,,,,,,Single-ply,SBD,M
Boys,,NS,David Palacios,Graham,,,,,,Single-ply,SBD,M
Boys,,NS,Hector Alejo,Graham,,,,,,Single-ply,SBD,M
Boys,,NS,Jahlian Tate,Graham,,,,,,Single-ply,SBD,M
Boys,,NS,Jose Hernandez,Graham,,,,,,Single-ply,SBD,M
Boys,,NS,Gustavo Ramirez,Graham,,,,,,Single-ply,SBD,M
Boys,,NS,Jeffrey Hazlett,Graham,,,,,,Single-ply,SBD,M
Boys,,NS,Jt Fallon,Iowa Park,,,,,,Single-ply,SBD,M
Boys,,NS,Gilbert Borrego,Merkel,,,,,,Single-ply,SBD,M
Boys,,NS,Axel Marcenaro,Merkel,,,,,,Single-ply,SBD,M
Boys,,NS,Mikey Taylor,Merkel,,,,,,Single-ply,SBD,M
