Division,WeightClassKg,Place,Name,Team,BodyweightKg,Best3SquatKg,Best3BenchKg,Best3DeadliftKg,TotalKg,Equipment,Event,Sex
Boys,51.71,1,Jacob Brown,Livingston,51.71,90.72,49.9,120.2,260.82,Single-ply,SBD,M
Boys,51.71,2,Quivion Horton,Livingston,47.49,83.91,45.36,92.99,222.26,Single-ply,SBD,M
Boys,55.79,1,Sean Unterreiner,Splendora,54.43,133.81,65.77,120.2,319.78,Single-ply,SBD,M
Boys,55.79,2,Andrew King,Cleveland Tarkington,54.66,117.93,72.57,117.93,308.44,Single-ply,SBD,M
Boys,55.79,3,Tyler Foxworth,Shepherd,54.34,92.99,61.23,106.59,260.82,Single-ply,SBD,M
Boys,55.79,DQ,Coltin Wilkerson,Cleveland Tarkington,52.93,,,,,Single-ply,SBD,M
Boys,55.79,DQ,Mason Walker,Livingston,55.79,,,,,Single-ply,SBD,M
Boys,59.87,1,Jessy Yanez,Channelview,59.74,210.92,95.25,213.19,519.36,Single-ply,SBD,M
Boys,59.87,2,Patrick Dishman,Huntsville,56.7,158.76,92.99,158.76,410.5,Single-ply,SBD,M
Boys,59.87,3,Nate Colborn,Montgomery,58.69,167.83,77.11,163.29,408.23,Single-ply,SBD,M
Boys,59.87,4,Lain Baker,Shepherd,57.42,145.15,81.65,156.49,383.29,Single-ply,SBD,M
Boys,59.87,5,Bryant Wilkerson,Cleveland Tarkington,59.19,163.29,77.11,142.88,383.29,Single-ply,SBD,M
Boys,59.87,6,Walker Windt,Shepherd,57.7,136.08,58.97,131.54,326.59,Single-ply,SBD,M
Boys,59.87,7,Chase Whitmire,Shepherd,57.42,131.54,68.04,124.74,324.32,Single-ply,SBD,M
Boys,59.87,8,Clayton Sievertson,Shepherd,58.06,115.67,70.31,99.79,285.76,Single-ply,SBD,M
Boys,67.13,1,Juan Carapia,Shepherd,64.41,201.85,106.59,204.12,512.56,Single-ply,SBD,M
Boys,67.13,2,Justin Legg,Livingston,67.09,192.78,104.33,195.04,492.15,Single-ply,SBD,M
Boys,67.13,3,Antonio Garcia,Splendora,67.09,167.83,99.79,176.9,444.52,Single-ply,SBD,M
Boys,67.13,4,Joseph Flores,Huffman Hargrave,66.72,147.42,104.33,181.44,433.18,Single-ply,SBD,M
Boys,67.13,5,Shelton Vasquez,Shepherd,63.59,167.83,77.11,170.1,415.04,Single-ply,SBD,M
Boys,67.13,6,Payton Orzechowski,Cleveland Tarkington,66.63,158.76,97.52,158.76,415.04,Single-ply,SBD,M
Boys,67.13,7,Will Whitaker,Shepherd,64.23,161.03,97.52,154.22,412.77,Single-ply,SBD,M
Boys,67.13,8,Garrett Hlavaty,Cleveland Tarkington,62.14,165.56,97.52,142.88,405.97,Single-ply,SBD,M
Boys,67.13,9,James Lightfoot,Channelview,60.33,149.69,97.52,142.88,390.09,Single-ply,SBD,M
Boys,67.13,10,Hector Hernandez,Splendora,64.05,133.81,83.91,142.88,360.61,Single-ply,SBD,M
Boys,67.13,11,Nathaniel Harrison,Shepherd,60.78,138.35,63.5,133.81,335.66,Single-ply,SBD,M
Boys,67.13,12,Bryce Triele,Montgomery,63.41,117.93,74.84,129.27,322.05,Single-ply,SBD,M
Boys,67.13,DQ,Raken Devito,Cleveland Tarkington,65.82,,,,,Single-ply,SBD,M
Boys,67.13,DQ,Connor Halbrooks,Huffman Hargrave,67.13,,,,,Single-ply,SBD,M
Boys,74.84,1,Julian Wetzel,Huffman Hargrave,73.07,192.78,117.93,197.31,508.02,Single-ply,SBD,M
Boys,74.84,2,Bradley Sanders,Cleveland Tarkington,74.57,208.65,115.67,174.63,498.95,Single-ply,SBD,M
Boys,74.84,3,Andrew Hernandez,Splendora,74.53,185.97,113.4,190.51,489.88,Single-ply,SBD,M
Boys,74.84,4,Aj Hirsikorn,Montgomery,74.43,183.7,97.52,183.7,464.93,Single-ply,SBD,M
Boys,74.84,5,Ryan Hannah,Cleveland Tarkington,71.4,163.29,124.74,165.56,453.59,Single-ply,SBD,M
Boys,74.84,6,Zach Odom,Huffman Hargrave,67.31,149.69,88.45,183.7,421.84,Single-ply,SBD,M
Boys,74.84,7,Elijah Wyatt,Shepherd,70.49,161.03,77.11,181.44,419.57,Single-ply,SBD,M
Boys,74.84,8,Jaylon McClain,Huntsville,72.21,156.49,92.99,158.76,408.23,Single-ply,SBD,M
Boys,74.84,9,Zac Lockart,Montgomery,71.71,90.72,68.04,113.4,272.16,Single-ply,SBD,M
Boys,74.84,10,Henry Herrarte,Shepherd,73.71,74.84,52.16,106.59,233.6,Single-ply,SBD,M
Boys,74.84,DQ,Duke Atwell,Livingston,74.84,,,,,Single-ply,SBD,M
Boys,82.1,1,Deryk Villarreal,Huffman Hargrave,81.6,208.65,120.2,188.24,517.1,Single-ply,SBD,M
Boys,82.1,2,Caiden Yarbrough,Shepherd,79.74,145.15,99.79,163.29,408.23,Single-ply,SBD,M
Boys,82.1,3,Keagan Wilson,Huffman Hargrave,75.66,151.95,92.99,158.76,403.7,Single-ply,SBD,M
Boys,82.1,4,Richard Brooks,Livingston,75.11,138.35,74.84,170.1,383.29,Single-ply,SBD,M
Boys,82.1,5,Maddox Hirsikorn,Montgomery,78.29,147.42,77.11,145.15,369.68,Single-ply,SBD,M
Boys,82.1,6,Landon Robbins,Shepherd,79.38,102.06,61.23,142.88,306.17,Single-ply,SBD,M
Boys,82.1,DQ,Garrett Ling,Cleveland Tarkington,78.83,131.54,86.18,,,Single-ply,SBD,M
Boys,82.1,DQ,Aj San Miguel,Huffman Hargrave,82.1,,,,,Single-ply,SBD,M
Boys,82.1,DQ,Garrett Halbrooks,Huffman Hargrave,82.1,,,,,Single-ply,SBD,M
Boys,82.1,DQ,Daniel Vasquez,Shepherd,76.29,,,,,Single-ply,SBD,M
Boys,89.81,1,Marshall Miller,Cleveland Tarkington,88.9,204.12,108.86,226.8,539.77,Single-ply,SBD,M
Boys,89.81,2,Zach Ryans,Channelview,89.72,183.7,113.4,231.33,528.44,Single-ply,SBD,M
Boys,89.81,3,Everardo Avalos,Splendora,84.5,185.97,129.27,190.51,505.76,Single-ply,SBD,M
Boys,89.81,4,Zach Anderson,Montgomery,85.5,172.37,97.52,208.65,478.54,Single-ply,SBD,M
Boys,89.81,5,Brice Major,Shepherd,87.82,183.7,111.13,183.7,478.54,Single-ply,SBD,M
Boys,89.81,6,Latel Sweat,Huntsville,83.32,165.56,120.2,170.1,455.86,Single-ply,SBD,M
Boys,89.81,7,Beau McCray,Huffman Hargrave,87.68,149.69,97.52,181.44,428.64,Single-ply,SBD,M
Boys,89.81,DQ,Evan Barrow,Huffman Hargrave,89.81,,,,,Single-ply,SBD,M
Boys,89.81,DQ,James Custer,Montgomery,89.81,,,,,Single-ply,SBD,M
Boys,89.81,DQ,Zackery Chance,Shepherd,87,,,,,Single-ply,SBD,M
Boys,99.79,1,Jaeryne Green,Huntsville,91.08,208.65,136.08,219.99,564.72,Single-ply,SBD,M
Boys,99.79,2,Caleb Monroe,Coldspring-Oakhurst,91.44,208.65,115.67,217.72,542.04,Single-ply,SBD,M
Boys,99.79,3,Christian Sevrano,Channelview,98.75,192.78,95.25,215.46,503.49,Single-ply,SBD,M
Boys,99.79,4,Logan Alpha,Splendora,92.94,174.63,102.06,174.63,451.32,Single-ply,SBD,M
Boys,99.79,5,Mason Walters,Shepherd,97.7,165.56,106.59,149.69,421.84,Single-ply,SBD,M
Boys,99.79,6,Isaiah Oldham,Livingston,98.88,158.76,70.31,151.95,381.02,Single-ply,SBD,M
Boys,99.79,7,Gavin Edwards,Cleveland Tarkington,93.89,142.88,86.18,142.88,371.95,Single-ply,SBD,M
Boys,99.79,8,Seth Palmer,Montgomery,92.49,124.74,81.65,140.61,347,Single-ply,SBD,M
Boys,99.79,9,Christian Ridley,Montgomery,94.98,113.4,68.04,124.74,306.17,Single-ply,SBD,M
Boys,99.79,DQ,Jackson Ellingburg,Shepherd,95.98,,,,,Single-ply,SBD,M
Boys,109.77,1,Michael Bush,Channelview,102.69,260.82,154.22,278.96,694,Single-ply,SBD,M
Boys,109.77,2,Kieron Ross,Huntsville,104.33,192.78,136.08,190.51,519.36,Single-ply,SBD,M
Boys,109.77,3,Collin Rhodes,Splendora,106.68,183.7,124.74,190.51,498.95,Single-ply,SBD,M
Boys,109.77,4,Zach Pitts,Huffman Hargrave,103.1,206.38,104.33,179.17,489.88,Single-ply,SBD,M
Boys,109.77,5,Kaylon Ellis,Shepherd,101.15,195.04,106.59,179.17,480.81,Single-ply,SBD,M
Boys,109.77,6,Kyler Colbert,Cleveland Tarkington,102.6,113.4,49.9,117.93,281.23,Single-ply,SBD,M
Boys,109.77,DQ,Brandon Haltom,Cleveland Tarkington,101.11,199.58,,,,Single-ply,SBD,M
Boys,109.77,DQ,Mario Maldonado,Splendora,106.41,226.8,,,,Single-ply,SBD,M
Boys,109.77,DQ,James Beal,Livingston,104.19,161.03,79.38,,,Single-ply,SBD,M
Boys,109.77,DQ,Kevin Jernigen,Splendora,109.77,,,,,Single-ply,SBD,M
Boys,124.74,1,Gus Davis,Huffman Hargrave,124.69,260.82,163.29,249.48,673.58,Single-ply,SBD,M
Boys,124.74,2,Abner Mancillas,Channelview,117.57,251.74,154.22,229.06,635.03,Single-ply,SBD,M
Boys,124.74,3,Eliaser Tamayo,Huntsville,111.86,226.8,136.08,229.06,591.94,Single-ply,SBD,M
Boys,124.74,4,Austin Couhig,Cleveland Tarkington,118.25,226.8,127.01,219.99,573.79,Single-ply,SBD,M
Boys,124.74,5,Justin Capps,Shepherd,116.12,229.06,111.13,204.12,544.31,Single-ply,SBD,M
Boys,124.74,DQ,Peyton McCormick,Cleveland Tarkington,119.84,235.87,,,,Single-ply,SBD,M
Boys,124.74+,1,Zach Taylor,Shepherd,139.07,331.12,183.7,254.01,768.84,Single-ply,SBD,M
Boys,124.74+,2,David Mejia,Huntsville,139.12,260.82,179.17,217.72,657.71,Single-ply,SBD,M
Boys,124.74+,3,Paula Vaipulu,Channelview,138.21,267.62,140.61,240.4,648.64,Single-ply,SBD,M
Boys,124.74+,4,Byron Henderson,Channelview,143.24,233.6,167.83,226.8,628.23,Single-ply,SBD,M
Boys,124.74+,5,Alex O'Dell,Cleveland Tarkington,128,242.67,147.42,206.38,596.47,Single-ply,SBD,M
Boys,124.74+,6,Micah Hare,Cleveland Tarkington,138.89,210.92,124.74,183.7,519.36,Single-ply,SBD,M
Boys,124.74+,7,Dale Martin,Splendora,150.09,215.46,113.4,181.44,510.29,Single-ply,SBD,M
Boys,124.74+,DQ,Nigele Grant,Huntsville,153.13,,,,,Single-ply,SBD,M
Boys,124.74+,DQ,Orlando Vasquez,Livingston,146.01,204.12,108.86,,,Single-ply,SBD,M
Boys,124.74+,DQ,Jayden Whitten,Coldspring-Oakhurst,132.04,210.92,102.06,,,Single-ply,SBD,M
