Place,Sex,Name,Event,Division,WeightClassKg,Equipment,State,BodyweightKg,Squat1Kg,Squat2Kg,Squat3Kg,Best3SquatKg,Bench1Kg,Bench2Kg,Bench3Kg,Best3BenchKg,Deadlift1Kg,Deadlift2Kg,Deadlift3Kg,Best3DeadliftKg,TotalKg,BirthYear
1,M,Phil Brinks,B,M-O,120+,Single-ply,SD,166.1,,,,,175,185,197.5,197.5,,,,,197.5,1981
1,M,Russel Steinshouer,B,MR-M2b,74,Raw,NE,72.7,,,,,105,-112.5,,105.0,,,,,105,1959
1,M,David Sneen,B,MR-M3a,120,Raw,SD,119.9,,,,,180,185,-190,185.0,,,,,185,1955
1,F,Jacquelyn Frost,B,FR-O,72,Raw,NE,71.5,,,,,65,-72.5,-72.5,65.0,,,,,65,1988
1,M,Jared Weers,SBD,M-O,105,Single-ply,NE,100.2,-230,230,245,245.0,130,137.5,142.5,142.5,220,235,-240,235.0,622.5,1987
1,M,Azad Naser,SBD,MR-Jr,53,Raw,NE,51.1,85,97.5,-110,97.5,70,75,-85,75.0,110,142.5,-157.5,142.5,315,1994
1,M,Michael Phan,SBD,MR-Jr,66,Raw,IA,64,160,185,-187.5,185.0,115,-125,-125,115.0,192.5,-210,210,210.0,510,1996
1,M,Michael Kegel,SBD,MR-Jr,74,Raw,IA,69.4,132.5,-137.5,137.5,137.5,92.5,-95,-95,92.5,167.5,172.5,182.5,182.5,412.5,1995
1,M,Bryce Platt,SBD,MR-Jr,83,Raw,KS,82.5,225,237.5,247.5,247.5,142.5,152.5,155,155.0,242.5,257.5,267.5,267.5,670,1993
2,M,Michael Schaeffer,SBD,MR-Jr,83,Raw,MO,81.1,177.5,187.5,-197.5,187.5,137.5,142.5,-150,142.5,220,-227.5,-227.5,220.0,550,1993
3,M,Emilio Rocha,SBD,MR-Jr,83,Raw,KS,83,182.5,192.5,-197.5,192.5,110,-117.5,-117.5,110.0,225,240,-250,240.0,542.5,1995
4,M,Sam Lewey,SBD,MR-Jr,83,Raw,IA,81.5,155,167.5,175,175.0,90,-102.5,-102.5,90.0,157.5,167.5,182.5,182.5,447.5,1993
1,M,Lorenzo Tomasiello,SBD,MR-Jr,93,Raw,IA,92.4,227.5,237.5,-247.5,237.5,142.5,150,-155,150.0,265,275,287.5,287.5,675,1995
2,M,Cyler Anderson,SBD,MR-Jr,93,Raw,ND,92.1,210,-222.5,225,225.0,122.5,-130,135,135.0,250,262.5,-272.5,262.5,622.5,1995
3,M,Klint Conroy,SBD,MR-Jr,93,Raw,NE,89.3,175,182.5,-190,182.5,127.5,132.5,137.5,137.5,180,187.5,197.5,197.5,517.5,1994
4,M,Jacob Sikorski,SBD,MR-Jr,93,Raw,IA,84.7,152.5,160,-170,160.0,85,90,-97.5,90.0,177.5,192.5,-210,192.5,442.5,1995
1,M,Jordon Bents,SBD,MR-Jr,120+,Raw,SD,155.2,227.5,242.5,257.5,257.5,-152.5,157.5,162.5,162.5,265,277.5,-292.5,277.5,697.5,1992
2,M,Ronald Cornelius,SBD,MR-Jr,120+,Raw,NE,134.9,205,-215,215,215.0,125,-130,-130,125.0,232.5,240,250,250.0,590,1994
1,M,Lucas Tobler,SBD,MR-M1a,120,Raw,NE,118.8,212.5,225,240,240.0,132.5,142.5,-152.5,142.5,225,240,255,255.0,637.5,1975
1,M,Scott Bryant,SBD,MR-M1b,120+,Raw,NE,132.2,200,210,-215,210.0,165,172.5,-182.5,172.5,215,232.5,242.5,242.5,625,1969
1,M,Michael Pruss,SBD,MR-M2a,93,Raw,NE,90.6,120,-130,-130,120.0,110,115,120,120.0,165,172.5,182.5,182.5,422.5,1962
1,M,Monte Lofing,SBD,MR-M2b,66,Raw,NE,65.9,172.5,182.5,190,190.0,95,100,-105,100.0,165,172.5,177.5,177.5,467.5,1958
1,M,Russel Steinshouer,SBD,MR-M2b,74,Raw,NE,72.7,137.5,147.5,155,155.0,105,-112.5,,105.0,170,185,,185.0,445,1959
1,M,Steve Evaretts,SBD,MR-M2b,105,Raw,NE,103.2,167.5,-185,-190,167.5,125,137.5,142.5,142.5,207.5,227.5,-237.5,227.5,537.5,1961
1,M,James Thompson,SBD,MR-O,66,Raw,NE,66,130,140,-147.5,140.0,85,-95,-95,85.0,172.5,182.5,187.5,187.5,412.5,1964
1,M,Joel Waters,SBD,MR-O,83,Raw,NE,82.4,175,187.5,195,195.0,92.5,97.5,102.5,102.5,220,232.5,240,240.0,537.5,1977
2,M,Jordan Sidwell,SBD,MR-O,83,Raw,SD,74.9,165,175,185,185.0,90,97.5,102.5,102.5,190,215,-227.5,215.0,502.5,1991
1,M,Kenneth Goucher,SBD,MR-O,93,Raw,NE,91.8,165,175,180,180.0,-125,-130,130,130.0,192.5,205,215,215.0,525,1978
2,M,Stephen Wozab,SBD,MR-O,93,Raw,NE,91.5,157.5,175,185,185.0,85,95,-100,95.0,175,192.5,-205,192.5,472.5,1982
1,M,Jacob Hurley,SBD,MR-O,105,Raw,NE,101.8,205,-215,215,215.0,150,160,-162.5,160.0,250,265,-282.5,265.0,640,1985
2,M,Colin Harrington,SBD,MR-O,105,Raw,IA,103.5,192.5,200,-205,200.0,125,-137.5,-137.5,125.0,-247.5,247.5,-255,247.5,572.5,1990
1,M,Chris Peterson,SBD,MR-O,120,Raw,NE,117.2,235,247.5,255,255.0,170,177.5,-185,177.5,275,295,-305,295.0,727.5,1986
2,M,Joshua Koglin,SBD,MR-O,120,Raw,IA,115.8,195,210,220,220.0,155,165,-172.5,165.0,240,252.5,260,260.0,645,1988
3,M,Joey Spellerberg,SBD,MR-O,120,Raw,NE,107.5,155,167.5,182.5,182.5,97.5,102.5,105,105.0,195,205,215,215.0,502.5,1990
1,M,Mike Kracl,SBD,MR-O,120+,Raw,NE,121.2,-245,245,-247.5,245.0,150,-165,-165,150.0,245,257.5,265,265.0,660,1988
DQ,M,Zach Zoubek,SBD,MR-O,120+,Raw,NE,126.8,205,220,-225,220.0,-162.5,-170,-170,,-227.5,,,,,1982
1,M,George Diers,SBD,MR-T1,53,Raw,NE,47.3,72.5,77.5,82.5,82.5,35,40,-47.5,40.0,92.5,100,105,105.0,227.5,2000
1,M,Michael Poese,SBD,MR-T1,66,Raw,NE,65.6,92.5,97.5,-102.5,97.5,65,70,-75,70.0,102.5,107.5,112.5,112.5,280,2001
1,M,Elijah Trujillo,SBD,MR-T2,74,Raw,NE,72.4,117.5,130,-137.5,130.0,80,87.5,-92.5,87.5,142.5,,,142.5,360,1999
1,M,Mason Cabney,SBD,MR-T3,74,Raw,IA,72.8,182.5,,,182.5,117.5,,,117.5,227.5,,,227.5,527.5,1998
1,M,Josh Livermore,SBD,MR-Y3,93,Raw,SD,83.3,70,102.5,125,125.0,70,80,85,85.0,125,157.5,-172.5,157.5,367.5,2002
1,F,Elizabeth Richardson,SBD,F-M2a,72,Single-ply,SD,71.3,55,62.5,72.5,72.5,65,-72.5,-72.5,65.0,100,107.5,112.5,112.5,250,1962
1,F,Lauren Craft,SBD,FR-Jr,57,Raw,IA,56.2,92.5,-100,100,100.0,47.5,-50,-50,47.5,102.5,-110,110,110.0,257.5,1995
1,F,Brook McCluskey,SBD,FR-Jr,72,Raw,NE,69.2,100,107.5,115,115.0,-62.5,67.5,-72.5,67.5,122.5,132.5,140,140.0,322.5,1996
1,F,Lillian Lorang,SBD,FR-Jr,84,Raw,NE,82.7,-92.5,102.5,110,110.0,57.5,65,-70,65.0,127.5,137.5,145,145.0,320,1992
1,F,Jen Williams,SBD,FR-O,57,Raw,MO,53.4,52.5,60,65,65.0,40,45,47.5,47.5,65,77.5,85,85.0,197.5,1985
1,F,Jamie Simon,SBD,FR-O,72,Raw,MO,67.9,117.5,127.5,132.5,132.5,67.5,72.5,-75,72.5,155,167.5,-170,167.5,372.5,1983
2,F,Alena Dixson,SBD,FR-O,72,Raw,MO,65.8,-102.5,112.5,115,115.0,62.5,67.5,72.5,72.5,107.5,115,120,120.0,307.5,1989
1,F,Gabby Gard,SBD,FR-O,84+,Raw,NE,108.8,107.5,120,127.5,127.5,57.5,65,70,70.0,117.5,125,135,135.0,332.5,1991
DQ,F,Amanda Pospisil,SBD,FR-O,84+,Raw,NE,113.1,-187.5,-187.5,-187.5,,-100,,,,175,,,175.0,,1986
1,F,Natalie Richardson,SBD,FR-T2,72,Raw,SD,71.7,125,132.5,137.5,137.5,72.5,-77.5,-77.5,72.5,142.5,152.5,-160,152.5,362.5,1999
