JapaneseName,Name,BirthYear,Sex,BodyweightKg,WeightClassKg,Bench1Kg,Bench2Kg,Bench3Kg,Best3BenchKg,TotalKg,Event,Equipment,Team,Division,Place
福島 友佳子,Yukako Fukushima,1970,F,46.1,47,122.5,127.5,130,130,130,B,Single-ply,パワーハウス,Open,1
新井 拡子,Hiroko Arai,1963,F,46.75,47,102.5,108,-115,108,108,B,Single-ply,ｽｰﾊﾟｰﾊﾟﾜｰｱｻﾏﾄﾚｰﾆﾝｸﾞｸﾗﾌﾞ,Masters 2,1
餘語 てるみ,,1969,F,46.7,47,85,87.5,90,90,90,B,Single-ply,フジモトジム,Masters 1,1
新井 拡子,Hiroko Arai,1963,F,46.75,47,102.5,108,-115,108,108,B,Single-ply,ｽｰﾊﾟｰﾊﾟﾜｰｱｻﾏﾄﾚｰﾆﾝｸﾞｸﾗﾌﾞ,Open,2
餘語 てるみ,,1969,F,46.7,47,85,87.5,90,90,90,B,Single-ply,フジモトジム,Open,3
南 采沙,,1993,F,47,47,77.5,85.5,90,90,90,B,Single-ply,京都学園大学ﾊﾟﾜｰﾘﾌﾃｨﾝｸﾞ部,Juniors,1
入船 美月,,1994,F,46.7,47,60,65,-70,65,65,B,Single-ply,阪南大学ｳｴｲﾄﾄﾚｰﾆﾝｸﾞ部,Juniors,2
植草 千秋,,1983,F,46.7,47,60,-75,-75,60,60,B,Single-ply,K's GYM横浜,Open,4
奥村 正子,,1930,F,46.85,47,42.5,-45.5,-45.5,42.5,42.5,B,Single-ply,新日織住金鹿島,Masters 3,1
酒巻 知子,,1965,F,54.85,57,100,-115,115,115,115,B,Single-ply,ストロングライン,Masters 1,1
藤原 のどか,,1992,F,56.4,57,-115,115,-118,115,115,B,Single-ply,神戸医療福祉大学,Juniors,1
津金 典子,,1971,F,55.4,57,77.5,82.5,-87.5,82.5,82.5,B,Single-ply,K's GYM横浜,Masters 1,2
酒巻 知子,,1965,F,54.85,57,100,-115,115,115,115,B,Single-ply,ストロングライン,Open,1
藤原 のどか,,1992,F,56.4,57,-115,115,-118,115,115,B,Single-ply,神戸医療福祉大学,Open,2
津金 典子,,1971,F,55.4,57,77.5,82.5,-87.5,82.5,82.5,B,Single-ply,K's GYM横浜,Open,3
小林 展代,,1997,F,56.6,57,65,70.5,-72.5,70.5,70.5,B,Single-ply,春日部共栄高等学校,Sub-Juniors,1
伊藤 由実子,,1976,F,56.4,57,55,65,70,70,70,B,Single-ply,マッスルプロダクション,Open,4
長尾 優子,,1950,F,55,57,60,-65,65,65,65,B,Single-ply,個人,Masters 3,1
伊川 玲子,,1939,F,55.8,57,-60,60,62.5,62.5,62.5,B,Single-ply,個人,Masters 3,2
長渕 悦子,,1955,F,55,57,-50,-50,50,50,50,B,Single-ply,Rock On,Masters 2,1
南 恵美,,1987,F,55.55,57,-130,-130,-130,,,B,Single-ply,エイブルスポーツクラブ,Open,DQ
山口 彩,,1986,F,,57,,,,,,B,Single-ply,K's GYM,Open,NS
丹下 将太,,1992,M,50.56,53,110,115,122.5,122.5,122.5,B,Single-ply,阪南大学ｳｴｲﾄﾄﾚｰﾆﾝｸﾞ部,Juniors,1
貴田 沢,,1994,M,50.56,53,100,110,-117.5,110,110,B,Single-ply,岡山大学ｳｴｲﾄﾄﾚｰﾆﾝｸﾞ部,Juniors,2
森田 篤史,,1998,M,52.36,53,,,,,,B,Single-ply,浦和学院高等学校,Sub-Juniors,NS
木村 育史,Yasufumi Kimura,1975,M,58.72,59,-216,-217,217,217,217,B,Single-ply,K's GYM,Open,1
野田 俊彦,Toshihiko Noda,1979,M,57.8,59,210,-216,-217.5,210,210,B,Single-ply,パワーハウス,Open,2
中田 和夫,Kazuo Nakata,1967,M,58.52,59,182.5,187.5,-212.5,187.5,187.5,B,Single-ply,K's GYM,Masters 1,1
中田 和夫,Kazuo Nakata,1967,M,58.52,59,182.5,187.5,-212.5,187.5,187.5,B,Single-ply,K's GYM,Open,3
岩﨑 量也,,1984,M,58.78,59,160,170,182.5,182.5,182.5,B,Single-ply,西部組,Open,4
中野 衛,,1975,M,58.66,59,180,-185,-185,180,180,B,Single-ply,BIG GUNS,Open,5
木田 裕大,,1984,M,57.86,59,160,170,175,175,175,B,Single-ply,SUBSTANS X,Open,6
村上 孝志,,1984,M,58.26,59,160,170,175,175,175,B,Single-ply,B・P・S,Open,7
池田 尚也,Naoya Ikeda,1970,M,58.48,59,175,-182.5,-187.5,175,175,B,Single-ply,リアルスタイル,Masters 1,2
池田 尚也,Naoya Ikeda,1970,M,58.48,59,175,-182.5,-187.5,175,175,B,Single-ply,リアルスタイル,Open,8
大石 昌宏,,1979,M,58.9,59,165,-175,175,175,175,B,Single-ply,team 力姫長崎,Open,9
森 健太,,1989,M,58.9,59,-160,160,-185,160,160,B,Single-ply,K's GYM横浜,Open,10
伊差川 浩之,,1953,M,57.68,59,150,157.5,-162.5,157.5,157.5,B,Single-ply,POWERSPORT,Masters 3,1
三浦 浩,Hiroshi Miura,1964,M,48.58,59,142.5,147.5,155,155,155,B,Single-ply,バークレイズ証券,Masters 2,1
白石 匡,,1980,M,58.14,59,135,152.5,-160,152.5,152.5,B,Single-ply,K's GYM,Open,11
村田 元輝,,1997,M,58.46,59,145,150.5,151.5,151.5,151.5,B,Single-ply,厚木商業高校,Sub-Juniors,1
鈴木 康之,,1996,M,57.86,59,-150,-151,151,151,151,B,Single-ply,F・T．GYM,Sub-Juniors,2
吉野 公二,,1969,M,58.56,59,150,-160,-160,150,150,B,Single-ply,個人,Masters 1,3
吉野 公二,,1969,M,58.56,59,150,-160,-160,150,150,B,Single-ply,個人,Open,12
田中 祐一郎,,1967,M,58.24,59,147.5,-152.5,-152.5,147.5,147.5,B,Single-ply,個人,Masters 1,4
木村 和正,,1994,M,58.1,59,122.5,130,140,140,140,B,Single-ply,岡山大学ｳｴｲﾄﾄﾚｰﾆﾝｸﾞ部,Juniors,1
竹尾 将汰,,1992,M,58.66,59,132.5,140,-142.5,140,140,B,Single-ply,ストロングライン,Juniors,2
橋本 雅人,,1957,M,58.02,59,130,132.5,-135,132.5,132.5,B,Single-ply,ゴールドジム神戸元町,Masters 2,2
寺門 隆太,,1993,M,58.24,59,132.5,-147.5,-147.5,132.5,132.5,B,Single-ply,羽衣国際大学,Juniors,3
寺門 隆太,,1993,M,58.24,59,132.5,-147.5,-147.5,132.5,132.5,B,Single-ply,羽衣国際大学,Open,13
小林 貴志,,1961,M,58.26,59,127.5,130,-135,130,130,B,Single-ply,BIG GUNS,Masters 2,3
谷澤 直紀,,1995,M,58.38,59,120,125,127.5,127.5,127.5,B,Single-ply,ストロングライン,Juniors,4
椎木 智良,,1964,M,58.98,59,-120,-120,120,120,120,B,Single-ply,ストロングライン,Masters 2,4
飯塚 進市,,1956,M,58.56,59,115,-120,-120,115,115,B,Single-ply,水戸市ﾊﾟﾜｰﾘﾌﾃｨﾝｸﾞ協会,Masters 2,5
大瀧 順巳,,1942,M,54.5,59,85,100,-107.5,100,100,B,Single-ply,スーパーG名古屋,Masters 4,1
石渡 啓之,,1959,M,55.94,59,-152.5,-157.5,-157.5,,,B,Single-ply,パワーハウス,Open,DQ
松野 翼,,1984,M,57.74,59,-120,-120,-120,,,B,Single-ply,K's GYM,Open,DQ
渡辺 匡宏,,1977,M,58.88,59,-175,-175,-190,,,B,Single-ply,GBTT,Open,DQ
植木 信芳,,1996,M,58.78,59,,,,,,B,Single-ply,個人,Sub-Juniors,DQ
吉田 雅巳,,1957,M,,59,,,,,,B,Single-ply,個人,Masters 2,NS
的尾 明彦,,1961,M,,59,,,,,,B,Single-ply,パワーハウス山口,Masters 2,NS
高橋 恵介,Keisuke Takahashi,1973,M,65.68,66,-232.5,232.5,-235.5,232.5,232.5,B,Single-ply,BIG GUNS,Masters 1,1
高橋 恵介,Keisuke Takahashi,1973,M,65.68,66,-232.5,232.5,-235.5,232.5,232.5,B,Single-ply,BIG GUNS,Open,1
中山 久幸,Hisayuki Nakayama,1963,M,63.56,66,230,-232.5,-232.5,230,230,B,Single-ply,ノーリミッツ,Open,2
福田 将志,Masashi Fukuda,1984,M,65.92,66,205,-212.5,-235,205,205,B,Single-ply,ストロングライン,Open,3
広永 賢司,,1984,M,65.34,66,197.5,-205,-205,197.5,197.5,B,Single-ply,K's GYM,Open,4
水野 瑛,,1992,M,64.14,66,180,190,195,195,195,B,Single-ply,K's GYM横浜,Juniors,1
岡田 治也,,1996,M,64.72,66,-190,-192.5,192.5,192.5,192.5,B,Single-ply,興国高等学校,Sub-Juniors,1
芦崎 高志,,1971,M,65.2,66,-190,-190,190,190,190,B,Single-ply,チーム度肝,Masters 1,2
水野 瑛,,1992,M,64.14,66,180,190,195,195,195,B,Single-ply,K's GYM横浜,Open,5
岡田 治也,,1996,M,64.72,66,-190,-192.5,192.5,192.5,192.5,B,Single-ply,興国高等学校,Open,6
芦崎 高志,,1971,M,65.2,66,-190,-190,190,190,190,B,Single-ply,チーム度肝,Open,7
石川 拓也,,1979,M,65.3,66,-190,-190,190,190,190,B,Single-ply,パワーハウス,Open,8
田中 勝之,,1980,M,65.88,66,175,182.5,-192.5,182.5,182.5,B,Single-ply,K's GYM横浜,Open,9
角田 正義,,1972,M,63.24,66,180,-190,-197.5,180,180,B,Single-ply,江戸川グリーンパワー会,Open,10
飯村 貴弘,,1990,M,64.28,66,-175,180,-190,180,180,B,Single-ply,パワーハウスつくば,Open,11
矢野 秀幸,,1959,M,64.96,66,-172.5,172.5,-190,172.5,172.5,B,Single-ply,ヤノパワージム,Masters 2,1
矢野 秀幸,,1959,M,64.96,66,-172.5,172.5,-190,172.5,172.5,B,Single-ply,ヤノパワージム,Open,12
九野 毅,,1968,M,64.26,66,170,-175,-175,170,170,B,Single-ply,PEACE GYM,Masters 1,3
佐藤 恵二,,1952,M,65.44,66,155,-165,-165,155,155,B,Single-ply,個人,Masters 3,1
森 敬,,1963,M,65.86,66,150,155,-157.5,155,155,B,Single-ply,個人,Masters 2,2
石田 宣央,,1980,M,65.86,66,-150,150,-155,150,150,B,Single-ply,パワーハウス,Open,13
神谷 篤季,,1992,M,65.4,66,145,-150,-150,145,145,B,Single-ply,北海学園パワーリフティング部,Juniors,2
石川 貴康,,1974,M,65.7,66,127.5,-137.5,137.5,137.5,137.5,B,Single-ply,K's GYM,Masters 1,4
石川 貴康,,1974,M,65.7,66,127.5,-137.5,137.5,137.5,137.5,B,Single-ply,K's GYM,Open,14
中村 英明,,1960,M,65.76,66,132.5,137.5,-142.5,137.5,137.5,B,Single-ply,パワーハウス,Masters 2,3
段安 忠信,,1944,M,64.18,66,130,135,-138,135,135,B,Single-ply,個人,Masters 4,1
山本 茂樹,,1943,M,65,66,125,-132.5,-137.5,125,125,B,Single-ply,個人,Masters 4,2
山海 匡史,,1985,M,62.92,66,120,-130,-130,120,120,B,Single-ply,SUBSTANS X,Open,15
澤田 信司,,1947,M,65.12,66,120,-125,-125,120,120,B,Single-ply,パワーハウス,Masters 3,2
山本 大郎,,1950,M,61.44,66,110,-125,-125,110,110,B,Single-ply,烈剛河内,Masters 3,3
佃 忠和,,1944,M,63.16,66,110,-115,-115,110,110,B,Single-ply,K's GYM横浜,Masters 4,3
照井 清,,1941,M,65.22,66,90,95,-100,95,95,B,Single-ply,個人,Masters 4,4
竹井 保満,,1928,M,61.7,66,80,-85,-85,80,80,B,Single-ply,烈剛河内,Masters 4,5
古川 琢真,,1993,M,64.58,66,-180,-180,-180,,,B,Single-ply,GBTT,Juniors,DQ
李 炳八,,1958,M,64.92,66,-145,,,,,B,Single-ply,水戸市ﾊﾟﾜｰﾘﾌﾃｨﾝｸﾞ協会,Masters 2,DQ
亀谷 充男,,1971,M,65.64,66,-180,-200,-200,,,B,Single-ply,パワーハウス山口,Open,DQ
神岡 俊輔,,1957,M,65.64,66,-152.5,-155,-155,,,B,Single-ply,高知市消防局ﾊﾟﾜｰﾘﾌﾃｨﾝｸﾞ部,Masters 2,DQ
岩本 誠一郎,,1968,M,65.82,66,-152.5,-152.5,-152.5,,,B,Single-ply,パワーハウス,Masters 1,DQ
佐上 大幸,,1993,M,65.94,66,-140,-150,-150,,,B,Single-ply,岡山大学ｳｴｲﾄﾄﾚｰﾆﾝｸﾞ部,Juniors,DQ
児玉 大紀,Daiki Kodama,1979,M,71.94,74,260,275,-300,275,275,B,Single-ply,K's GYM,Open,1
山下 保樹,Yasuki Yamashita,1991,M,73.84,74,210.5,227.5,-240,227.5,227.5,B,Single-ply,阪南大学ｳｴｲﾄﾄﾚｰﾆﾝｸﾞ部,Juniors,1
山下 保樹,Yasuki Yamashita,1991,M,73.84,74,210.5,227.5,-240,227.5,227.5,B,Single-ply,阪南大学ｳｴｲﾄﾄﾚｰﾆﾝｸﾞ部,Open,2
奥谷 元哉,,1980,M,73.58,74,225,-230,-230,225,225,B,Single-ply,K's GYM,Open,3
三島 忠,,1962,M,73.4,74,215,220,-230,220,220,B,Single-ply,K's GYM,Masters 2,1
濱田 展行,,1969,M,73.62,74,215,220,-227.5,220,220,B,Single-ply,個人,Masters 1,1
松岡 紀佳,,1971,M,73.26,74,-205,205,212.5,212.5,212.5,B,Single-ply,K's GYM横浜,Masters 1,2
枦山 隆,,1972,M,70.18,74,210,-215,-220,210,210,B,Single-ply,K's GYM,Masters 1,3
濱田 展行,,1969,M,73.62,74,215,220,-227.5,220,220,B,Single-ply,個人,Open,4
松岡 紀佳,,1971,M,73.26,74,-205,205,212.5,212.5,212.5,B,Single-ply,K's GYM横浜,Open,5
枦山 隆,,1972,M,70.18,74,210,-215,-220,210,210,B,Single-ply,K's GYM,Open,6
逢野 崇大,,1994,M,72.98,74,-200,206.5,-216,206.5,206.5,B,Single-ply,阪南大学ｳｴｲﾄﾄﾚｰﾆﾝｸﾞ部,Juniors,2
大谷 憲弘,,1980,M,73.7,74,195,200,205,205,205,B,Single-ply,エスクアティア,Open,7
村野 知永,,1994,M,73.96,74,192.5,202.5,-207,202.5,202.5,B,Single-ply,阪南大学ｳｴｲﾄﾄﾚｰﾆﾝｸﾞ部,Juniors,3
西村 義人,,1990,M,68,74,-200,200,-225,200,200,B,Single-ply,岡山大学陵門会,Open,8
守山 哲郎,,1971,M,72.56,74,190,200,-205,200,200,B,Single-ply,MAT,Masters 1,4
髙山 由成,,1993,M,73.02,74,190,200,-207,200,200,B,Single-ply,日本橋学館大学,Juniors,4
井出 光弘,,1961,M,73.36,74,197.5,-210,-212.5,197.5,197.5,B,Single-ply,F・TGYM,Masters 2,2
池田 武,,1993,M,73.92,74,190,-195,-207,190,190,B,Single-ply,日本橋学館大学,Juniors,5
山本 英嗣,,1973,M,72.82,74,165,180,-190,180,180,B,Single-ply,個人,Masters 1,5
高畑 剛春,,1975,M,73.58,74,162.5,170,-175,170,170,B,Single-ply,西部組,Open,9
松岡 俊男,,1963,M,72.1,74,162.5,-172.5,-172.5,162.5,162.5,B,Single-ply,ｽｰﾊﾟｰﾊﾟﾜｰｱｻﾏﾄﾚｰﾆﾝｸﾞｸﾗﾌﾞ,Masters 2,3
佐伯 博文,,1964,M,73.04,74,150,160,-170,160,160,B,Single-ply,西部組,Masters 2,4
物江 毅,,1952,M,73.4,74,-155,155,-176,155,155,B,Single-ply,Team Ponze,Masters 3,1
岩田 宏希,,1997,M,69.18,74,135,145,-152.5,145,145,B,Single-ply,パワーハウスつくば,Sub-Juniors,1
秋山 裕介,,1995,M,73.08,74,145,-155,-155,145,145,B,Single-ply,ストロングライン,Juniors,6
寺門 浩之,,1960,M,70.5,74,-135,140,-147.5,140,140,B,Single-ply,パワーハルクジム,Masters 2,5
田中 光章,,1953,M,73.34,74,120,130,140,140,140,B,Single-ply,B．P．S,Masters 3,2
緒方 学,,1941,M,71.44,74,130,135,-140,135,135,B,Single-ply,パワーハウス山口,Masters 4,1
内村 政夫,,1959,M,73.22,74,120,-130,132.5,132.5,132.5,B,Single-ply,コスモスポーツ,Masters 2,6
工藤 芳正,,1962,M,73.34,74,125,-130,130,130,130,B,Single-ply,マッスルプロダクション,Masters 2,7
品川 秀樹,,1964,M,72.76,74,107.5,120,-127.5,120,120,B,Single-ply,エスクアティア,Masters 2,8
安居 民雄,,1942,M,73.22,74,105,112.5,117.5,117.5,117.5,B,Single-ply,高岡トレーニングクラブ,Masters 4,2
阪口 勝美,,1940,M,70.66,74,110,115,-120,115,115,B,Single-ply,個人,Masters 4,3
熊倉 英夫,,1936,M,70.62,74,-105,-105,105,105,105,B,Single-ply,ストロングライン,Masters 4,4
井上 和明,,1972,M,72.46,74,-227.5,-227.5,-232.5,,,B,Single-ply,K's GYM,Open,DQ
林 健一郎,,1967,M,72.82,74,-180,-180,-180,,,B,Single-ply,パワーハウス山口,Masters 1,DQ
古川 公一,Kouichi Furukawa,1966,M,,74,,,,,,B,Single-ply,K's GYM,Masters 1,NS
工藤 忠生,,1960,M,,74,,,,,,B,Single-ply,マッスルプロダクション,Open,NS
早川 琴果,Kotomi Hayakawa,1995,F,43,43,55,62.5,-68,62.5,62.5,B,Single-ply,阪南大学ｳｴｲﾄﾄﾚｰﾆﾝｸﾞ部,Juniors,1
白川 カオリ,Kaori Nagaya-Shirakawa,1963,F,52,52,120,125,130,130,130,B,Single-ply,パワーハウス,Open,1
増山 朱美,,1962,F,51.94,52,102.5,110,115,115,115,B,Single-ply,健宝の湯,Masters 2,1
増山 朱美,,1962,F,51.94,52,102.5,110,115,115,115,B,Single-ply,健宝の湯,Open,2
伊賀 梓,,1985,F,51.4,52,105,110,-115,110,110,B,Single-ply,岡山大学陵門会,Open,3
水野 文江,,1959,F,51.12,52,90,95,100,100,100,B,Single-ply,ゴールドジム名古屋金山,Masters 2,2
寺村 美香,,1962,F,51.58,52,92.5,97.5,-102.5,97.5,97.5,B,Single-ply,リアルスィング,Masters 2,3
寺村 美香,,1962,F,51.58,52,92.5,97.5,-102.5,97.5,97.5,B,Single-ply,リアルスィング,Open,4
機谷 礼美,,1966,F,50.22,52,87.5,92.5,-97.5,92.5,92.5,B,Single-ply,パワーハウス赤穂,Masters 1,1
磯田 あかね,,1970,F,51.54,52,92.5,-97.5,-97.5,92.5,92.5,B,Single-ply,ｽｰﾊﾟｰﾊﾟﾜｰｱｻﾏﾄﾚｰﾆﾝｸﾞｸﾗﾌﾞ,Masters 1,2
磯田 あかね,,1970,F,51.54,52,92.5,-97.5,-97.5,92.5,92.5,B,Single-ply,ｽｰﾊﾟｰﾊﾟﾜｰｱｻﾏﾄﾚｰﾆﾝｸﾞｸﾗﾌﾞ,Open,5
岡本 美樹,,1965,F,49.76,52,80,85,-92.5,85,85,B,Single-ply,リアルスィング,Open,6
田中 彰子,,1964,F,51.34,52,75,-80,82.5,82.5,82.5,B,Single-ply,パワーハウスかみかわ,Masters 2,4
田中 彰子,,1964,F,51.34,52,75,-80,82.5,82.5,82.5,B,Single-ply,パワーハウスかみかわ,Open,7
松村 育子,,1983,F,50.7,52,80,-85,-85,80,80,B,Single-ply,ノーリミッツ,Open,8
浅川 圭子,,1961,F,51.2,52,62.5,67.5,-70,67.5,67.5,B,Single-ply,パワーハウス,Masters 2,5
古川 芳子,,1939,F,50.94,52,60,62.5,-70,62.5,62.5,B,Single-ply,K's GYM横浜,Open,1
古川 芳子,,1939,F,50.94,52,60,62.5,-70,62.5,62.5,B,Single-ply,K's GYM横浜,Open,9
櫻 由貴,,1995,F,51.34,52,45,60,-65,60,60,B,Single-ply,神戸医療福祉大学,Juniors,1
塚本 美紀,,1964,F,50.66,52,42.5,45,-50,45,45,B,Single-ply,パワーハウス,Masters 1,3
宮本 智子,Tomoko Miyamoto,1967,F,50.84,52,-100,-100,-100,,,B,Single-ply,ヴィテンののいち,Open,DQ
古味 良子,,,F,62.56,63,117.5,-122.5,-127.5,117.5,117.5,B,Single-ply,T-REX,Masters 2,1
古味 良子,,,F,62.56,63,117.5,-122.5,-127.5,117.5,117.5,B,Single-ply,T-REX,Open,1
奥谷 由香,,1984,F,62.62,63,95,97.5,100,100,100,B,Single-ply,K's GYM,Open,2
井原 葉子,,1963,F,62.22,63,85,90,97.5,97.5,97.5,B,Single-ply,K's GYM横浜,Masters 2,2
井原 葉子,,1963,F,62.22,63,85,90,97.5,97.5,97.5,B,Single-ply,K's GYM横浜,Open,3
石橋 茜,Akane Ishibashi,1993,F,60.94,63,75,85,95,95,95,B,Single-ply,東洋大学,Juniors,1
工藤 智恵子,,1967,F,61.26,63,85,95,-97.5,95,95,B,Single-ply,マッスルプロダクション,Masters 1,1
林 和美,,1963,F,62.8,63,85,90,95,95,95,B,Single-ply,ｽｰﾊﾟｰﾊﾟﾜｰｱｻﾏﾄﾚｰﾆﾝｸﾞｸﾗﾌﾞ,Masters 2,3
工藤 智恵子,,1967,F,61.26,63,85,95,-97.5,95,95,B,Single-ply,マッスルプロダクション,Open,4
林 和美,,1963,F,62.8,63,85,90,95,95,95,B,Single-ply,ｽｰﾊﾟｰﾊﾟﾜｰｱｻﾏﾄﾚｰﾆﾝｸﾞｸﾗﾌﾞ,Open,5
溝口 久美,Kumi Mizoguchi,1988,F,71.36,72,110,115,120,120,120,B,Single-ply,K's GYM横浜,Open,1
澤 千代美,,1949,F,70.02,72,105,112.5,118,118,118,B,Single-ply,パワーハウス,Masters 3,1
仲野 衣美,,1993,F,65.5,72,90,105,-112.5,105,105,B,Single-ply,阪南大学ｳｴｲﾄﾄﾚｰﾆﾝｸﾞ部,Juniors,1
澤 千代美,,1949,F,70.02,72,105,112.5,118,118,118,B,Single-ply,パワーハウス,Open,2
仲野 衣美,,1993,F,65.5,72,90,105,-112.5,105,105,B,Single-ply,阪南大学ｳｴｲﾄﾄﾚｰﾆﾝｸﾞ部,Open,3
後藤 啓恵,,1966,F,68.08,72,-57.5,-57.5,,,,B,Single-ply,リアルスィング,Masters 1,DQ
東前 めぐみ,Megumi Higashimae,1983,F,71.88,72,-77.5,-77.5,-77.5,,,B,Single-ply,K's GYM,Open,DQ
小松 麻実,Mami Komatsu,1969,F,100.06,84+,100,-107.5,-107.5,100,100,B,Single-ply,有光自動車,Masters 1,1
小松 麻実,Mami Komatsu,1969,F,100.06,84+,100,-107.5,-107.5,100,100,B,Single-ply,有光自動車,Open,1
福島 勇輝,Yuki Fukushima,1986,M,82.66,83,275,285,-310.5,285,285,B,Single-ply,F・T．GYM,Open,1
長谷川 直輝,Naoki Hasegawa,1992,M,81.64,83,230,250,-261,250,250,B,Single-ply,K's GYM横浜,Juniors,1
長谷川 直輝,Naoki Hasegawa,1992,M,81.64,83,230,250,-261,250,250,B,Single-ply,K's GYM横浜,Open,2
鈴木 貴博,,1980,M,80.02,83,235,-245,-255,235,235,B,Single-ply,個人,Open,3
小倉 健二,,1966,M,80.36,83,-215,215,230,230,230,B,Single-ply,鎌倉パワエリジム,Masters 1,1
小倉 健二,,1966,M,80.36,83,-215,215,230,230,230,B,Single-ply,鎌倉パワエリジム,Open,4
松永 浩二,,1983,M,80.94,83,205,217.5,220,220,220,B,Single-ply,ストロングライン,Open,5
石本 直樹,,1962,M,82.6,83,-220,-220,220,220,220,B,Single-ply,岩崎BC津山,Masters 2,1
佐藤 信博,,1973,M,78.4,83,205,215,217.5,217.5,217.5,B,Single-ply,パワーハウス,Masters 1,2
佐藤 信博,,1973,M,78.4,83,205,215,217.5,217.5,217.5,B,Single-ply,パワーハウス,Open,6
本並 伸康,,1968,M,82.74,83,215,-220,-220,215,215,B,Single-ply,WTC藤井寺,Masters 1,3
秋本 博則,,1969,M,81.92,83,195,205,210,210,210,B,Single-ply,パワーハウス山口,Masters 1,4
新屋敷 弘明,,1966,M,81.3,83,-200,-200,200,200,200,B,Single-ply,パワーハウス,Masters 1,5
藤原 英司,,1968,M,79.3,83,190,-200,-200,190,190,B,Single-ply,個人,Masters 1,6
藤原 英司,,1968,M,79.3,83,190,-200,-200,190,190,B,Single-ply,個人,Open,7
臼井 武則,,1960,M,79.76,83,177.5,185,190,190,190,B,Single-ply,マッスルプロダクション,Masters 2,2
宮本 崇行,,1973,M,80.44,83,170,180,190,190,190,B,Single-ply,K's GYM,Masters 1,7
山本 浩由,,1960,M,81.8,83,180,187.5,-192.5,187.5,187.5,B,Single-ply,スポーツジムB＆F,Masters 2,3
佐藤 紳一郎,,1993,M,80.24,83,180,-185,-200,180,180,B,Single-ply,北海学園パワーリフティング部,Juniors,2
小川 光寿,,1971,M,82.26,83,180,-190,-192.5,180,180,B,Single-ply,竹田運輸倉庫(株),Masters 1,8
渡邉 和也,,1993,M,82.56,83,175,-185,-185,175,175,B,Single-ply,ストロングライン,Juniors,3
大谷 進,,1952,M,80.98,83,165,170,-175,170,170,B,Single-ply,パワーハウス,Masters 3,1
佐藤 一夫,,1961,M,78,83,155,-160,160,160,160,B,Single-ply,パワーハウス,Masters 2,4
渡辺 和利,,1952,M,81.52,83,160,-165,-165,160,160,B,Single-ply,今治パワーリフティングクラブ,Masters 3,2
堀口 徹也,,1997,M,81.66,83,145,152.5,160,160,160,B,Single-ply,浦和学院高等学校,Sub-Juniors,1
北野 利雄,,1946,M,82.54,83,-155,155,-167.5,155,155,B,Single-ply,K＆B GYM,Masters 3,3
当麻 泰久,,1956,M,82.4,83,137.5,142.5,-147.5,142.5,142.5,B,Single-ply,ｽｰﾊﾟｰﾊﾟﾜｰｱｻﾏﾄﾚｰﾆﾝｸﾞｸﾗﾌﾞ,Masters 2,5
石田 耕作,,1955,M,79.02,83,135,-140,-140,135,135,B,Single-ply,パワーハウス,Masters 2,6
海﨑 充弘,,1995,M,82.2,83,110,-140,-140,110,110,B,Single-ply,羽衣国際大学,Juniors,4
土井原 健太,,1994,M,79.3,83,-170,-170,-170,,,B,Single-ply,岡山大学ｳｴｲﾄﾄﾚｰﾆﾝｸﾞ部,Juniors,DQ
吉田 大亮,,1995,M,80.5,83,-150,-155,-155,,,B,Single-ply,阪南大学ｳｴｲﾄﾄﾚｰﾆﾝｸﾞ部,Juniors,DQ
鈴木 重成,,1973,M,81.82,83,-215,-215,-217.5,,,B,Single-ply,個人,Masters 1,DQ
林 克也,,1987,M,82.96,83,-250,-255,-255,,,B,Single-ply,K's GYM,Open,DQ
中島 聡,,1985,M,82.62,83,,,,,,B,Single-ply,筋肉道場馬鹿力,Open,NS
鈴木 康弘,,1944,M,,83,,,,,,B,Single-ply,コスモスポーツ,Masters 4,NS
大室 豪槻,Goki Omuro,1993,M,91.84,93,255,277.5,-300,277.5,277.5,B,Single-ply,阪南大学ｳｴｲﾄﾄﾚｰﾆﾝｸﾞ部,Juniors,1
葛西 昌彦,Masahiko Kassai,1971,M,91.66,93,275,-293.5,-293.5,275,275,B,Single-ply,K's GYM,Masters 1,1
大室 豪槻,Goki Omuro,1993,M,91.84,93,255,277.5,-300,277.5,277.5,B,Single-ply,阪南大学ｳｴｲﾄﾄﾚｰﾆﾝｸﾞ部,Open,1
葛西 昌彦,Masahiko Kassai,1971,M,91.66,93,275,-293.5,-293.5,275,275,B,Single-ply,K's GYM,Open,2
久保 匡平,,1987,M,92.96,93,220,-230,240,240,240,B,Single-ply,京優会,Open,3
荒川 孝行,,1978,M,91,93,222.5,232.5,-242.5,232.5,232.5,B,Single-ply,ゴールドジムバーベルクラブ,Open,4
伊藤 禎浩,,1969,M,91.66,93,232.5,-242.5,-242.5,232.5,232.5,B,Single-ply,個人,Masters 1,2
伊藤 禎浩,,1969,M,91.66,93,232.5,-242.5,-242.5,232.5,232.5,B,Single-ply,個人,Open,5
北川 武志,,1958,M,87.78,93,212.5,-241.5,-241.5,212.5,212.5,B,Single-ply,K's GYM,Masters 2,1
小笠 剛志,,1974,M,91.76,93,-195,197.5,207.5,207.5,207.5,B,Single-ply,パワーハウス赤穂,Masters 1,3
小笠 剛志,,1974,M,91.76,93,-195,197.5,207.5,207.5,207.5,B,Single-ply,パワーハウス赤穂,Open,6
飯島 修,,1954,M,88.92,93,200,-210,-210,200,200,B,Single-ply,パワーハウス,Masters 3,1
田中 哲也,,1961,M,92.14,93,190,200,-215,200,200,B,Single-ply,ノーリミッツ,Masters 2,2
竹村 明久,,1973,M,92.68,93,170,197.5,-210,197.5,197.5,B,Single-ply,BIG GUNS,Masters 1,4
田中 哲也,,1961,M,92.14,93,190,200,-215,200,200,B,Single-ply,ノーリミッツ,Open,7
竹村 明久,,1973,M,92.68,93,170,197.5,-210,197.5,197.5,B,Single-ply,BIG GUNS,Open,8
飴谷 繁章,,1969,M,90.14,93,192.5,-197.5,-197.5,192.5,192.5,B,Single-ply,スポーツジムB＆F,Masters 1,5
増山 雄一,,1972,M,85.96,93,190,-195,-197.5,190,190,B,Single-ply,パワーハウス山口,Masters 1,6
柏木 悠太郎,,1997,M,91.64,93,-160,160,170,170,170,B,Single-ply,春日部共栄高等学校,Sub-Juniors,1
鈴木 俊,,1992,M,86.52,93,135,157.5,165,165,165,B,Single-ply,北海学園パワーリフティング部,Juniors,2
河部 勝次,,1942,M,92.34,93,155,-160,-160,155,155,B,Single-ply,コベルコトレーニングクラブ,Masters 4,1
長島 義孝,,1944,M,92.14,93,135,-140,-140,135,135,B,Single-ply,個人,Masters 4,2
佐藤 優輝,Yuki Sato,1983,M,90.72,93,-292.5,-294,-294,,,B,Single-ply,K's GYM横浜,Open,DQ
村山 幸教,,1963,M,90.86,93,-180,-180,-180,,,B,Single-ply,個人,Masters 2,DQ
吉川 望,Nozomu Yoshikawa,1986,M,,93,,,,,,B,Single-ply,マッスルプロダクション,Open,NS
和田 髙平,Kohei Wada,1964,M,104.1,105,290,-295,303.5,303.5,303.5,B,Single-ply,K's GYM,Masters 2,1
和田 髙平,Kohei Wada,1964,M,104.1,105,290,-295,303.5,303.5,303.5,B,Single-ply,K's GYM,Open,1
梁本 智弘,,1986,M,103.48,105,255,-270,270,270,270,B,Single-ply,K's GYM,Open,2
阿久津 貴史,,1982,M,104.3,105,-250,250,257.5,257.5,257.5,B,Single-ply,TXP,Open,3
藤本 竜希,Ryuki Fujimoto,2000,M,94.82,105,-235,235,-257.5,235,235,B,Single-ply,リアルスィング,Sub-Juniors,1
伊藤 智,Satoshi Ito,1966,M,103.84,105,-220,220,-290,220,220,B,Single-ply,K's GYM,Masters 1,1
藤本 竜希,Ryuki Fujimoto,2000,M,94.82,105,-235,235,-257.5,235,235,B,Single-ply,リアルスィング,Open,4
伊藤 智,Satoshi Ito,1966,M,103.84,105,-220,220,-290,220,220,B,Single-ply,K's GYM,Open,5
前田 光生,,1960,M,101.3,105,-210,210,215,215,215,B,Single-ply,チーム鉄腕,Masters 2,2
村中 悟,,1964,M,98.14,105,210,-225,-225,210,210,B,Single-ply,高岡TC,Masters 2,3
松本 誠,,1991,M,93.5,105,-200,205,-225,205,205,B,Single-ply,K's GYM横浜,Juniors,1
村中 悟,,1964,M,98.14,105,210,-225,-225,210,210,B,Single-ply,高岡TC,Open,6
松本 誠,,1991,M,93.5,105,-200,205,-225,205,205,B,Single-ply,K's GYM横浜,Open,7
五十嵐 大輝,,1996,M,93.26,105,-175,175,195,195,195,B,Single-ply,K's GYM横浜,Sub-Juniors,2
岡嶋 拓真,,1992,M,94.38,105,175,185,195,195,195,B,Single-ply,阪南大学ｳｴｲﾄﾄﾚｰﾆﾝｸﾞ部,Juniors,2
横山 恭平,,1994,M,104.08,105,-175,185,195,195,195,B,Single-ply,阪南大学ｳｴｲﾄﾄﾚｰﾆﾝｸﾞ部,Juniors,3
石塚 峻太,,1994,M,103.22,105,170,182.5,187.5,187.5,187.5,B,Single-ply,東洋大学,Juniors,4
柴田 道郎,,1978,M,104.22,105,-285,-285,-292.5,,,B,Single-ply,パワーハウスつくば,Open,DQ
中谷 幸市,,1960,M,104.3,105,-235,-235,-235,,,B,Single-ply,国士舘高等学校PL部,Masters 2,DQ
山森 智行,,1972,M,104.7,105,-270,-272.5,-275,,,B,Single-ply,K's GYM,Open,DQ
上田 真司,Shinji Ueda,1972,M,116.76,120,320,330,-343,330,330,B,Single-ply,K's GYM,Open,1
後藤 衆治,Shuji Goto,1968,M,112.92,120,300,-302.5,-332.5,300,300,B,Single-ply,個人,Masters 1,1
後藤 衆治,Shuji Goto,1968,M,112.92,120,300,-302.5,-332.5,300,300,B,Single-ply,個人,Open,2
原 新一,Shinichi Hara,1973,M,118.28,120,285,-302.5,-332.5,285,285,B,Single-ply,パワーライン,Open,3
柳川 大貴,Daiki Yanagawa,1976,M,119.44,120,265,282.5,-302.5,282.5,282.5,B,Single-ply,リアルスィング,Open,4
岡山 三紀,,1972,M,109.02,120,230,240,-255,240,240,B,Single-ply,北海道医療大学WTC同門会,Masters 1,2
岡山 三紀,,1972,M,109.02,120,230,240,-255,240,240,B,Single-ply,北海道医療大学WTC同門会,Open,5
渡辺 峻,,1992,M,111.48,120,-232.5,232.5,240,240,240,B,Single-ply,北海学園ﾊﾟﾜｰﾘﾌﾃｨﾝｸﾞ部,Juniors,1
須藤 健介,,1997,M,118.96,120,200,220,-235,220,220,B,Single-ply,コスモスポーツ,Sub-Juniors,1
天野 敬太,,1993,M,111.04,120,-182.5,182.5,-187.5,182.5,182.5,B,Single-ply,国士舘大学,Juniors,2
鷲住 松男,,1959,M,117.52,120,165,175,-190,175,175,B,Single-ply,POWER BOMB! GYM,Open,6
平山 健斗,,1993,M,117.76,120,-175,175,-200,175,175,B,Single-ply,岡山大学ｳｴｲﾄﾄﾚｰﾆﾝｸﾞ部,Juniors,3
山本 誠一郎,,1996,M,119.16,120,145,-170,-170,145,145,B,Single-ply,スポーツジムB＆F,Sub-Juniors,2
梅林 恭行,,1983,M,115.94,120,-230,-230,-230,,,B,Single-ply,SUBSTANSCE X,Open,DQ
南 茂樹,,1965,M,,120,,,,,,B,Single-ply,エイブルスポーツクラブ,Open,NS
梶井 俊宏,Toshihiro Kajii,1980,M,120.02,120+,265,-275,275,275,275,B,Single-ply,阪南大学体育会WT部OB会,Open,1
江添 和昭,,1975,M,159.78,120+,250,-260,267.5,267.5,267.5,B,Single-ply,パワーハウス,Open,2
樋口 重敏,,1977,M,130.28,120+,220,230,-247.5,230,230,B,Single-ply,個人,Open,3
福嶋 康人,,1965,M,135.54,120+,220,-240,-240,220,220,B,Single-ply,パワーハウス山口,Masters 1,1
福嶋 康人,,1965,M,135.54,120+,220,-240,-240,220,220,B,Single-ply,パワーハウス山口,Open,4
氏家 一郎,Ichirou Uijie,1957,M,134.02,120+,200,210,-220,210,210,B,Single-ply,ｽｰﾊﾟｰﾊﾟﾜｰｱｻﾏﾄﾚｰﾆﾝｸﾞｸﾗﾌﾞ,Masters 2,1
古城 資久,,1958,M,122.58,120+,-242.5,-245,-245,,,B,Single-ply,パワーハウス赤穂,Open,DQ
齋藤 大生,Sota Saito,1990,M,148,120+,-290,-300,-300,,,B,Single-ply,ストロングライン,Open,DQ
