Division,WeightClassKg,Place,Name,Team,BodyweightKg,Best3SquatKg,Best3BenchKg,Best3DeadliftKg,TotalKg,Equipment,Event,Sex
Boys,51.71,1,William Park,Center Point,51.26,108.86,49.9,117.93,276.69,Single-ply,SBD,M
Boys,51.71,2,Brandon Nguyen,Palacios,51.62,97.52,52.16,113.4,263.08,Single-ply,SBD,M
Boys,55.79,3,Karsen Klimitchek,Vanderbilt Industrial,51.8,92.99,49.9,104.33,247.21,Single-ply,SBD,M
Boys,51.71,4,Buster Dodge,Refugio,47.63,92.99,47.63,102.06,242.67,Single-ply,SBD,M
Boys,55.79,5,Caleb Bryant,Center Point,51.89,86.18,36.29,95.25,217.72,Single-ply,SBD,M
Boys,51.71,6,Cameron Schultz,Victoria Memorial,48.53,68.04,49.9,88.45,206.38,Single-ply,SBD,M
Boys,51.71,DQ,Bryan Priddy,Skidmore-Tynan,48.08,88.45,,,,Single-ply,SBD,M
Boys,55.79,1,Andrew Garlin,Skidmore-Tynan,55.79,129.27,90.72,147.42,367.41,Single-ply,SBD,M
Boys,55.79,2,Ediberto Vera,Mathis,53.71,120.2,65.77,149.69,335.66,Single-ply,SBD,M
Boys,55.79,3,Jonathan Nguyen,Palacios,55.07,117.93,61.23,131.54,310.71,Single-ply,SBD,M
Boys,59.87,4,Vuong Nguyen,Palacios,55.97,115.67,63.5,131.54,310.71,Single-ply,SBD,M
Boys,59.87,1,Aaron Gonzales,Mathis,56.7,151.95,77.11,176.9,405.97,Single-ply,SBD,M
Boys,67.13,2,Dean Boniface,Goliad,59.96,136.08,86.18,172.37,394.63,Single-ply,SBD,M
Boys,67.13,3,Richard Brown,Orange Grove,60.1,163.29,83.91,142.88,390.09,Single-ply,SBD,M
Boys,67.13,4,David Fercado,Palacios,60.06,147.42,79.38,161.03,387.82,Single-ply,SBD,M
Boys,67.13,5,Joe Boone,Goliad,60.06,127.01,70.31,149.69,347,Single-ply,SBD,M
Boys,67.13,6,Myles Parker,Goliad,60.1,115.67,70.31,133.81,319.78,Single-ply,SBD,M
Boys,59.87,7,Glenn Winemas,Refugio,59.51,127.01,56.7,122.47,306.17,Single-ply,SBD,M
Boys,59.87,DQ,Derrick Hernandez,Floresville,59.65,,,,,Single-ply,SBD,M
Boys,59.87,DQ,Ray Valdez,Orange Grove,59.87,151.95,,,,Single-ply,SBD,M
Boys,67.13,1,Alex Gonzalez,Skidmore-Tynan,67.13,226.8,102.06,197.31,526.17,Single-ply,SBD,M
Boys,67.13,2,Gino Dodge,Refugio,65.32,197.31,111.13,192.78,501.22,Single-ply,SBD,M
Boys,74.84,3,Mark Vasquez,Orange Grove,67.31,183.7,106.59,174.63,464.93,Single-ply,SBD,M
Boys,67.13,4,Rick Dominguez,Center Point,66.45,174.63,104.33,176.9,455.86,Single-ply,SBD,M
Boys,74.84,5,Kelton Craven,Orange Grove,67.22,185.97,99.79,165.56,451.32,Single-ply,SBD,M
Boys,67.13,6,Matthew Nguyen,Palacios,67.13,156.49,83.91,190.51,430.91,Single-ply,SBD,M
Boys,67.13,7,Chris Franklin,Victoria Memorial,64.41,154.22,97.52,154.22,405.97,Single-ply,SBD,M
Boys,67.13,8,Sergio Edison,Goliad,65.41,136.08,90.72,170.1,396.89,Single-ply,SBD,M
Boys,67.13,9,Jose Jimenez,Palacios,61.01,138.35,83.91,151.95,374.21,Single-ply,SBD,M
Boys,67.13,10,JD White,Skidmore-Tynan,67.13,140.61,72.57,149.69,362.87,Single-ply,SBD,M
Boys,67.13,11,Brandon Thompson,Refugio,60.78,129.27,70.31,142.88,342.46,Single-ply,SBD,M
Boys,67.13,12,Tim Campbell,Skidmore-Tynan,65.09,108.86,63.5,102.06,274.42,Single-ply,SBD,M
Boys,67.13,DQ,Martin Armenta,Victoria Memorial,66.45,,,,,Single-ply,SBD,M
Boys,67.13,DQ,Patrick Halsell,Center Point,63.28,165.56,90.72,,,Single-ply,SBD,M
Boys,67.13,DQ,Brian Pham,Palacios,66.45,61.23,104.33,,,Single-ply,SBD,M
Boys,74.84,DQ,Jose Enriquez,Luling,67.31,165.56,83.91,,,Single-ply,SBD,M
Boys,74.84,1,Blain Rozner,Vanderbilt Industrial,70.31,181.44,145.15,176.9,503.49,Single-ply,SBD,M
Boys,74.84,2,Greg Sexton,Palacios,74.62,176.9,102.06,199.58,478.54,Single-ply,SBD,M
Boys,74.84,3,Terry Ramey,Victoria Memorial,74.84,183.7,95.25,181.44,460.4,Single-ply,SBD,M
Boys,74.84,4,Dakota Ross,Center Point,70.76,172.37,113.4,172.37,458.13,Single-ply,SBD,M
Boys,74.84,5,Gilbert Perez,Floresville,72.57,181.44,92.99,176.9,451.32,Single-ply,SBD,M
Boys,74.84,6,Moses Rios,Mathis,68.95,172.37,88.45,165.56,426.38,Single-ply,SBD,M
Boys,74.84,7,Daniel Loveday,Refugio,69.4,142.88,90.72,165.56,399.16,Single-ply,SBD,M
Boys,74.84,8,Nic Wallace,Victoria Memorial,73.71,124.74,102.06,172.37,399.16,Single-ply,SBD,M
Boys,74.84,9,Logan Henslee,Louise,69.4,140.61,92.99,154.22,387.82,Single-ply,SBD,M
Boys,74.84,10,Jake Heryford,Refugio,71.21,142.88,92.99,142.88,378.75,Single-ply,SBD,M
Boys,74.84,11,Derek Sless,Louise,73.26,142.88,86.18,142.88,371.95,Single-ply,SBD,M
Boys,74.84,12,Nathaniel Alvarez,Kenedy,72.57,129.27,81.65,133.81,344.73,Single-ply,SBD,M
Boys,74.84,13,James Clements,Louise,69.85,136.08,68.04,113.4,317.51,Single-ply,SBD,M
Boys,74.84,DQ,Mario Munoz,Center Point,72.35,170.1,,,,Single-ply,SBD,M
Boys,74.84,DQ,Trevor Ly,Mathis,68.31,,,,,Single-ply,SBD,M
Boys,82.1,1,Carlton Bullard,Floresville,76.48,199.58,113.4,222.26,535.24,Single-ply,SBD,M
Boys,82.1,2,Garrett Perez,Center Point,82.1,199.58,113.4,204.12,517.1,Single-ply,SBD,M
Boys,82.1,3,Dillion Brunet,Center Point,79.61,192.78,117.93,195.04,505.76,Single-ply,SBD,M
Boys,82.1,4,Joey Gauna,Floresville,78.24,199.58,108.86,185.97,494.42,Single-ply,SBD,M
Boys,82.1,5,Chris Garcia,Palacios,80.74,156.49,131.54,195.04,483.08,Single-ply,SBD,M
Boys,82.1,6,Juan Lopez,Palacios,75.75,154.22,97.52,215.46,467.2,Single-ply,SBD,M
Boys,82.1,7,John Wirt,Goliad,81.19,158.76,99.79,197.31,455.86,Single-ply,SBD,M
Boys,82.1,8,Mathew Hartman,Victoria Memorial,80.51,161.03,88.45,183.7,433.18,Single-ply,SBD,M
Boys,82.1,9,Zach Black,Vanderbilt Industrial,75.75,142.88,102.06,170.1,415.04,Single-ply,SBD,M
Boys,82.1,10,Charles Hill,Vanderbilt Industrial,78.93,145.15,95.25,165.56,405.97,Single-ply,SBD,M
Boys,82.1,11,Austin Block,Karnes City,80.65,142.88,79.38,142.88,365.14,Single-ply,SBD,M
Boys,82.1,12,Weston Block,Karnes City,78.02,138.35,74.84,142.88,356.07,Single-ply,SBD,M
Boys,89.81,1,Fredo Flores,Center Point,86.64,215.46,127.01,213.19,555.65,Single-ply,SBD,M
Boys,89.81,2,Roman Garcia,Kenedy,84.14,170.1,131.54,185.97,487.61,Single-ply,SBD,M
Boys,89.81,3,Austin Adams,Karnes City,88.45,192.78,111.13,176.9,480.81,Single-ply,SBD,M
Boys,89.81,4,Alex Tamez,Louise,89.58,190.51,97.52,136.08,424.11,Single-ply,SBD,M
Boys,89.81,5,Cameron Berger,Goliad,86.64,136.08,79.38,142.88,358.34,Single-ply,SBD,M
Boys,89.81,6,Pedro Torres,Skidmore-Tynan,84.37,108.86,74.84,142.88,326.59,Single-ply,SBD,M
Boys,109.77,1,Oscar Ortiz,Orange Grove,99.97,294.84,145.15,258.55,698.53,Single-ply,SBD,M
Boys,99.79,2,Ricky Redus,Vanderbilt Industrial,94.35,190.51,151.95,204.12,546.58,Single-ply,SBD,M
Boys,99.79,3,Gabe Guilen,Luling,95.93,188.24,127.01,197.31,512.56,Single-ply,SBD,M
Boys,99.79,4,Michael Garcia,Palacios,99.79,192.78,122.47,197.31,512.56,Single-ply,SBD,M
Boys,99.79,5,Seferino Vargas,Refugio,92.9,215.46,115.67,174.63,505.76,Single-ply,SBD,M
Boys,99.79,6,Austin Bivins,Victoria Memorial,96.62,192.78,102.06,183.7,478.54,Single-ply,SBD,M
Boys,99.79,7,Eric Viafranco,Mathis,94.57,183.7,83.91,165.56,433.18,Single-ply,SBD,M
Boys,99.79,DQ,Cody Rivas,Luling,97.98,185.97,108.86,,,Single-ply,SBD,M
Boys,99.79,DQ,Danato Salinas,Skidmore-Tynan,99.79,,,,,Single-ply,SBD,M
Boys,109.77,1,Preston Turner,Victoria Memorial,109.54,294.84,204.12,258.55,757.5,Single-ply,SBD,M
Boys,109.77,2,Adam Aucoin,Palacios,104.24,265.35,149.69,219.99,635.03,Single-ply,SBD,M
Boys,109.77,3,Aaron Liserio,Mathis,108.32,267.62,129.27,217.72,614.62,Single-ply,SBD,M
Boys,124.74,4,Kohlton Tegeler,Victoria Memorial,110,233.6,154.22,222.26,610.08,Single-ply,SBD,M
Boys,109.77,5,Rj Rubesh,Louise,107.23,240.4,136.08,215.46,591.94,Single-ply,SBD,M
Boys,109.77,6,Ramiro Montalvo,Orange Grove,107.27,231.33,142.88,195.04,569.26,Single-ply,SBD,M
Boys,109.77,7,Josh Morgan,Victoria Memorial,108.86,213.19,129.27,201.85,544.31,Single-ply,SBD,M
Boys,109.77,8,Jacob Moreno,Mathis,105.01,204.12,99.79,226.8,530.7,Single-ply,SBD,M
Boys,109.77,9,Matthew Guerrero,Luling,102.6,192.78,102.06,183.7,478.54,Single-ply,SBD,M
Boys,109.77,10,Lucas Janysek,Karnes City,105.23,120.2,81.65,149.69,351.53,Single-ply,SBD,M
Boys,109.77,DQ,Alex Salazar,Center Point,106.37,163.29,,,,Single-ply,SBD,M
Boys,124.74,1,Dylan Klare,Refugio,114.31,276.69,176.9,235.87,689.46,Single-ply,SBD,M
Boys,124.74,2,Taylor Henning,Refugio,116.21,249.48,151.95,226.8,628.23,Single-ply,SBD,M
Boys,124.74,3,John Mendoza,Karnes City,114.21,195.04,124.74,204.12,523.9,Single-ply,SBD,M
Boys,124.74,4,Clark Pustka,Goliad,111.77,192.78,140.61,183.7,517.1,Single-ply,SBD,M
Boys,124.74,5,Robert Gregory,Center Point,122.92,179.17,145.15,154.22,478.54,Single-ply,SBD,M
Boys,124.74,6,Jaylon Bradford,Louise,111.58,181.44,99.79,190.51,471.74,Single-ply,SBD,M
Boys,124.74,7,Aaron Kuecker,Goliad,123.47,163.29,124.74,181.44,469.47,Single-ply,SBD,M
Boys,124.74,8,Izzy Perez,Karnes City,123.56,170.1,97.52,192.78,460.4,Single-ply,SBD,M
Boys,124.74,9,Nathan Hernandez,Kenedy,117.48,145.15,83.91,133.81,362.87,Single-ply,SBD,M
Boys,124.74,DQ,Garrett Friedrichs,Goliad,123.2,192.78,106.59,,,Single-ply,SBD,M
Boys,124.74,DQ,Jose Molina,Skidmore-Tynan,118.3,,,,,Single-ply,SBD,M
Boys,124.74+,1,Ruben DelBosque,Mathis,145.83,292.57,117.93,226.8,637.3,Single-ply,SBD,M
Boys,124.74+,2,Oscar O Ortiz,Orange Grove,134.54,249.48,151.95,199.58,601.01,Single-ply,SBD,M
Boys,124.74+,3,Jj Galvan,Orange Grove,137.71,244.94,129.27,222.26,596.47,Single-ply,SBD,M
Boys,124.74+,4,Jonathon Saldana,Floresville,131.54,249.48,124.74,204.12,578.33,Single-ply,SBD,M
Boys,124.74+,5,Blake Griffith,Floresville,128.55,249.48,122.47,192.78,564.72,Single-ply,SBD,M
Boys,124.74+,6,Larry Martinez,Floresville,139.34,215.46,127.01,217.72,560.19,Single-ply,SBD,M
Boys,124.74+,7,Josh Moreno,Mathis,127.69,235.87,113.4,183.7,532.97,Single-ply,SBD,M
Boys,124.74+,8,Jaren Smith,Refugio,129.91,185.97,104.33,181.44,471.74,Single-ply,SBD,M
Boys,124.74+,9,Ruben Ortiz,Refugio,141.52,206.38,97.52,147.42,451.32,Single-ply,SBD,M
Boys,124.74+,10,Qwelian Tanner,Victoria Memorial,162.75,142.88,104.33,151.95,399.16,Single-ply,SBD,M
Boys,124.74+,DQ,Zack Pawelek,Karnes City,145.15,,,,,Single-ply,SBD,M
