Name,Sex,Event,Place,Division,WeightClassKg,TotalKg,BodyweightKg,Equipment,BirthYear,Team,Bench1Kg,Bench2Kg,Bench3Kg,Best3BenchKg
Rima Hassan,F,B,1,Youth B,57,35,55.5,Single-ply,2001,Powerlifting Lauchhammer,27.5,32.5,35,35
Jessica Markus,F,B,1,Youth B,84,45,82.2,Single-ply,2000,Powerlifting Lauchhammer,40,45,-47.5,45
Anne-Jasmin Scholz,F,B,1,Juniors,63,85,63,Single-ply,1996,Powerlifting Lauchhammer,85,-92.5,-92.5,85
Marina Schermer,F,B,1,Open,52,85,49.7,Single-ply,1985,KTV Sparta 1896,75,80,85,85
Gallin Claudia,F,B,1,Open,63,100,62.5,Single-ply,1984,AC Heros Berlin,90,95,100,100
Katja Broxtermann,F,B,1,Open,72,107.5,71.8,Single-ply,1986,Sanssouci GYM Potsdam,-105,107.5,-115,107.5
Melanie Hurraß,F,B,2,Open,72,55,66.7,Single-ply,1984,Powerlifting Lauchhammer,50,-55,55,55
Nicole Weise,F,B,3,Open,72,52.5,71.3,Single-ply,1987,AC Rüdersdorf,-50,50,52.5,52.5
Sandra Markus,F,B,1,Open,84,50,80,Single-ply,1977,Powerlifting Lauchhammer,45,50,-55,50
Krystyna Matschos,F,B,1,Open,84+,70,103.8,Single-ply,1982,Powerlifting Lauchhammer,60,65,70,70
Heike Klein,F,B,2,Masters 1,63,45,58.7,Single-ply,1968,AC Rüdersdorf,42.5,45,-50,45
Petra Hoene,F,B,1,Masters 2,63,50,62.5,Single-ply,1960,SV Motor Eberswalde,45,47.5,50,50
Kerstin Falkenberg,F,B,1,Masters 2,72,70,65.3,Single-ply,1966,SV Motor Eberswalde,65,70,-72.5,70
Sibylle Berndt,F,B,2,Masters 2,72,55,69.9,Single-ply,1958,AC Lauchhammer,50,-55,55,55
Anne Schlieter,F,B,1,Masters 4,63,35,62.9,Single-ply,1938,AC Rüdersdorf,30,32.5,35,35
Sabrina Boy,F,B,1,Open,57,50,52.2,Single-ply,1982,SV Motor Eberswalde,47.5,-50,50,50
Sylvia Wunderlich,F,B,1,Masters 2,84+,107.5,85.6,Single-ply,1965,Sanssouci GYM Potsdam,107.5,,,107.5
Rudolf Berndt,M,B,1,Masters 3,74,85,67.2,Single-ply,1953,AC Lauchhammer,80,-85,85,85
Andreas Petrens,M,B,1,Masters 3,83,160,82,Single-ply,1956,AC Heros Berlin,160,-170,-170,160
Wolf-Peter Springstein,M,B,1,Masters 3,93,160,84,Single-ply,1951,SV Großräschen,145,150,160,160
Christian Filarski,M,B,2,Masters 3,93,137.5,86.5,Single-ply,1951,Grün Weiss Lindow,132.5,137.5,-140,137.5
Günther Vogt,M,B,1,Masters 3,105,125,99.3,Single-ply,1950,Sanssouci GYM Potsdam,110,117.5,125,125
Reiner Geese,M,B,1,Masters 4,66,100,61.2,Single-ply,1943,SV Siegfried-Nordwest Berlin,95,100,-102.5,100
Horst Lorenz,M,B,1,Masters 4,83,125,77.1,Single-ply,1940,SV Motor Eberswalde,120,125,-130,125
Karl Reitze,M,B,1,Masters 4,93,110,85.5,Single-ply,1944,AC Heros Berlin,100,105,110,110
Hans Weder,M,B,2,Masters 4,93,92.5,91.5,Single-ply,1936,Fitness Club Spandau,85,90,92.5,92.5
Klaus Feldmann,M,B,1,Masters 4,105,95,93.1,Single-ply,1936,SV Siegfried-Nordwest Berlin,87.5,92.5,95,95
Dietfried Frey,M,B,1,Masters 4,120,95,108.7,Single-ply,1943,Fitness Club Spandau,90,95,-100,95
Bern Reth,M,B,G,Open,74,100,74,Single-ply,1991,Schwerathletik Verein Erfurt e.V.,-95,100,-102.5,100
Frank Wunderlich,M,B,1,Masters 2,66,125,65.4,Single-ply,1964,Sanssouci GYM Potsdam,120,-125,125,125
Ingo Woschny,M,B,1,Masters 2,83,172.5,81.9,Single-ply,1965,Sanssouci GYM Potsdam,165,172.5,-182.5,172.5
Veiko Friedrich,M,B,DQ,Masters 2,83,,78.8,Single-ply,1964,PSV Schwedt,-170,-170,,
Olaf Meurer,M,B,1,Masters 2,93,187.5,90.4,Single-ply,1965,SV Motor Eberswalde,-185,187.5,-192.5,187.5
Jakob Klaus-Dieter,M,B,2,Masters 2,93,187.5,92.5,Single-ply,1961,TSV 90 Zehdenick,170,180,187.5,187.5
Reiner Besser,M,B,3,Masters 2,93,157.5,92.4,Single-ply,1965,AC Lauchhammer,147.5,155,157.5,157.5
Peer Hänsicke,M,B,1,Masters 2,105,160,96.9,Single-ply,1961,SV Großräschen,155,-160,160,160
Frank Bruntsch,M,B,2,Masters 2,105,157.5,102.9,Single-ply,1960,PSV Schwedt,140,150,157.5,157.5
Frank Wohjan,M,B,3,Masters 2,105,150,102.3,Single-ply,1964,TSV 90 Zehdenick,145,150,-155,150
Thomas Müller,M,B,2,Masters 2,120,150,105.4,Single-ply,1962,PSV Schwedt,150,-200,-210,150
Stoppa Lutz,M,B,1,Masters 2,120,180,112.7,Single-ply,1961,TSV 90 Zehdenick,165,175,180,180
Heiko Sackretz,M,B,1,Masters 1,66,120,63.6,Single-ply,1968,AC Rüdersdorf,100,110,120,120
Sascha Tripke,M,B,1,Masters 1,74,170,73.6,Single-ply,1975,AC Heros Berlin,162.5,170,,170
David Stuckatz,M,B,1,Masters 1,93,117.5,86.9,Raw,1975,SV Großräschen,110,117.5,-125,117.5
Thomas Krziwda,M,B,1,Masters 1,105,172.5,101.7,Single-ply,1973,Sanssouci GYM Potsdam,160,167.5,172.5,172.5
Heiko Mehnert,M,B,2,Masters 1,105,160,96.3,Single-ply,1968,Powerlifting Lauchhammer,150,160,-170,160
Fabian Domning,M,B,3,Masters 1,105,115,95.7,Single-ply,1971,Fitness Club Spandau,-110,110,115,115
Maik Flemming,M,B,1,Masters 1,120,190,118.7,Single-ply,1975,AC Heros Berlin,180,190,-200,190
Ronny Göbel,M,B,2,Masters 1,120,180,106.4,Single-ply,1976,TSV 90 Zehdenick,165,175,180,180
Thomas Gabriel,M,B,3,Masters 1,120,180,112.2,Single-ply,1971,Sanssouci GYM Potsdam,160,170,180,180
Thomas Lange,M,B,3,Masters 1,120,162.5,109.8,Single-ply,1967,TSV 90 Zehdenick,140,152.5,162.5,162.5
Murat Leidecker,M,B,1,Youth B,74,80,70.6,Single-ply,2000,AC Rüdersdorf,80,-85,-85,80
Florian Noerenberg,M,B,1,Youth A,83,100,77.7,Single-ply,1998,TSV 90 Zehdenick,90,95,100,100
Christian Gärtner,M,B,2,Youth B,83,57.5,82,Single-ply,2000,AC Lauchhammer,57.5,-62.5,-62.5,57.5
Robin Winopal,M,B,1,Youth A,66,85,63.3,Single-ply,1998,AC Lauchhammer,80,85,-87.5,85
Niclas Schley,M,B,2,Youth B,93,80,85.6,Single-ply,2001,AC Rüdersdorf,80,-90,-90,80
Justus Doberschütz,M,B,G,Youth B,105,85,93.6,Single-ply,2002,AC Rüdersdorf,80,85,-90,85
Max Wiegand,M,B,1,Juniors,66,95,62.3,Single-ply,1994,Powerlifting Lauchhammer,90,95,-100,95
Sebastian Hartung,M,B,2,Juniors,66,85,62.7,Single-ply,1994,AC Rüdersdorf,80,85,-90,85
Patrick Hartung,M,B,1,Juniors,74,140,72.1,Single-ply,1994,AC Rüdersdorf,140,-145,,140
Eric Helbig,M,B,2,Juniors,74,117.5,70.7,Single-ply,1997,Powerlifting Lauchhammer,110,117.5,-125,117.5
Tristan Wendlandt,M,B,3,Juniors,74,115,69.3,Single-ply,1996,SV Motor Eberswalde,110,115,-120,115
Eugen Pabst,M,B,1,Juniors,83,115,81.4,Single-ply,1993,AC Rüdersdorf,100,110,115,115
Bilal Abdul-Ghani,M,B,2,Juniors,83,107.5,81.8,Single-ply,1996,KTV Sparta 1896,100,107.5,-110,107.5
Mario Bremic,M,B,3,Juniors,83,102.5,79.7,Single-ply,1997,PSV Schwedt,90,-100,102.5,102.5
Christian Flueras,M,B,1,Juniors,93,192.5,89.6,Single-ply,1996,Sanssouci GYM Potsdam,175,185,192.5,192.5
Arkadiusz Waclawczyk,M,B,2,Juniors,93,142.5,87.7,Single-ply,1995,KTV Sparta 1896,-130,135,142.5,142.5
Ivan Machlay,M,B,3,Juniors,93,130,84.6,Single-ply,1997,AC Heros Berlin,120,130,-140,130
Vladimir Machlay,M,B,4,Juniors,93,112.5,86.2,Single-ply,1993,AC Heros Berlin,100,107.5,112.5,112.5
Tobias Herdt,M,B,5,Juniors,93,110,87.1,Single-ply,1996,TSV 90 Zehdenick,100,105,110,110
Domenik Mierzwa,M,B,1,Juniors,120,110,108.7,Single-ply,1993,AC Rüdersdorf,100,-110,110,110
Daniel Lasse,M,B,1,Open,66,145,65.4,Single-ply,1982,SV Motor Eberswalde,140,145,-150,145
Benny Wendt,M,B,1,Open,74,172,72.4,Single-ply,1985,PSV Schwedt,172,-177.5,-182.5,172
Andreas Seidel,M,B,2,Open,74,100,72.1,Single-ply,1980,AC Rüdersdorf,75,100,-110,100
Guido Woysch,M,B,1,Open,83,170,80.9,Single-ply,1979,AC Heros Berlin,170,-175,-175,170
Raik Günterberg,M,B,2,Open,83,157.5,76.2,Single-ply,1989,SV Großräschen,152.5,157.5,-162.5,157.5
Sebastian Gronschel,M,B,1,Open,93,195,87.3,Single-ply,1992,Sanssouci GYM Potsdam,150,180,195,195
Martin Strietzel,M,B,2,Open,93,130,91,Single-ply,1989,AC Heros Berlin,130,-135,-135,130
Henning Buksch,M,B,3,Open,93,127.5,85.7,Single-ply,1980,SV Großräschen,120,127.5,-130,127.5
Andreas Brank,M,B,1,Open,105,170,94.4,Single-ply,1981,TSV 90 Zehdenick,160,170,-180,170
Marcus Böttger,M,B,2,Open,105,152.5,98.9,Single-ply,1990,AC Lauchhammer,145,150,152.5,152.5
Tony Maciuszczyk,M,B,3,Open,105,127.5,98.3,Single-ply,1990,Powerlifting Lauchhammer,110,120,127.5,127.5
Christoph Lenz,M,B,1,Open,120,127.5,106,Single-ply,1987,SV Großräschen,120,127.5,-132.5,127.5
Sandro Matschos,M,B,2,Open,120,95,112.1,Single-ply,1978,Powerlifting Lauchhammer,80,90,95,95
Oleg Gerats,M,B,G,Open,120+,200,155.2,Single-ply,1991,Schwerathletik Verein Erfurt e.V.,190,200,-202.5,200
