Division,WeightClassKg,Place,Name,Team,BodyweightKg,Best3SquatKg,Best3BenchKg,Best3DeadliftKg,TotalKg,Equipment,Event,Sex
Boys,51.71,1,Kyle Stafford,Navasota,48.99,97.52,54.43,102.06,254.01,Single-ply,SBD,M
Boys,51.71,2,Ivan Navarro,Corsicana Mildred,49.62,83.91,52.16,117.93,254.01,Single-ply,SBD,M
Boys,51.71,3,Robert Ruiz,Dawson,46.81,74.84,38.56,83.91,197.31,Single-ply,SBD,M
Boys,51.71,4,Will Miller,Dawson,42.37,63.5,31.75,86.18,181.44,Single-ply,SBD,M
Boys,51.71,NS,Eric Aceves,Madisonville,,,,,,Single-ply,SBD,M
Boys,55.79,1,Max Snodgrass,Blooming Grove,55.16,120.2,72.57,149.69,342.46,Single-ply,SBD,M
Boys,55.79,NS,Rey Perez,Madisonville,,,,,,Single-ply,SBD,M
Boys,55.79,NS,Dalton Long,Dawson,,,,,,Single-ply,SBD,M
Boys,55.79,NS,Derrick Lewis,Navasota,,,,,,Single-ply,SBD,M
Boys,59.87,1,Miguel Montejano,Lovelady,56.79,161.03,92.99,170.1,424.11,Single-ply,SBD,M
Boys,59.87,2,Ismael Castillo,Madisonville,59.69,136.08,74.84,142.88,353.8,Single-ply,SBD,M
Boys,67.13,DQ,Christian Dominguez,Buffalo,59.96,,,,,Single-ply,SBD,M
Boys,67.13,DQ,Tate Hartley,Buffalo,60.01,161.03,83.91,,,Single-ply,SBD,M
Boys,67.13,1,Stephen Lehew,Maypearl,67.13,188.24,124.74,181.44,494.42,Single-ply,SBD,M
Boys,74.84,2,Alex Ruiz,Dawson,67.22,174.63,72.57,181.44,428.64,Single-ply,SBD,M
Boys,67.13,3,Jesus Lopez,Buffalo,66.95,163.29,77.11,163.29,403.7,Single-ply,SBD,M
Boys,67.13,4,Colton Monroe,Blooming Grove,62.87,142.88,72.57,181.44,396.89,Single-ply,SBD,M
Boys,67.13,5,Juan Hernández,Mexia,61.23,149.69,79.38,158.76,387.82,Single-ply,SBD,M
Boys,67.13,6,Oscar Bonilla,Corsicana Mildred,65.68,145.15,70.31,163.29,378.75,Single-ply,SBD,M
Boys,74.84,7,Jeremy Ballard,Corsicana Mildred,67.31,145.15,74.84,158.76,378.75,Single-ply,SBD,M
Boys,67.13,8,Stephen Jefferson,Navasota,60.78,140.61,74.84,145.15,360.61,Single-ply,SBD,M
Boys,67.13,9,Davis Wammack,Malakoff,66.13,131.54,72.57,142.88,347,Single-ply,SBD,M
Boys,67.13,10,Juan Orduna,Crockett,63.23,129.27,58.97,131.54,319.78,Single-ply,SBD,M
Boys,74.84,DQ,Rody Seilheimer,Corsicana Mildred,67.31,165.56,106.59,,,Single-ply,SBD,M
Boys,67.13,DQ,Luis Dominguez,Rice,61.78,,,,,Single-ply,SBD,M
Boys,67.13,NS,Matthew Nunez,Navasota,,,,,,Single-ply,SBD,M
Boys,67.13,NS,Dean Gessner,Navasota,,,,,,Single-ply,SBD,M
Boys,67.13,NS,Keith Carter,Buffalo,,,,,,Single-ply,SBD,M
Boys,74.84,1,Tracy Degrate,Mexia,68.76,188.24,106.59,206.38,501.22,Single-ply,SBD,M
Boys,74.84,2,Calvin Young,Buffalo,72.21,170.1,90.72,208.65,469.47,Single-ply,SBD,M
Boys,74.84,3,Eric Garnica,Madisonville,73.48,170.1,90.72,199.58,460.4,Single-ply,SBD,M
Boys,74.84,4,Jose Salazar,Malakoff,73.21,176.9,88.45,172.37,437.72,Single-ply,SBD,M
Boys,74.84,5,Milton Mora,Lovelady,68.58,145.15,108.86,174.63,428.64,Single-ply,SBD,M
Boys,74.84,6,Antonio Mora,Madisonville,69.58,158.76,106.59,151.95,417.3,Single-ply,SBD,M
Boys,74.84,7,Sergio Rios,Mexia,74.3,154.22,90.72,167.83,412.77,Single-ply,SBD,M
Boys,74.84,8,Colton Henson,Buffalo,73.26,136.08,92.99,163.29,392.36,Single-ply,SBD,M
Boys,74.84,9,Blake Strack,Buffalo,69.85,136.08,90.72,142.88,369.68,Single-ply,SBD,M
Boys,82.1,10,Kevin Harris,Navasota,75.02,145.15,81.65,140.61,367.41,Single-ply,SBD,M
Boys,74.84,11,Leon Taylor,Crockett,69.13,122.47,77.11,136.08,335.66,Single-ply,SBD,M
Boys,74.84,DQ,Tacho Monsivais,Crockett,67.77,136.08,,,,Single-ply,SBD,M
Boys,74.84,DQ,Darcell Taylor,Crockett,69.4,147.42,,,,Single-ply,SBD,M
Boys,74.84,NS,Logan Shelton,Corsicana Mildred,,,,,,Single-ply,SBD,M
Boys,74.84,NS,Zach Starkey,Kerens,,,,,,Single-ply,SBD,M
Boys,82.1,1,Jose Dominguez,Buffalo,78.29,229.06,136.08,215.46,580.6,Single-ply,SBD,M
Boys,82.1,2,Jonathon Barnes,Crockett,75.48,149.69,88.45,192.78,430.91,Single-ply,SBD,M
Boys,82.1,3,Cody Davies,Malakoff,77.02,151.95,81.65,192.78,426.38,Single-ply,SBD,M
Boys,82.1,4,Dylan Woods,Kerens,80.56,151.95,90.72,176.9,419.57,Single-ply,SBD,M
Boys,82.1,5,Humberto Monsivais,Crockett,79.38,136.08,70.31,149.69,356.07,Single-ply,SBD,M
Boys,82.1,DQ,Devin Robbins,Crockett,78.74,,,,,Single-ply,SBD,M
Boys,82.1,DQ,Jd Baxter,Buffalo,80.01,133.81,,,,Single-ply,SBD,M
Boys,82.1,NS,Shane Witherspoon,Madisonville,,,,,,Single-ply,SBD,M
Boys,82.1,NS,Jordan Birdwell,Navasota,,,,,,Single-ply,SBD,M
Boys,89.81,1,Dasmine Whaley,Madisonville,88.81,238.14,149.69,226.8,614.62,Single-ply,SBD,M
Boys,89.81,2,Dj Woods,Kerens,83.28,231.33,127.01,231.33,589.67,Single-ply,SBD,M
Boys,89.81,3,Diontre Oliver,Mexia,88.54,192.78,111.13,231.33,535.24,Single-ply,SBD,M
Boys,89.81,4,Josh Wooten,Kerens,88.72,199.58,115.67,204.12,519.36,Single-ply,SBD,M
Boys,89.81,5,Ivan Rivas,Buffalo,89.72,192.78,129.27,192.78,514.83,Single-ply,SBD,M
Boys,89.81,6,Jonathan Cates,Buffalo,84.19,190.51,115.67,199.58,505.76,Single-ply,SBD,M
Boys,89.81,7,Dj Young,Buffalo,84.01,181.44,95.25,176.9,453.59,Single-ply,SBD,M
Boys,89.81,8,Tad Musick,Crockett,87.36,154.22,102.06,192.78,449.06,Single-ply,SBD,M
Boys,89.81,9,Brian DeLaCruz,Malakoff,89.81,161.03,92.99,183.7,437.72,Single-ply,SBD,M
Boys,89.81,10,Chase Miller,Corsicana Mildred,88.63,138.35,95.25,170.1,403.7,Single-ply,SBD,M
Boys,89.81,11,Richard Epps,Crockett,83.19,140.61,79.38,156.49,376.48,Single-ply,SBD,M
Boys,89.81,DQ,Jody Bernal,Rice,86.45,,,,,Single-ply,SBD,M
Boys,89.81,DQ,Ben Torres,Rice,86.45,199.58,113.4,,,Single-ply,SBD,M
Boys,89.81,NS,Tarrence Richardson,Crockett,,,,,,Single-ply,SBD,M
Boys,89.81,NS,David Havlik,Malakoff,,,,,,Single-ply,SBD,M
Boys,89.81,NS,Michael Kline,Kerens,,,,,,Single-ply,SBD,M
Boys,99.79,1,Ragan Henderson,Rice,98.25,222.26,136.08,229.06,587.4,Single-ply,SBD,M
Boys,99.79,2,Joshua Ashlock,Maypearl,99.16,188.24,102.06,233.6,523.9,Single-ply,SBD,M
Boys,99.79,3,Ethridge Brooks,Madisonville,99.43,181.44,113.4,204.12,498.95,Single-ply,SBD,M
Boys,99.79,4,Josh Carrillo,Buffalo,97.43,206.38,97.52,183.7,487.61,Single-ply,SBD,M
Boys,99.79,5,Jalen Woods,Navasota,91.08,154.22,104.33,172.37,430.91,Single-ply,SBD,M
Boys,99.79,6,Julian Ibarro,Crockett,95.25,163.29,108.86,158.76,430.91,Single-ply,SBD,M
Boys,99.79,7,Nathan Harris,Corsicana Mildred,98.97,154.22,79.38,181.44,415.04,Single-ply,SBD,M
Boys,99.79,8,Diego Medina,Malakoff,92.35,163.29,88.45,158.76,410.5,Single-ply,SBD,M
Boys,99.79,9,Josh Jeffus,Lovelady,97.43,151.95,92.99,165.56,410.5,Single-ply,SBD,M
Boys,99.79,10,Montrell Williams,Malakoff,91.35,136.08,65.77,138.35,340.19,Single-ply,SBD,M
Boys,99.79,NS,Jake Strother,Dawson,,,,,,Single-ply,SBD,M
Boys,109.77,1,Corey Brookins,Malakoff,102.33,265.35,122.47,208.65,596.47,Single-ply,SBD,M
Boys,109.77,2,Greg Orminston,Maypearl,102.51,222.26,108.86,204.12,535.24,Single-ply,SBD,M
Boys,109.77,3,Noah Pennell,Corsicana Mildred,102.87,213.19,122.47,195.04,530.7,Single-ply,SBD,M
Boys,109.77,4,Kyle Golden,Dawson,108.23,195.04,120.2,176.9,492.15,Single-ply,SBD,M
Boys,109.77,5,Israel Chavez,Malakoff,103.69,136.08,83.91,131.54,351.53,Single-ply,SBD,M
Boys,109.77,DQ,Colten Long,Madisonville,107.95,,,,,Single-ply,SBD,M
Boys,109.77,DQ,Danny Hanna,Corsicana Mildred,101.24,174.63,,,,Single-ply,SBD,M
Boys,124.74,1,Alex Montano,Buffalo,113.31,226.8,124.74,206.38,557.92,Single-ply,SBD,M
Boys,124.74,2,Chris Hobbs,Kerens,119.02,217.72,117.93,197.31,532.97,Single-ply,SBD,M
Boys,124.74,3,Jorge Rosas,Madisonville,118.48,226.8,97.52,199.58,523.9,Single-ply,SBD,M
Boys,124.74,4,Thomas Finigmow,Corsicana Mildred,114.12,181.44,95.25,199.58,476.27,Single-ply,SBD,M
Boys,124.74,5,Tyler Lewis,Navasota,118.84,163.29,77.11,158.76,399.16,Single-ply,SBD,M
Boys,124.74,NS,Lee Demmings,Dawson,,,,,,Single-ply,SBD,M
Boys,124.74+,1,Jaime Gomez,Mexia,149.05,294.84,149.69,242.67,687.19,Single-ply,SBD,M
Boys,124.74+,2,Beau Jenkins,Corsicana Mildred,126.01,170.1,140.61,204.12,514.83,Single-ply,SBD,M
Boys,124.74+,3,Bo Meece,Navasota,135.08,219.99,104.33,190.51,514.83,Single-ply,SBD,M
Boys,124.74+,4,Tyler White,Navasota,146.56,181.44,104.33,172.37,458.13,Single-ply,SBD,M
Boys,124.74+,5,Thomas Acol,Malakoff,130,165.56,81.65,181.44,428.64,Single-ply,SBD,M
Boys,124.74+,DQ,Joshua Mouton,Crockett,140.43,204.12,92.99,,,Single-ply,SBD,M
