Division,WeightClassKg,Place,Name,Team,BodyweightKg,Best3SquatKg,Best3BenchKg,Best3DeadliftKg,TotalKg,Equipment,Event,Sex
Boys,51.71,1,Johnny Adair,Sealy,49.67,138.35,74.84,161.03,374.21,Single-ply,SBD,M
Boys,51.71,2,Joey Adair,Sealy,50.58,136.08,70.31,154.22,360.61,Single-ply,SBD,M
Boys,51.71,3,Luis Rios,Geronimo Navarro,44,63.5,61.23,102.06,226.8,Single-ply,SBD,M
Boys,51.71,4,Trevor Moczygemba,Poth,51.71,72.57,43.09,104.33,219.99,Single-ply,SBD,M
Boys,55.79,1,Jorge Regino,Johnson City,53.07,122.47,70.31,136.08,328.85,Single-ply,SBD,M
Boys,59.87,1,Daniel Kokenes,Geronimo Navarro,59.42,122.47,81.65,156.49,360.61,Single-ply,SBD,M
Boys,59.87,2,Chris Jackson,Lockhart,57.61,113.4,74.84,127.01,315.25,Single-ply,SBD,M
Boys,59.87,3,Miguel Hernandez,Nixon Smiley,57.15,113.4,74.84,124.74,312.98,Single-ply,SBD,M
Boys,59.87,4,Gabriel Casares,Gonzales,59.87,104.33,68.04,124.74,297.1,Single-ply,SBD,M
Boys,59.87,5,Charles Ereaux,Lockhart,59.42,92.99,58.97,115.67,267.62,Single-ply,SBD,M
Boys,67.13,1,Jay Garza,Poth,65.32,183.7,124.74,183.7,492.15,Single-ply,SBD,M
Boys,67.13,2,Taylor Hough,Buda Hays,64.86,140.61,95.25,149.69,385.55,Single-ply,SBD,M
Boys,67.13,3,Chris Ruff,Geronimo Navarro,61.69,136.08,86.18,154.22,376.48,Single-ply,SBD,M
Boys,67.13,4,Walker McCandrew,Universal City Randolph,63.05,120.2,77.11,142.88,340.19,Single-ply,SBD,M
Boys,67.13,5,Chris Mirachi,Universal City Randolph,60.78,92.99,79.38,131.54,303.91,Single-ply,SBD,M
Boys,67.13,6,Chris Shelton,Gonzales,66.68,95.25,56.7,142.88,294.84,Single-ply,SBD,M
Boys,67.13,7,Zane Bertram,Lockhart,65.09,115.67,56.7,111.13,283.5,Single-ply,SBD,M
Boys,74.84,1,Christian Nelson,Poth,73.94,181.44,102.06,188.24,471.74,Single-ply,SBD,M
Boys,74.84,2,Sean Hancock,Geronimo Navarro,74.39,145.15,122.47,167.83,435.45,Single-ply,SBD,M
Boys,74.84,3,Will Perrin,Universal City Randolph,71.67,158.76,74.84,181.44,415.04,Single-ply,SBD,M
Boys,74.84,4,Jacob Williamson,Sealy,69.85,147.42,97.52,165.56,410.5,Single-ply,SBD,M
Boys,74.84,5,VIncent Moraida,Buda Hays,73.94,149.69,97.52,149.69,396.89,Single-ply,SBD,M
Boys,74.84,6,Ryan Anderson,Poth,74.84,136.08,92.99,167.83,396.89,Single-ply,SBD,M
Boys,74.84,7,John Botello,Gonzales,68.49,136.08,92.99,161.03,390.09,Single-ply,SBD,M
Boys,74.84,8,Hayden Eskew,Buda Hays,72.12,136.08,108.86,138.35,383.29,Single-ply,SBD,M
Boys,74.84,9,Joe Medina,Nixon Smiley,74.16,124.74,106.59,147.42,378.75,Single-ply,SBD,M
Boys,74.84,10,Jon Horrocks,Buda Hays,74.39,142.88,90.72,142.88,376.48,Single-ply,SBD,M
Boys,74.84,11,Brandon Miller,Lockhart,74.39,108.86,68.04,136.08,312.98,Single-ply,SBD,M
Boys,82.1,1,Vishal Singh,San Marcos Baptist,79.83,238.14,131.54,254.01,623.69,Single-ply,SBD,M
Boys,82.1,2,Landon Lock,Gonzales,81.65,226.8,111.13,231.33,569.26,Single-ply,SBD,M
Boys,82.1,3,Chase Wiatrek,Poth,81.65,181.44,92.99,183.7,458.13,Single-ply,SBD,M
Boys,82.1,4,Hunter Noack,Gonzales,77.11,163.29,90.72,176.9,430.91,Single-ply,SBD,M
Boys,82.1,5,Edbriel Manzo,Buda Hays,79.38,142.88,99.79,176.9,419.57,Single-ply,SBD,M
Boys,82.1,6,Taylor Dean,Geronimo Navarro,82.1,158.76,92.99,163.29,415.04,Single-ply,SBD,M
Boys,82.1,7,Samuel Arce,Nixon Smiley,82.1,133.81,106.59,161.03,401.43,Single-ply,SBD,M
Boys,82.1,8,Shaq Henry,Universal City Randolph,77.56,149.69,83.91,161.03,394.63,Single-ply,SBD,M
Boys,82.1,9,Daniel Sánchez,Gonzales,81.19,113.4,72.57,131.54,317.51,Single-ply,SBD,M
Boys,82.1,10,Micah Jones,Universal City Randolph,80.29,86.18,77.11,136.08,299.37,Single-ply,SBD,M
Boys,89.81,1,Kory Kuhl,Universal City Randolph,83.01,192.78,106.59,217.72,517.1,Single-ply,SBD,M
Boys,89.81,2,Joel Campos,Gonzales,87.77,199.58,136.08,181.44,517.1,Single-ply,SBD,M
Boys,89.81,3,Roman Garcia,Kenedy,86.64,181.44,136.08,172.37,489.88,Single-ply,SBD,M
Boys,89.81,4,Austin Adams,Karnes City,89.81,183.7,113.4,185.97,483.08,Single-ply,SBD,M
Boys,89.81,5,Zane Zimmerman,Geronimo Navarro,89.36,163.29,108.86,158.76,430.91,Single-ply,SBD,M
Boys,89.81,6,Ricardo Rivera,Gonzales,83.91,127.01,97.52,181.44,405.97,Single-ply,SBD,M
Boys,89.81,7,Jacob Vincik,Poth,85.28,158.76,83.91,163.29,405.97,Single-ply,SBD,M
Boys,89.81,8,Victor Martinez,Buda Hays,87.09,136.08,106.59,149.69,392.36,Single-ply,SBD,M
Boys,89.81,9,Lawrence Carrasco,Karnes City,85.28,124.74,95.25,170.1,390.09,Single-ply,SBD,M
Boys,89.81,10,Steven Post,Lockhart,89.81,136.08,81.65,156.49,374.21,Single-ply,SBD,M
Boys,89.81,11,Nick Ringler,Universal City Randolph,89.58,102.06,81.65,154.22,337.93,Single-ply,SBD,M
Boys,89.81,12,George Villagomez,Sealy,85.5,124.74,70.31,138.35,333.39,Single-ply,SBD,M
Boys,89.81,13,Craig Kilgore,Poth,89.13,120.2,65.77,140.61,326.59,Single-ply,SBD,M
Boys,99.79,1,Chance Dziuk,Poth,99.79,240.4,145.15,249.48,635.03,Single-ply,SBD,M
Boys,99.79,2,Deaundrae Turner,Lockhart,99.34,206.38,111.13,201.85,519.36,Single-ply,SBD,M
Boys,99.79,3,Fred Erskin,Gonzales,99.79,181.44,113.4,188.24,483.08,Single-ply,SBD,M
Boys,99.79,4,Steven Perez,Geronimo Navarro,99.34,170.1,108.86,170.1,449.06,Single-ply,SBD,M
Boys,99.79,5,Kyle Williams,Buda Hays,93.21,163.29,111.13,170.1,444.52,Single-ply,SBD,M
Boys,109.77,6,Jenaro Jackson,Universal City Randolph,100.02,167.83,86.18,183.7,437.72,Single-ply,SBD,M
Boys,99.79,7,Jordan Huckabey,Lockhart,92.08,158.76,90.72,176.9,426.38,Single-ply,SBD,M
Boys,99.79,8,Josh Pesina,Buda Hays,99.34,131.54,102.06,154.22,387.82,Single-ply,SBD,M
Boys,99.79,9,Patrick Marley,Universal City Randolph,94.35,145.15,74.84,161.03,381.02,Single-ply,SBD,M
Boys,109.77,1,Nick Poole,Buda Hays,104.55,210.92,142.88,226.8,580.6,Single-ply,SBD,M
Boys,109.77,2,Vincent Pesina,Buda Hays,109.32,215.46,113.4,195.04,523.9,Single-ply,SBD,M
Boys,109.77,3,Roman Esparza,Geronimo Navarro,109.32,204.12,102.06,204.12,510.29,Single-ply,SBD,M
Boys,109.77,4,Ian Coleman,Universal City Randolph,107.95,204.12,113.4,163.29,480.81,Single-ply,SBD,M
Boys,109.77,5,Jason Martinez,Gonzales,106.59,176.9,106.59,195.04,478.54,Single-ply,SBD,M
Boys,109.77,6,Cole Callaway,Universal City Randolph,108.86,176.9,113.4,170.1,460.4,Single-ply,SBD,M
Boys,109.77,7,Liam Murphy,Universal City Randolph,107.95,172.37,97.52,163.29,433.18,Single-ply,SBD,M
Boys,109.77,8,Ray Sedwick,Lockhart,105.23,147.42,102.06,158.76,408.23,Single-ply,SBD,M
Boys,109.77,9,Lucas Janysek,Karnes City,108.86,122.47,81.65,154.22,358.34,Single-ply,SBD,M
Boys,124.74,1,Dustin Catchings,Gonzales,113.85,204.12,145.15,249.48,598.74,Single-ply,SBD,M
Boys,124.74,2,Vicente Juarez,Geronimo Navarro,124.28,238.14,142.88,213.19,594.21,Single-ply,SBD,M
Boys,124.74,3,John Mendoza,Karnes City,118.39,204.12,136.08,201.85,542.04,Single-ply,SBD,M
Boys,124.74,4,Joseph Barkley,Karnes City,124.51,192.78,111.13,215.46,519.36,Single-ply,SBD,M
Boys,124.74,5,Andrew Contreras,Lockhart,114.76,174.63,102.06,158.76,435.45,Single-ply,SBD,M
Boys,124.74,6,Mathew Gomez,Gonzales,114.76,131.54,88.45,136.08,356.07,Single-ply,SBD,M
Boys,124.74,DQ,Jody Lilley,Sealy,122.47,,,,,Single-ply,SBD,M
Boys,124.74+,1,Josh Foster,Lockhart,136.08,249.48,131.54,244.94,625.96,Single-ply,SBD,M
Boys,124.74+,2,Zack Pawelek,Karnes City,144.24,181.44,95.25,199.58,476.27,Single-ply,SBD,M
Boys,124.74+,3,Ryne Lehman,Lockhart,130.63,154.22,129.27,181.44,464.93,Single-ply,SBD,M
Boys,124.74+,4,Ruben Hernandez,Geronimo Navarro,146.96,181.44,106.59,147.42,435.45,Single-ply,SBD,M
Boys,124.74+,5,Mathew San Miguel,Gonzales,142.43,147.42,102.06,129.27,378.75,Single-ply,SBD,M
