Division,WeightClassKg,Place,Name,Team,BodyweightKg,Best3SquatKg,Best3BenchKg,Best3DeadliftKg,TotalKg,Equipment,Event,Sex
Boys,55.79,1,Jerry Lopez,Port Isabel,51.94,149.69,74.84,149.69,374.21,Single-ply,SBD,M
Boys,55.79,2,Jesus Morales #4,Port Isabel,51.89,108.86,70.31,113.4,292.57,Single-ply,SBD,M
Boys,51.71,3,Aaron Rocha,Rio Grande City Grulla,50.35,117.93,77.11,,195.04,Single-ply,SB,M
Boys,55.79,1,Josh Molina,Port Isabel,54.52,151.95,86.18,161.03,399.16,Single-ply,SBD,M
Boys,59.87,2,Christian Gonzalez,Weslaco,55.97,97.52,61.23,108.86,267.62,Single-ply,SBD,M
Boys,55.79,3,Roman Lopez,Progreso,53.43,97.52,56.7,111.13,265.35,Single-ply,SBD,M
Boys,59.87,4,Julio Rodriguez,Raymondville,55.97,111.13,,,111.13,Single-ply,S,M
Boys,59.87,1,Hernan Guerrero,Rio Hondo,59.6,158.76,88.45,158.76,405.97,Single-ply,SBD,M
Boys,67.13,2,Cesar Herbert,Port Isabel,59.96,154.22,79.38,145.15,378.75,Single-ply,SBD,M
Boys,67.13,3,Seth Naranjo,Santa Rosa,59.96,142.88,83.91,142.88,369.68,Single-ply,SBD,M
Boys,67.13,4,Michael Caceres,Weslaco,60.06,131.54,77.11,149.69,358.34,Single-ply,SBD,M
Boys,67.13,5,John Cantu,Raymondville,59.96,142.88,61.23,145.15,349.27,Single-ply,SBD,M
Boys,59.87,6,James Zaragoza,Raymondville,57.06,136.08,65.77,142.88,344.73,Single-ply,SBD,M
Boys,59.87,7,Juan Sandoval,Progreso,59.69,79.38,49.9,79.38,208.65,Single-ply,SBD,M
Boys,59.87,8,Jesse Leyna,Raymondville,56.43,124.74,,,124.74,Single-ply,S,M
Boys,67.13,DQ,Luis Reyes,Port Isabel,60.1,,,,,Single-ply,S,M
Boys,74.84,1,Andrew Infante,Port Isabel,67.31,195.04,92.99,206.38,494.42,Single-ply,SBD,M
Boys,67.13,2,Edward Palomin,Weslaco,65.95,185.97,111.13,188.24,485.34,Single-ply,SBD,M
Boys,67.13,3,Justin Gonzalez,Weslaco,64.77,190.51,102.06,183.7,476.27,Single-ply,SBD,M
Boys,67.13,4,Carlos Castillo,Los Fresnos,62.14,176.9,97.52,192.78,467.2,Single-ply,SBD,M
Boys,67.13,5,Julian Morales,Weslaco,66.68,183.7,81.65,185.97,451.32,Single-ply,SBD,M
Boys,67.13,6,Martin Rodriguez,Hidalgo Early College,64.5,145.15,86.18,161.03,392.36,Single-ply,SBD,M
Boys,67.13,7,Angel Guzman,Rio Grande City Grulla,63.05,131.54,70.31,145.15,347,Single-ply,SBD,M
Boys,67.13,8,Rick Castillo,Raymondville,64.86,124.74,70.31,124.74,319.78,Single-ply,SBD,M
Boys,67.13,9,Adam Perez,Santa Maria,61.78,90.72,74.84,142.88,308.44,Single-ply,SBD,M
Boys,67.13,10,Adam Cantu,Rio Grande City Grulla,65.05,129.27,61.23,117.93,308.44,Single-ply,SBD,M
Boys,67.13,11,Robert Camarillo,Rio Grande City Grulla,63.14,83.91,61.23,124.74,269.89,Single-ply,SBD,M
Boys,74.84,12,Edward Cantu,La Feria,67.31,190.51,,,190.51,Single-ply,S,M
Boys,67.13,13,Aaron Guerra,Lyford,66.22,165.56,,,165.56,Single-ply,S,M
Boys,67.13,DQ,Joe Torres,Los Fresnos,63.23,,,,,Single-ply,S,M
Boys,74.84,1,Adalberto Chavez,Hidalgo Early College,73.48,226.8,145.15,208.65,580.6,Single-ply,SBD,M
Boys,82.1,2,Ej Ybarra,Port Isabel,74.93,201.85,131.54,197.31,530.7,Single-ply,SBD,M
Boys,74.84,3,Aric Hernandez,Weslaco,74.84,192.78,113.4,219.99,526.17,Single-ply,SBD,M
Boys,74.84,4,James Ramirez,Port Isabel,73.12,183.7,95.25,192.78,471.74,Single-ply,SBD,M
Boys,74.84,5,Margarito Garcia,Santa Maria,73.39,197.31,88.45,161.03,446.79,Single-ply,SBD,M
Boys,74.84,6,Reynaldo Reyes,Raymondville,71.85,115.67,77.11,147.42,340.19,Single-ply,SBD,M
Boys,74.84,7,Marco Arista,Port Isabel,69.04,122.47,68.04,127.01,317.51,Single-ply,SBD,M
Boys,74.84,8,Julian Guerrero,Edcouch-Elsa,69.31,174.63,,142.88,317.51,Single-ply,SD,M
Boys,74.84,9,Ross Torres,La Feria,73.48,192.78,,,192.78,Single-ply,S,M
Boys,74.84,10,Alex Moreno,Rio Grande City Grulla,70.67,127.01,63.5,,190.51,Single-ply,SB,M
Boys,74.84,11,Adrian Vela,Rio Grande City Grulla,68.22,83.91,,,83.91,Single-ply,S,M
Boys,74.84,DQ,Angel Valdez,Edcouch-Elsa,73.66,,,,,Single-ply,S,M
Boys,82.1,1,Rick Strong,Santa Rosa,78.93,233.6,145.15,204.12,582.87,Single-ply,SBD,M
Boys,82.1,2,Eliseo Garza,Los Fresnos,80.65,208.65,120.2,244.94,573.79,Single-ply,SBD,M
Boys,82.1,3,Luis Muñoz,Hidalgo Early College,81.47,222.26,131.54,217.72,571.53,Single-ply,SBD,M
Boys,82.1,4,Max Castillo,Rio Hondo,81.69,192.78,124.74,204.12,521.63,Single-ply,SBD,M
Boys,82.1,5,Richard Ramos,Los Fresnos,82.01,192.78,113.4,204.12,510.29,Single-ply,SBD,M
Boys,82.1,6,Wence Anzaldua,Hidalgo Early College,76.57,188.24,122.47,188.24,498.95,Single-ply,SBD,M
Boys,82.1,7,Jose Garcia,Santa Maria,75.66,181.44,88.45,188.24,458.13,Single-ply,SBD,M
Boys,82.1,8,Faustino Garces,Weslaco,79.47,181.44,104.33,158.76,444.52,Single-ply,SBD,M
Boys,82.1,9,Eddie Trevino,Progreso,79.29,136.08,104.33,142.88,383.29,Single-ply,SBD,M
Boys,82.1,10,Xavier Garcia,Rio Grande City Grulla,76.11,120.2,97.52,156.49,374.21,Single-ply,SBD,M
Boys,82.1,11,Romy Pizana,La Feria,76.2,124.74,102.06,142.88,369.68,Single-ply,SBD,M
Boys,82.1,12,Sergio Perez,Rio Grande City Grulla,81.37,111.13,65.77,136.08,312.98,Single-ply,SBD,M
Boys,82.1,13,Isaac Martinez,Port Isabel,76.29,117.93,65.77,127.01,310.71,Single-ply,SBD,M
Boys,89.81,1,Ramiro Flores,Los Fresnos,88.99,249.48,158.76,231.33,639.57,Single-ply,SBD,M
Boys,89.81,2,Ej Castaneda,Rio Hondo,86.45,197.31,147.42,192.78,537.51,Single-ply,SBD,M
Boys,89.81,3,Ernesto Tafolla,Weslaco,83.73,210.92,111.13,204.12,526.17,Single-ply,SBD,M
Boys,89.81,4,Alvaro Hernandez,Progreso,88.54,192.78,115.67,206.38,514.83,Single-ply,SBD,M
Boys,89.81,5,Fernando Rivera,Port Isabel,88.81,210.92,131.54,158.76,501.22,Single-ply,SBD,M
Boys,89.81,6,Juan Sanchez,Rio Hondo,86.36,197.31,120.2,170.1,487.61,Single-ply,SBD,M
Boys,89.81,7,Francisco Valle,Hidalgo Early College,86.55,188.24,113.4,174.63,476.27,Single-ply,SBD,M
Boys,89.81,8,Michael Saldana,Hidalgo Early College,84.01,154.22,108.86,174.63,437.72,Single-ply,SBD,M
Boys,89.81,9,Jose Valdez,Hidalgo Early College,86.82,158.76,86.18,172.37,417.3,Single-ply,SBD,M
Boys,89.81,10,Isai Perez,Rio Grande City Grulla,83.46,149.69,81.65,131.54,362.87,Single-ply,SBD,M
Boys,89.81,11,Sylvano Cruces,Los Fresnos,87.09,210.92,,,210.92,Single-ply,S,M
Boys,89.81,12,Juan Solils,Edcouch-Elsa,82.78,204.12,,,204.12,Single-ply,S,M
Boys,99.79,1,Larry Cardenas,Weslaco,93.44,265.35,142.88,240.4,648.64,Single-ply,SBD,M
Boys,99.79,2,Luis Hernandez,Edcouch-Elsa,94.35,242.67,145.15,226.8,614.62,Single-ply,SBD,M
Boys,99.79,3,Lawrence Caldwell,Rio Hondo,93.62,226.8,145.15,231.33,603.28,Single-ply,SBD,M
Boys,99.79,4,Juan Villarreal,Santa Rosa,91.08,240.4,120.2,219.99,580.6,Single-ply,SBD,M
Boys,99.79,5,Isaac Carrizales,La Feria,93.89,201.85,131.54,199.58,532.97,Single-ply,SBD,M
Boys,99.79,6,Jesus Ramirez,Port Isabel,91.72,195.04,124.74,206.38,526.17,Single-ply,SBD,M
Boys,99.79,7,Anthony Rios,Rio Hondo,99.52,176.9,124.74,192.78,494.42,Single-ply,SBD,M
Boys,99.79,8,Juan Villarreal,Edcouch-Elsa,93.35,215.46,,,215.46,Single-ply,S,M
Boys,99.79,9,Elias Sanchez,Port Isabel,99.79,151.95,,,151.95,Single-ply,S,M
Boys,109.77,1,Aureliano Silva,Port Isabel,105.6,283.5,136.08,204.12,623.69,Single-ply,SBD,M
Boys,109.77,2,Anthony Rodriguez,Edcouch-Elsa,103.78,265.35,133.81,219.99,619.15,Single-ply,SBD,M
Boys,109.77,3,Mauricio Verdin,Weslaco,101.24,258.55,124.74,217.72,601.01,Single-ply,SBD,M
Boys,109.77,4,Nathan Gomez,Edcouch-Elsa,106.23,226.8,129.27,219.99,576.06,Single-ply,SBD,M
Boys,109.77,5,Chris Maple,La Feria,105.14,199.58,142.88,195.04,537.51,Single-ply,SBD,M
Boys,109.77,6,Ruben Silva,Port Isabel,109.77,167.83,79.38,149.69,396.89,Single-ply,SBD,M
Boys,109.77,7,Joe Martinez,Edcouch-Elsa,107.14,201.85,,,201.85,Single-ply,S,M
Boys,109.77,8,Juan Gallegos,Rio Hondo,108.95,190.51,,,190.51,Single-ply,S,M
Boys,124.74,1,Joel White,La Feria,112.22,292.57,185.97,224.53,703.07,Single-ply,SBD,M
Boys,124.74,2,Jorge Alvarez,Edcouch-Elsa,120.66,251.74,174.63,224.53,650.91,Single-ply,SBD,M
Boys,124.74,3,Juan Rodriguez,Edcouch-Elsa,120.02,251.74,147.42,238.14,637.3,Single-ply,SBD,M
Boys,124.74,4,Jose Cantu,Weslaco,114.4,297.1,115.67,215.46,628.23,Single-ply,SBD,M
Boys,124.74,5,Alejandro Villarreal,Hidalgo Early College,123.38,226.8,120.2,215.46,562.45,Single-ply,SBD,M
Boys,124.74,6,Milo Rivera,Lyford,124.56,226.8,111.13,204.12,542.04,Single-ply,SBD,M
Boys,124.74,7,Miguel Navarro,Rio Hondo,114.67,215.46,151.95,172.37,539.77,Single-ply,SBD,M
Boys,124.74,8,Jose Castaneda,Raymondville,120.11,224.53,129.27,174.63,528.44,Single-ply,SBD,M
Boys,124.74,9,Andy Salinas,Port Isabel,111.95,229.06,102.06,183.7,514.83,Single-ply,SBD,M
Boys,124.74,10,Kassper Hernandez,Lyford,121.11,183.7,106.59,204.12,494.42,Single-ply,SBD,M
Boys,124.74,11,Juan Pena,Raymondville,123.92,183.7,83.91,188.24,455.86,Single-ply,SBD,M
Boys,124.74,12,Michael Kalnas,La Feria,110.77,174.63,102.06,174.63,451.32,Single-ply,SBD,M
Boys,124.74,13,Frank Alvarez,Port Isabel,111.4,161.03,90.72,161.03,412.77,Single-ply,SBD,M
Boys,124.74,14,Henry Bannwarth,Lyford,119.48,165.56,83.91,142.88,392.36,Single-ply,SBD,M
Boys,124.74,15,Roy Valdez,Los Fresnos,120.56,247.21,,,247.21,Single-ply,S,M
Boys,124.74+,1,Mark Reyes,Hidalgo Early College,135.35,306.17,174.63,219.99,700.8,Single-ply,SBD,M
Boys,124.74+,2,Adrian Cantu,Rio Grande City Grulla,140.34,244.94,145.15,197.31,587.4,Single-ply,SBD,M
Boys,124.74+,3,Gabriel García,Raymondville,129.18,158.76,124.74,172.37,455.86,Single-ply,SBD,M
Boys,124.74+,DQ,Francisco Pedraza,Hidalgo Early College,133.27,,,,,Single-ply,SBD,M
Boys,,NS,Cesar Casas,Hidalgo Early College,,,,,,Single-ply,SBD,M
Boys,,NS,Chris Galarza,Los Fresnos,,,,,,Single-ply,SBD,M
Boys,,NS,Abel Cruces,Los Fresnos,,,,,,Single-ply,SBD,M
Boys,,NS,Omar Puente,Los Fresnos,,,,,,Single-ply,SBD,M
