Division,WeightClassKg,Place,Name,Team,BodyweightKg,Best3SquatKg,Best3BenchKg,Best3DeadliftKg,TotalKg,Equipment,Event,Sex
Boys,55.79,1,Koby Johnston,Keller Fossil Ridge,55.34,111.13,58.97,111.13,281.23,Single-ply,SBD,M
Boys,59.87,1,Carlos Davila,Keller Central,59.42,117.93,74.84,129.27,322.05,Single-ply,SBD,M
Boys,74.84,1,Jett Ertle,Keller,67.36,131.54,83.91,147.42,362.87,Single-ply,SBD,M
Boys,67.13,2,Eric Goodman,Keller Fossil Ridge,66.22,120.2,92.99,136.08,349.27,Single-ply,SBD,M
Boys,67.13,3,Noah Moreno,Keller Central,65.32,140.61,90.72,115.67,347,Single-ply,SBD,M
Boys,67.13,DQ,Cj Muldrow,Justin Northwest,65.32,,,,,Single-ply,SBD,M
Boys,74.84,1,Maurice Saunders,Keller Timber Creek,74.03,181.44,115.67,199.58,496.68,Single-ply,SBD,M
Boys,74.84,2,Cameron Chiles,Justin Northwest,73.03,167.83,97.52,176.9,442.25,Single-ply,SBD,M
Boys,74.84,3,Max Akin,Keller Fossil Ridge,74.39,136.08,95.25,156.49,387.82,Single-ply,SBD,M
Boys,74.84,4,Brenton Perez,Keller Central,73.48,149.69,83.91,108.86,342.46,Single-ply,SBD,M
Boys,74.84,5,Christian Barker,Justin Northwest,69.17,124.74,72.57,142.88,340.19,Single-ply,SBD,M
Boys,82.1,6,Logan Lebrun,Keller Timber Creek,75.07,127.01,61.23,142.88,331.12,Single-ply,SBD,M
Boys,82.1,1,Lane James,Justin Northwest,78.02,147.42,102.06,170.1,419.57,Single-ply,SBD,M
Boys,82.1,2,Carson Lane,Justin Northwest,80.29,151.95,104.33,163.29,419.57,Single-ply,SBD,M
Boys,82.1,3,Matthew Soihl,Keller,80.74,151.95,108.86,156.49,417.3,Single-ply,SBD,M
Boys,82.1,4,Jayson Gonzales,Keller Fossil Ridge,77.11,149.69,102.06,149.69,401.43,Single-ply,SBD,M
Boys,82.1,5,James Gilbert,Justin Northwest,76.66,149.69,95.25,136.08,381.02,Single-ply,SBD,M
Boys,82.1,6,Shane Harris,Keller Central,81.65,142.88,92.99,127.01,362.87,Single-ply,SBD,M
Boys,82.1,7,Jacob Powers,Justin Northwest,81.65,131.54,90.72,136.08,358.34,Single-ply,SBD,M
Boys,89.81,1,Camerson Williams,Keller,88,210.92,131.54,217.72,560.19,Single-ply,SBD,M
Boys,99.79,2,Willie Callum,Justin Northwest,89.86,208.65,117.93,197.31,523.9,Single-ply,SBD,M
Boys,89.81,3,Cristian Worthy,Keller Central,88.9,185.97,111.13,174.63,471.74,Single-ply,SBD,M
Boys,89.81,4,Mugabe Bigirmana,Keller Timber Creek,82.78,188.24,104.33,174.63,467.2,Single-ply,SBD,M
Boys,89.81,5,Davion Jones,Keller Timber Creek,87.32,208.65,108.86,147.42,464.93,Single-ply,SBD,M
Boys,89.81,6,Tyson Ramirez,Keller Fossil Ridge,88.9,163.29,106.59,188.24,458.13,Single-ply,SBD,M
Boys,89.81,7,Josh Jordan,Keller Fossil Ridge,89.36,181.44,102.06,167.83,451.32,Single-ply,SBD,M
Boys,89.81,8,Jarret Pettigrew,Keller Fossil Ridge,88.9,161.03,106.59,156.49,424.11,Single-ply,SBD,M
Boys,89.81,9,Austin Navarette,Justin Northwest,87.77,154.22,86.18,158.76,399.16,Single-ply,SBD,M
Boys,99.79,1,Bode Dela Vega,Keller Central,97.52,170.1,108.86,204.12,483.08,Single-ply,SBD,M
Boys,99.79,2,David Leimbacher,Keller,94.08,158.76,113.4,190.51,462.66,Single-ply,SBD,M
Boys,109.77,3,Brandon Keck,Justin Northwest,99.84,156.49,111.13,172.37,439.98,Single-ply,SBD,M
Boys,109.77,4,Jacob Knowlton,Keller,99.93,154.22,113.4,165.56,433.18,Single-ply,SBD,M
Boys,99.79,5,Grant Rawls,Keller Fossil Ridge,98.88,142.88,90.72,156.49,390.09,Single-ply,SBD,M
Boys,99.79,6,Carson Haldeman,Keller,95.84,136.08,83.91,149.69,369.68,Single-ply,SBD,M
Boys,99.79,DQ,Michael Wilson,Justin Northwest,97.98,,,,,Single-ply,SBD,M
Boys,99.79,DQ,Alex Alvarado,Keller Fossil Ridge,99.34,,,,,Single-ply,SBD,M
Boys,99.79,DQ,Grayson Kline,Keller Fossil Ridge,99.34,,,,,Single-ply,SBD,M
Boys,99.79,DQ,Christian Edwards,Keller Central,92.08,,,,,Single-ply,SBD,M
Boys,109.77,1,Marshall Parks,Keller Central,107.05,226.8,151.95,215.46,594.21,Single-ply,SBD,M
Boys,109.77,2,Reese Portugal,Keller,102.06,179.17,115.67,185.97,480.81,Single-ply,SBD,M
Boys,109.77,3,Spencer Misko,Keller,102.97,170.1,102.06,204.12,476.27,Single-ply,SBD,M
Boys,124.74,1,Skylyr Rodriquez,Keller,117.48,256.28,154.22,210.92,621.42,Single-ply,SBD,M
Boys,124.74,2,Joey Kammerer,Keller Central,118.39,219.99,129.27,240.4,589.67,Single-ply,SBD,M
Boys,124.74,3,Robert Rae,Keller Timber Creek,119.52,183.7,151.95,197.31,532.97,Single-ply,SBD,M
Boys,124.74,4,Josh Brown,Keller Central,117.03,199.58,136.08,183.7,519.36,Single-ply,SBD,M
Boys,124.74,5,Tyler Long,Keller Fossil Ridge,121.56,204.12,106.59,147.42,458.13,Single-ply,SBD,M
Boys,124.74,6,Cody Dorsett,Justin Northwest,111.58,149.69,108.86,161.03,419.57,Single-ply,SBD,M
Boys,124.74,7,Alan Ali,Keller Timber Creek,121.56,113.4,113.4,174.63,401.43,Single-ply,SBD,M
