Place,Name,Sex,Event,Division,WeightClassKg,Equipment,BirthYear,State,BodyweightKg,Squat1Kg,Squat2Kg,Squat3Kg,Best3SquatKg,Bench1Kg,Bench2Kg,Bench3Kg,Best3BenchKg,Deadlift1Kg,Deadlift2Kg,Deadlift3Kg,Best3DeadliftKg,TotalKg
1,Kathleen Maldonado,F,B,FR-O,72,Raw,1993,CO,67.99,,,,,67.5,70,72.5,72.5,,,,,72.5
1,Brandon Heflin,M,B,MR-Jr,93,Raw,1994,CO,89.73,,,,,140,-145,-150,140,,,,,140
1,Terry Lyons,M,B,MR-M2b,93,Raw,1961,CO,91.98,,,,,-120,120,-125,120,,,,,120
1,Jasen Kettle,M,B,MR-O,74,Raw,1991,CO,71.17,,,,,127.5,142.5,155,155,,,,,155
1,Ben Gilliam,M,D,MR-M3b,120,Raw,1957,CO,114.36,,,,,,,,,165,175,180,180,180
1,Chad Singleton,M,D,MR-O,83,Raw,1985,CO,82.8,,,,,,,,,240,252.5,-255,252.5,252.5
1,Amy Chan,F,SBD,FR-Jr,57,Raw,1995,CO,56.91,97.5,105,112.5,112.5,42.5,47.5,-52.5,47.5,105,110,112.5,112.5,272.5
2,Isabella Miller,F,SBD,FR-Jr,57,Raw,1993,CO,56.99,87.5,92.5,97.5,97.5,45,-47.5,50,50,102.5,107.5,112.5,112.5,260
3,Page Mendoza,F,SBD,FR-Jr,57,Raw,1995,CO,54.62,-72.5,75,77.5,77.5,35,37.5,40,40,-92.5,95,97.5,97.5,215
1,Abigail Gonzales,F,SBD,FR-Jr,63,Raw,1996,CO,61.75,102.5,110,115,115,57.5,65,70,70,115,122.5,127.5,127.5,312.5
1,Maria Davis,F,SBD,FR-Jr,72,Raw,1996,CO,68.83,-87.5,87.5,-90,87.5,47.5,52.5,-62.5,52.5,102.5,105,112.5,112.5,252.5
1,Ellen Gostling,F,SBD,FR-Jr,84,Raw,1997,CO,76.79,85,90,95,95,47.5,50,52.5,52.5,110,122.5,132.5,132.5,280
2,Taylor Hunt,F,SBD,FR-Jr,84,Raw,1995,CO,82.04,95,100,-105,100,55,60,-65,60,105,112.5,120,120,280
1,Huong Siverd,F,SBD,FR-M1a,63,Raw,1974,CO,62.22,92.5,95,-102.5,95,47.5,-52.5,-52.5,47.5,102.5,-112.5,-112.5,102.5,245
2,Cortney Crouch,F,SBD,FR-M1a,63,Raw,1975,CO,57.91,70,75,-82.5,75,47.5,52.5,-55,52.5,92.5,97.5,102.5,102.5,230
1,Mia Miller,F,SBD,FR-M1a,72,Raw,1974,CO,67.94,130,137.5,142.5,142.5,62.5,65,-67.5,65,152.5,160,167.5,167.5,375
2,Michele Muraski,F,SBD,FR-M1a,72,Raw,1973,CO,66.18,85,87.5,90,90,52.5,55,57.5,57.5,135,142.5,150,150,297.5
3,Salena Smashum,F,SBD,FR-M1a,72,Raw,1974,CO,67.61,95,97.5,107.5,107.5,45,-47.5,-52.5,45,107.5,117.5,127.5,127.5,280
1,Elizabeth Hutches,F,SBD,FR-M1a,84+,Raw,1977,CO,96.7,115,-122.5,-122.5,115,52.5,60,65,65,132.5,140,145,145,325
1,Aixa Roche,F,SBD,FR-M1b,72,Raw,1972,CO,71.16,105,112.5,117.5,117.5,62.5,67.5,-72.5,67.5,122.5,132.5,137.5,137.5,322.5
1,Bobbette Groce,F,SBD,FR-M3a,72,Raw,1957,CO,71.71,60,-62.5,62.5,62.5,30,35,-37.5,35,60,67.5,72.5,72.5,170
1,Jill McLaughlin,F,SBD,FR-M3b,84,Raw,1952,CO,78.76,72.5,-85,90,90,52.5,57.5,-62.5,57.5,107.5,115,120,120,267.5
1,Tamara Gray,F,SBD,FR-O,57,Raw,1983,CO,56.82,130,-135,135,135,77.5,80,-82.5,80,140,145,147.5,147.5,362.5
1,Kimberlyn Magee,F,SBD,FR-O,63,Raw,1991,CO,61.07,100,115,125,125,45,55,60,60,110,125,-135,125,310
2,Amanda Martin,F,SBD,FR-O,63,Raw,1987,CO,62.96,85,90,97.5,97.5,45,47.5,-52.5,47.5,130,137.5,145,145,290
1,Monet Avila,F,SBD,FR-O,72,Raw,1990,CO,67.29,92.5,97.5,105,105,62.5,-67.5,67.5,67.5,105,112.5,-120,112.5,285
2,Megan Carey,F,SBD,FR-O,72,Raw,1980,CO,63.68,67.5,72.5,77.5,77.5,45,50,55,55,112.5,117.5,122.5,122.5,255
3,Andromeda Moreno,F,SBD,FR-O,72,Raw,1983,CO,69.9,67.5,82.5,-95,82.5,37.5,55,-60,55,82.5,97.5,-115,97.5,235
1,Margaret Hampton,F,SBD,FR-O,84,Raw,1992,CO,82.34,125,135,142.5,142.5,72.5,75,-77.5,75,165,172.5,182.5,182.5,400
2,Coralee Traurig,F,SBD,FR-O,84,Raw,1982,CO,77.14,-120,-120,120,120,75,-85,-85,75,122.5,132.5,142.5,142.5,337.5
3,Eleanor Le Fevre,F,SBD,FR-O,84,Raw,1988,CO,72.32,85,92.5,102.5,102.5,47.5,-55,-55,47.5,130,137.5,-142.5,137.5,287.5
1,Jessie Warley,F,SBD,FR-O,84+,Raw,1982,CO,95.03,112.5,117.5,122.5,122.5,65,70,-77.5,70,127.5,137.5,142.5,142.5,335
2,Mindy Lunsford,F,SBD,FR-O,84+,Raw,1984,CO,98.43,110,115,117.5,117.5,55,62.5,70,70,130,135,137.5,137.5,325
3,Mechelle Hespen,F,SBD,FR-O,84+,Raw,1988,NE,143.56,-62.5,85,92.5,92.5,52.5,70,-87.5,70,100,132.5,-145,132.5,295
4,Mandi Singleton,F,SBD,FR-O,84+,Raw,1980,CO,89.67,87.5,-97.5,-97.5,87.5,50,55,60,60,125,132.5,145,145,292.5
1,Justin Bowen,M,SBD,MR-Jr,66,Raw,1994,CO,64.98,170,175,182.5,182.5,102.5,110,112.5,112.5,210,217.5,-225,217.5,512.5
1,David Beiswenger,M,SBD,MR-Jr,83,Raw,1994,CO,82.76,180,197.5,-205,197.5,100,-107.5,107.5,107.5,245,260,-272.5,260,565
1,Jared Pelzer,M,SBD,MR-Jr,93,Raw,1994,CO,91.93,220,230,240,240,137.5,147.5,152.5,152.5,237.5,250,260,260,652.5
2,Devin Thomas,M,SBD,MR-Jr,93,Raw,1995,CO,89.76,200,-205,205,205,140,142.5,147.5,147.5,247.5,262.5,272.5,272.5,625
1,Chase Stenson,M,SBD,MR-Jr,105,Raw,1994,CO,100.5,210,225,-230,225,145,162.5,167.5,167.5,227.5,247.5,257.5,257.5,650
2,Robert Wood,M,SBD,MR-Jr,105,Raw,1994,CO,99.67,210,225,230,230,135,140,-142.5,140,255,267.5,-272.5,267.5,637.5
1,Mike Sutton,M,SBD,MR-Jr,120,Raw,1994,CO,118.8,245,-255,,245,145,155,-160,155,260,275,-280,275,675
1,Timothy Nicoll,M,SBD,MR-M1b,105,Raw,1972,CO,94.29,130,137.5,145,145,102.5,110,115,115,155,165,175,175,435
1,Eric Dubosq,M,SBD,MR-M2a,83,Raw,1967,CO,81.47,142.5,160,-170,160,112.5,-120,-120,112.5,165,187.5,-205,187.5,460
1,Lou Fossceco,M,SBD,MR-M2a,120,Raw,1964,CO,116.3,165,170,175,175,170,172.5,-175,172.5,207.5,-212.5,212.5,212.5,560
1,Frank Veselicky,M,SBD,MR-M2b,93,Raw,1958,CO,91.47,130,137.5,145,145,102.5,-107.5,-107.5,102.5,152.5,160,167.5,167.5,415
1,Bobby Wischkowski,M,SBD,MR-M4a,93,Raw,1943,CO,86.6,-102.5,115,125,125,90,95,-97.5,95,135,147.5,152.5,152.5,372.5
1,Daven Touch,M,SBD,MR-O,74,Raw,1992,CO,73.4,175,-177.5,177.5,177.5,-122.5,122.5,-125,122.5,192.5,195,-200,195,495
2,Damon Walker,M,SBD,MR-O,74,Raw,1989,CO,73.67,145,155,-165,155,105,110,-115,110,195,210,-217.5,210,475
1,Jared Scott,M,SBD,MR-O,83,Raw,1990,CO,77.74,185,195,205,205,122.5,127.5,-130,127.5,215,227.5,-237.5,227.5,560
2,Chad Singleton,M,SBD,MR-O,83,Raw,1985,CO,82.8,170,177.5,-182.5,177.5,115,120,-122.5,120,240,252.5,-255,252.5,550
3,Travis Spear,M,SBD,MR-O,83,Raw,1992,CO,80.12,185,195,-200,195,-140,140,150,150,175,185,190,190,535
4,Daniel Cillo,M,SBD,MR-O,83,Raw,1985,CO,82.28,142.5,147.5,-152.5,147.5,-120,-120,120,120,172.5,182.5,187.5,187.5,455
1,Stephen Zagata,M,SBD,MR-O,93,Raw,1991,CO,91,227.5,242.5,-252.5,242.5,137.5,150,-155,150,245,267.5,-282.5,267.5,660
2,Phil Clough,M,SBD,MR-O,93,Raw,1983,CO,91.49,187.5,200,207.5,207.5,120,127.5,132.5,132.5,220,232.5,240,240,580
3,Matthew Jones,M,SBD,MR-O,93,Raw,1991,CO,90.28,167.5,182.5,185,185,102.5,112.5,115,115,215,230,232.5,232.5,532.5
4,George Woolley,M,SBD,MR-O,93,Raw,1983,CO,91.31,175,182.5,192.5,192.5,122.5,132.5,135,135,177.5,187.5,197.5,197.5,525
1,Michael Sivels,M,SBD,MR-O,105,Raw,1989,NE,104.29,195,220,230,230,125,137.5,-145,137.5,210,227.5,237.5,237.5,605
2,Samuel Goff,M,SBD,MR-O,105,Raw,1986,CO,103.38,185,192.5,197.5,197.5,115,122.5,127.5,127.5,212.5,225,237.5,237.5,562.5
3,Cole Gorton,M,SBD,MR-O,105,Raw,1983,CO,103.26,182.5,187.5,192.5,192.5,147.5,150,155,155,195,205,-220,205,552.5
1,Jesse Crockett,M,SBD,MR-O,120,Raw,1985,CO,117.4,182.5,192.5,200,200,132.5,-142.5,142.5,142.5,210,222.5,235,235,577.5
2,Evan Brauch,M,SBD,MR-O,120,Raw,1984,CO,111.52,170,180,185,185,105,110,115,115,205,215,225,225,525
1,Ramon Macias,M,SBD,MR-O,120+,Raw,1986,CO,184.49,185,190,197.5,197.5,135,140,147.5,147.5,185,195,200,200,545
1,James Reed,M,SBD,MR-T2,66,Raw,2000,CO,61.56,87.5,-97.5,97.5,97.5,70,75,77.5,77.5,90,102.5,105,105,280
1,Paul Boss,M,SBD,MR-T2,83,Raw,2000,WY,76.5,140,157.5,-162.5,157.5,112.5,120,-122.5,120,177.5,192.5,200,200,477.5
1,Jaden Rasmussen,M,SBD,MR-T2,93,Raw,2000,WY,91.23,182.5,192.5,-197.5,192.5,140,142.5,145,145,222.5,227.5,-230,227.5,565
1,Austin Steffens,M,SBD,MR-T2,105,Raw,2000,CO,103.21,202.5,207.5,212.5,212.5,92.5,97.5,105,105,205,212.5,225,225,542.5
1,Parker Trifiletti,M,SBD,MR-T3,74,Raw,1998,CO,69.62,100,110,115,115,65,70,72.5,72.5,140,150,155,155,342.5
1,Tyson Montoya,M,SBD,MR-T3,83,Raw,1998,CO,79,162.5,175,180,180,110,-117.5,117.5,117.5,205,215,-222.5,215,512.5
1,Samuel Monroy,M,SBD,MR-T3,93,Raw,1999,CO,86.64,95,-110,110,110,85,-95,-95,85,125,135,147.5,147.5,342.5
1,Gabriel Faber,M,BD,MR-Jr,83,Raw,1995,CO,80.18,,,,,100,110,120,120,220,235,255,255,375
1,Chris Dishno,M,BD,MR-M1b,74,Raw,1972,CO,72.57,,,,,107.5,110,-122.5,110,175,190,202.5,202.5,312.5
1,Kenneth Vanvorst,M,BD,MR-M2a,93,Raw,1966,CO,89.5,,,,,120,125,-130,125,210,222.5,227.5,227.5,352.5
