Division,WeightClassKg,Place,Name,Team,BodyweightKg,Best3SquatKg,Best3BenchKg,Best3DeadliftKg,TotalKg,Equipment,Event,Sex
Boys,,NS,Ancelmo Cruces,Cuero,,,,,,Single-ply,SBD,M
Boys,,NS,Abraham Ramirez,Cuero,,,,,,Single-ply,SBD,M
Boys,51.71,1,Ivan Rosales,Columbus,50.8,120.2,72.57,138.35,331.12,Single-ply,SBD,M
Boys,55.79,1,Javier Comacho,Weimar,55.79,90.72,52.16,86.18,229.06,Single-ply,SBD,M
Boys,55.79,DQ,Bobby Darnell,Weimar,55.34,,49.9,113.4,,Single-ply,SBD,M
Boys,59.87,1,Lucio Davilla,Altair Rice,58.97,124.74,74.84,156.49,356.07,Single-ply,SBD,M
Boys,59.87,2,Zachary Baker,Hallettsville,59.19,129.27,56.7,133.81,319.78,Single-ply,SBD,M
Boys,59.87,3,Kolbe Kutac,Schulenburg,57.15,111.13,52.16,115.67,278.96,Single-ply,SBD,M
Boys,59.87,4,Elli Eichler,La Grange,57.61,92.99,52.16,70.31,215.46,Single-ply,SBD,M
Boys,59.87,DQ,Jose Reynoso,Columbus,58.97,81.65,,97.52,,Single-ply,SBD,M
Boys,59.87,DQ,Yuli Samaniego,Altair Rice,59.65,,,,,Single-ply,SBD,M
Boys,67.13,1,Justin Ficklen,Cuero,66.45,124.74,70.31,142.88,337.93,Single-ply,SBD,M
Boys,67.13,2,Drew Powell,Hallettsville,62.6,129.27,70.31,124.74,324.32,Single-ply,SBD,M
Boys,67.13,3,Seth Patten,Schulenburg,67.13,120.2,63.5,127.01,310.71,Single-ply,SBD,M
Boys,67.13,DQ,Ben Villereal,Cuero,66.9,,81.65,154.22,,Single-ply,SBD,M
Boys,67.13,DQ,Trevor Howard,Bellville,66.68,142.88,,151.95,,Single-ply,SBD,M
Boys,67.13,DQ,Joseph Lara,Snook,65.09,,70.31,145.15,,Single-ply,SBD,M
Boys,67.13,DQ,Andrew Small,Wallis Brazos,66,151.95,,,,Single-ply,SBD,M
Boys,74.84,1,Isaiah Herring,Hallettsville,74.84,188.24,111.13,170.1,469.47,Single-ply,SBD,M
Boys,74.84,2,Josh Beane,Columbus,70.76,167.83,83.91,167.83,419.57,Single-ply,SBD,M
Boys,74.84,3,Nick Freschnecht,Columbus,72.57,161.03,86.18,151.95,399.16,Single-ply,SBD,M
Boys,74.84,4,Nic Reyes,Altair Rice,68.72,142.88,79.38,161.03,383.29,Single-ply,SBD,M
Boys,74.84,5,Caleb Edmonds,Hallettsville,74.62,124.74,99.79,136.08,360.61,Single-ply,SBD,M
Boys,74.84,6,Ben Hook,Weimar,73.71,102.06,77.11,154.22,333.39,Single-ply,SBD,M
Boys,74.84,7,Hunter Schultz,Schulenburg,69.85,108.86,61.23,117.93,288.03,Single-ply,SBD,M
Boys,74.84,DQ,Jonathan Toro,Schulenburg,68.49,,,,,Single-ply,SBD,M
Boys,74.84,DQ,Dylan Ramirez,Weimar,72.57,,,,,Single-ply,SBD,M
Boys,82.1,1,Dylan Tomek,Hallettsville,81.19,206.38,117.93,208.65,532.97,Single-ply,SBD,M
Boys,82.1,2,Jaric Crider,Bellville,80.97,195.04,122.47,201.85,519.36,Single-ply,SBD,M
Boys,82.1,3,Jake Salem,Schulenburg,82.1,167.83,97.52,151.95,417.3,Single-ply,SBD,M
Boys,82.1,4,Kendall McCloud,Weimar,81.42,138.35,115.67,142.88,396.89,Single-ply,SBD,M
Boys,82.1,5,Andre Taylor,Weimar,80.74,122.47,79.38,124.74,326.59,Single-ply,SBD,M
Boys,82.1,DQ,Ben Maldanado,Wallis Brazos,82.1,,86.18,,,Single-ply,SBD,M
Boys,89.81,1,JK Dobbins,La Grange,88.22,240.4,142.88,208.65,591.94,Single-ply,SBD,M
Boys,89.81,2,Ben Carmean,Bellville,88.9,226.8,133.81,176.9,537.51,Single-ply,SBD,M
Boys,89.81,3,Trace McAfee,Hallettsville,87.32,226.8,124.74,183.7,535.24,Single-ply,SBD,M
Boys,89.81,4,James Taylor,Wallis Brazos,86.64,183.7,111.13,181.44,476.27,Single-ply,SBD,M
Boys,89.81,5,Dayton Ball,Cuero,84.59,156.49,102.06,183.7,442.25,Single-ply,SBD,M
Boys,89.81,6,Cullen Schrader,Bellville,83.46,158.76,111.13,147.42,417.3,Single-ply,SBD,M
Boys,89.81,7,Braden Tillery,Cuero,86.86,161.03,83.91,142.88,387.82,Single-ply,SBD,M
Boys,89.81,8,Vernon Smith,Bellville,83.01,117.93,83.91,142.88,344.73,Single-ply,SBD,M
Boys,89.81,9,Chance Chambers,La Grange,87.09,142.88,72.57,124.74,340.19,Single-ply,SBD,M
Boys,89.81,10,Refugio Rosales,Weimar,83.23,133.81,74.84,124.74,333.39,Single-ply,SBD,M
Boys,89.81,11,Kenley Smith,Schulenburg,85.96,106.59,74.84,106.59,288.03,Single-ply,SBD,M
Boys,89.81,DQ,Joseph Herrera,Columbus,86.64,122.47,,124.74,,Single-ply,SBD,M
Boys,89.81,DQ,Hayden Henry,Hallettsville,86.18,,115.67,188.24,,Single-ply,SBD,M
Boys,89.81,DQ,Clint Ables,Bellville,84.14,,86.18,170.1,,Single-ply,SBD,M
Boys,89.81,DQ,Hunter Adkins,Altair Rice,82.33,183.7,,,,Single-ply,SBD,M
Boys,99.79,1,Kaden Hardt,Hallettsville,95.48,254.01,170.1,233.6,657.71,Single-ply,SBD,M
Boys,99.79,2,Andrew Tavera,Altair Rice,99.79,251.74,131.54,224.53,607.81,Single-ply,SBD,M
Boys,99.79,3,John Garza,La Grange,95.71,192.78,117.93,188.24,498.95,Single-ply,SBD,M
Boys,99.79,4,Armando Rosales,Weimar,97.52,183.7,129.27,183.7,496.68,Single-ply,SBD,M
Boys,99.79,5,Jesus Vargas,Altair Rice,97.07,183.7,113.4,183.7,480.81,Single-ply,SBD,M
Boys,99.79,6,Julio Ramirez,La Grange,90.95,174.63,102.06,201.85,478.54,Single-ply,SBD,M
Boys,99.79,7,Codale Ellison,La Grange,96.39,192.78,97.52,188.24,478.54,Single-ply,SBD,M
Boys,99.79,8,Steve Hampson,Hallettsville,95.48,183.7,120.2,158.76,462.66,Single-ply,SBD,M
Boys,99.79,9,Kirkwade Polasek,La Grange,93.89,195.04,111.13,154.22,460.4,Single-ply,SBD,M
Boys,99.79,10,Luke Berglund,Bellville,98.43,151.95,124.74,181.44,458.13,Single-ply,SBD,M
Boys,99.79,11,Casey Marek,Bellville,99.79,145.15,102.06,161.03,408.23,Single-ply,SBD,M
Boys,99.79,DQ,Joseph Clay,Wallis Brazos,99.34,145.15,,,,Single-ply,SBD,M
Boys,109.77,1,Lex Leibfried,Bellville,100.24,226.8,151.95,204.12,582.87,Single-ply,SBD,M
Boys,109.77,2,Oliver Shorter,Altair Rice,103.42,238.14,136.08,197.31,571.53,Single-ply,SBD,M
Boys,109.77,3,William Sanchez,Columbus,101.15,192.78,136.08,172.37,501.22,Single-ply,SBD,M
Boys,109.77,4,Colten Orsak,Snook,105.69,170.1,97.52,185.97,453.59,Single-ply,SBD,M
Boys,109.77,5,Michael Cruz,Schulenburg,103.42,167.83,104.33,147.42,419.57,Single-ply,SBD,M
Boys,109.77,6,Genaro Casas,Weimar,104.78,147.42,102.06,165.56,415.04,Single-ply,SBD,M
Boys,109.77,7,Kyle Nelson,Bellville,109.54,149.69,72.57,151.95,374.21,Single-ply,SBD,M
Boys,109.77,8,PJ Moreida,Altair Rice,107.05,102.06,58.97,102.06,263.08,Single-ply,SBD,M
Boys,124.74,1,Brennan Schimcek,Hallettsville,110.45,204.12,136.08,181.44,521.63,Single-ply,SBD,M
Boys,124.74,2,Ezequiel Garza,La Grange,111.58,204.12,115.67,188.24,508.02,Single-ply,SBD,M
Boys,124.74,3,Haden Haas,Cuero,122.47,206.38,106.59,183.7,496.68,Single-ply,SBD,M
Boys,124.74,4,Hunter Breaux,Bellville,123.6,188.24,129.27,142.88,460.4,Single-ply,SBD,M
Boys,124.74,5,Shawn Allen,Schulenburg,110,185.97,122.47,142.88,451.32,Single-ply,SBD,M
Boys,124.74,6,Shemar Barnes,Snook,119.75,163.29,113.4,138.35,415.04,Single-ply,SBD,M
Boys,124.74,7,Joe Cole,Bellville,117.25,165.56,81.65,158.76,405.97,Single-ply,SBD,M
Boys,124.74+,1,James Nino,Weimar,140.16,224.53,151.95,229.06,605.55,Single-ply,SBD,M
Boys,124.74+,2,Diego Hernandez,Cuero,129.27,219.99,122.47,188.24,530.7,Single-ply,SBD,M
Boys,124.74+,3,De'vonze Franklin,Snook,146.06,206.38,113.4,201.85,521.63,Single-ply,SBD,M
Boys,124.74+,4,Jadan Thomas,Weimar,125.87,183.7,115.67,183.7,483.08,Single-ply,SBD,M
Boys,,NS,Chris Tovar,Schulenburg,,,,,,Single-ply,SBD,M
Boys,,NS,Iam Garner,Wallis Brazos,,,,,,Single-ply,SBD,M
Boys,,NS,Josh Cervantez,La Grange,,,,,,Single-ply,SBD,M
Boys,,NS,Jakob Schlemmer,La Grange,,,,,,Single-ply,SBD,M
Boys,,NS,Kiezland Quintero,Schulenburg,,,,,,Single-ply,SBD,M
Boys,,NS,Juan Reyna,Schulenburg,,,,,,Single-ply,SBD,M
Boys,,NS,Brad Austin,Columbus,,,,,,Single-ply,SBD,M
Boys,,NS,David Garza,Cuero,,,,,,Single-ply,SBD,M
Boys,,NS,Keiran Grant,Cuero,,,,,,Single-ply,SBD,M
Boys,,NS,Zach Fuchs,Cuero,,,,,,Single-ply,SBD,M
Boys,,NS,Jacqui Shorter,Columbus,,,,,,Single-ply,SBD,M
Boys,,NS,Mason Neisner,Columbus,,,,,,Single-ply,SBD,M
Boys,,NS,Joe Castillo,Altair Rice,,,,,,Single-ply,SBD,M
Boys,,NS,Dylan Hernandez,Altair Rice,,,,,,Single-ply,SBD,M
Boys,,NS,Phil Torres,Altair Rice,,,,,,Single-ply,SBD,M
