Division,WeightClassKg,Place,Name,Team,BodyweightKg,Best3SquatKg,Best3BenchKg,Best3DeadliftKg,TotalKg,Equipment,Event,Sex
Girls,44.23,1,Kei Kei Walker,Malakoff,43.45,104.33,36.29,104.33,244.94,Single-ply,SBD,F
Girls,47.85,1,Karson Pardue,Elkhart,47.63,102.06,52.16,102.06,256.28,Single-ply,SBD,F
Girls,47.85,2,Adelina Caceres,Trinity,47.81,92.99,47.63,111.13,251.74,Single-ply,SBD,F
Girls,47.85,3,Alissa Talley,Elkhart,47.36,92.99,43.09,104.33,240.4,Single-ply,SBD,F
Girls,47.85,4,Victoria Ivy,Rusk,47.81,86.18,49.9,90.72,226.8,Single-ply,SBD,F
Girls,47.85,5,Chasity Harmon,Malakoff,47.54,74.84,36.29,83.91,195.04,Single-ply,SBD,F
Girls,47.85,DQ,Kloe Coleman,Grapeland,44.91,,,,,Single-ply,SBD,F
Girls,51.94,1,Nayeli Davalos,Trinity,50.71,106.59,52.16,108.86,267.62,Single-ply,SBD,F
Girls,51.94,2,Elizabeth Chavez,Center,48.35,111.13,38.56,102.06,251.74,Single-ply,SBD,F
Girls,51.94,3,Annalisa Trevino,Elkhart,51.71,106.59,45.36,97.52,249.48,Single-ply,SBD,F
Girls,51.94,4,Becca Brown,Malakoff,51.89,90.72,47.63,108.86,247.21,Single-ply,SBD,F
Girls,51.94,5,Kelsie Boles,Malakoff,48.72,83.91,40.82,92.99,217.72,Single-ply,SBD,F
Girls,51.94,6,Haylee Reed,Grapeland,50.08,83.91,31.75,92.99,208.65,Single-ply,SBD,F
Girls,51.94,7,Morgan Turner,Cayuga,50.17,70.31,36.29,68.04,174.63,Single-ply,SBD,F
Girls,51.94,8,Jazmin Guevara,Center,50.08,68.04,27.22,68.04,163.29,Single-ply,SBD,F
Girls,51.94,9,Emilee Young,Palestine Westwood,50.62,52.16,27.22,77.11,156.49,Single-ply,SBD,F
Girls,51.94,10,Hailey Jimenez,Palestine Westwood,49.35,52.16,27.22,70.31,149.69,Single-ply,SBD,F
Girls,56.02,1,Jaelan Linville,Mount Enterprise,53.71,113.4,77.11,113.4,303.91,Single-ply,SBD,F
Girls,56.02,2,Sydney Jo Sears,Center,52.8,111.13,43.09,102.06,256.28,Single-ply,SBD,F
Girls,56.02,3,Kayla Moore,Elkhart,54.16,95.25,47.63,90.72,233.6,Single-ply,SBD,F
Girls,56.02,4,Hunter Gilmore,Elkhart,54.57,83.91,31.75,90.72,206.38,Single-ply,SBD,F
Girls,56.02,5,Makayla Smith,Grapeland,54.34,52.16,24.95,56.7,133.81,Single-ply,SBD,F
Girls,60.1,1,Chloe Ives,Elkhart,59.87,122.47,61.23,124.74,308.44,Single-ply,SBD,F
Girls,60.1,2,Mallory Stout,Trinity,59.6,113.4,47.63,104.33,265.35,Single-ply,SBD,F
Girls,60.1,3,Arrana Gonzalez,Elkhart,60.06,97.52,54.43,99.79,251.74,Single-ply,SBD,F
Girls,60.1,4,Noemi Acosta,Trinity,58.33,92.99,47.63,102.06,242.67,Single-ply,SBD,F
Girls,60.1,5,Pel Htoo,Center,56.88,108.86,38.56,88.45,235.87,Single-ply,SBD,F
Girls,60.1,6,Rachael Vickery,Palestine Westwood,59.6,83.91,36.29,95.25,215.46,Single-ply,SBD,F
Girls,60.1,7,Daniela Reyes,Buffalo,56.52,86.18,38.56,83.91,208.65,Single-ply,SBD,F
Girls,60.1,DQ,Isabel Reyes,Trinity,56.43,,,,,Single-ply,SBD,F
Girls,67.36,1,Shaylea Boles,Malakoff,64.95,131.54,74.84,129.27,335.66,Single-ply,SBD,F
Girls,67.36,2,Brooklyn Thomas,Rusk,66.41,120.2,54.43,120.2,294.84,Single-ply,SBD,F
Girls,67.36,3,Madison Blaylock,Rusk,62.41,113.4,49.9,99.79,263.08,Single-ply,SBD,F
Girls,67.36,4,Mirianm Almaguer,Center,66.59,108.86,45.36,106.59,260.82,Single-ply,SBD,F
Girls,67.36,5,Taylor Lack,Buffalo,62.32,97.52,49.9,106.59,254.01,Single-ply,SBD,F
Girls,67.36,6,Breanna Warner,Elkhart,66.5,92.99,45.36,102.06,240.4,Single-ply,SBD,F
Girls,67.36,7,Cheyenne Bowman,Grapeland,61.6,77.11,36.29,90.72,204.12,Single-ply,SBD,F
Girls,67.36,8,Melissa Springer,Palestine Westwood,64.05,61.23,38.56,79.38,179.17,Single-ply,SBD,F
Girls,75.07,1,Kyndall Hill,Trinity,74.12,124.74,68.04,147.42,340.19,Single-ply,SBD,F
Girls,75.07,2,Karime Vazquez,Elkhart,74.03,86.18,34.02,90.72,210.92,Single-ply,SBD,F
Girls,75.07,3,Amy Crook,Grapeland,71.49,68.04,38.56,102.06,208.65,Single-ply,SBD,F
Girls,75.07,4,Leslie Anderson,Palestine Westwood,69.58,74.84,38.56,83.91,197.31,Single-ply,SBD,F
Girls,75.07,5,Ally Currie,Elkhart,70.4,68.04,38.56,72.57,179.17,Single-ply,SBD,F
Girls,75.07,6,Rachael Villarreal,Palestine Westwood,67.95,54.43,34.02,79.38,167.83,Single-ply,SBD,F
Girls,75.07,DQ,Kie Burns,Malakoff,72.21,,,,,Single-ply,SBD,F
Girls,82.33,1,Kelli Ramey,Trinity,80.65,133.81,61.23,106.59,301.64,Single-ply,SBD,F
Girls,82.33,2,Catelin Jones,Frankston,81.74,111.13,54.43,124.74,290.3,Single-ply,SBD,F
Girls,82.33,3,Novalie Davenport,Frankston,78.02,111.13,49.9,108.86,269.89,Single-ply,SBD,F
Girls,82.33,4,Emily Chavez,Palestine Westwood,78.11,79.38,34.02,97.52,210.92,Single-ply,SBD,F
Girls,82.33,5,Paris Sandifer,Palestine Westwood,80.2,65.77,34.02,88.45,188.24,Single-ply,SBD,F
Girls,82.33,6,Stacy Perez,Grapeland,79.92,61.23,29.48,90.72,181.44,Single-ply,SBD,F
Girls,82.33,DQ,Kaela Davis,Frankston,80.47,102.06,54.43,,,Single-ply,SBD,F
Girls,90.04,1,Jaeda Garrett,Rusk,85,151.95,77.11,167.83,396.89,Single-ply,SBD,F
Girls,90.04,2,Emily Moreno,Malakoff,89.72,136.08,79.38,124.74,340.19,Single-ply,SBD,F
Girls,90.04,3,David-Lee Martinez,Rusk,83.46,131.54,54.43,136.08,322.05,Single-ply,SBD,F
Girls,90.04,4,Kailan Randle,Center,85.28,136.08,63.5,115.67,315.25,Single-ply,SBD,F
Girls,90.04,5,Nina Alvarez,Trinity,82.64,83.91,43.09,92.99,219.99,Single-ply,SBD,F
Girls,90.04,DQ,Andriana Clay,Trinity,83.01,115.67,,,,Single-ply,SBD,F
Girls,100.02,1,Harleigh McEnturff,Elkhart,94.89,165.56,90.72,163.29,419.57,Single-ply,SBD,F
Girls,100.02,2,Beatriz Costilla,Trinity,93.44,151.95,79.38,154.22,385.55,Single-ply,SBD,F
Girls,100.02,3,Amber Karnes,Cayuga,93.98,142.88,54.43,124.74,322.05,Single-ply,SBD,F
Girls,100.02,4,Victoria Lane,Grapeland,90.08,43.09,31.75,83.91,158.76,Single-ply,SBD,F
Girls,100.02,DQ,Shakendra Snell,Trinity,97.34,,,,,Single-ply,SBD,F
Girls,117.71,1,Madison Wilbanks,Malakoff,104.78,199.58,104.33,158.76,462.66,Single-ply,SBD,F
Girls,117.71,2,Tawny Anderson,Elkhart,115.67,131.54,61.23,120.2,312.98,Single-ply,SBD,F
Girls,117.71,3,Bryanna Stotts,Cayuga,100.24,127.01,47.63,113.4,288.03,Single-ply,SBD,F
Girls,117.71,4,Destiny Toye,Frankston,104.78,115.67,56.7,115.67,288.03,Single-ply,SBD,F
Girls,117.71,5,Alyssa Dilli,Grapeland,106.14,83.91,43.09,111.13,238.14,Single-ply,SBD,F
Girls,117.71,DQ,Alex Grizzle,Buffalo,101.97,63.5,,,,Single-ply,SBD,F
Girls,117.71+,1,Emily Rodriguez,Malakoff,123.56,124.74,56.7,127.01,308.44,Single-ply,SBD,F
Girls,117.71+,2,Natalie Defore,Elkhart,121.11,120.2,56.7,129.27,306.17,Single-ply,SBD,F
Girls,117.71+,3,Arionna Davis,Grapeland,121.74,92.99,43.09,102.06,238.14,Single-ply,SBD,F
Girls,117.71+,4,Macy Cutler,Grapeland,123.65,65.77,29.48,90.72,185.97,Single-ply,SBD,F
Girls,,NS,Keeaira Clark,Elkhart,,,,,,Single-ply,SBD,F
Girls,,NS,Anna Hedstrom,Grapeland,,,,,,Single-ply,SBD,F
Girls,,NS,Leslie Vigil,Palestine Westwood,,,,,,Single-ply,SBD,F
