Division,WeightClassKg,Place,Name,Team,BodyweightKg,Best3SquatKg,Best3BenchKg,Best3DeadliftKg,TotalKg,Equipment,Event,Sex
Girls,44.23,1,Chloie Devillier,Jacksonville,44.09,88.45,31.75,81.65,201.85,Single-ply,SBD,F
Girls,44.23,2,Diana Valencia,Shelbyville,41.19,65.77,29.48,81.65,176.9,Single-ply,SBD,F
Girls,44.23,3,Jennifer Gatlin,Troup,39.92,61.23,34.02,77.11,172.37,Single-ply,SBD,F
Girls,44.23,4,Hien Tran,Whitehouse,42.18,68.04,27.22,65.77,161.03,Single-ply,SBD,F
Girls,47.85,1,Elizabeth Chavez,Center,46.63,113.4,40.82,108.86,263.08,Single-ply,SBD,F
Girls,47.85,2,Alissa Tally,Elkhart,45.81,102.06,38.56,106.59,247.21,Single-ply,SBD,F
Girls,47.85,3,Victoria Ivy,Rusk,47.63,90.72,49.9,97.52,238.14,Single-ply,SBD,F
Girls,47.85,4,Jackelin Cinsneros,Hemphill,44.45,79.38,43.09,90.72,213.19,Single-ply,SBD,F
Girls,47.85,5,Nathaly Martinez,Jacksonville,45.81,68.04,29.48,77.11,174.63,Single-ply,SBD,F
Girls,47.85,6,Addison Barnes,Bullard,47.63,,,102.06,102.06,Single-ply,D,F
Girls,47.85,7,Kaylee Boyard,Hemphill,47.72,99.79,,,99.79,Single-ply,S,F
Girls,51.94,1,Karson Pardue,Elkhart,49.44,106.59,65.77,106.59,278.96,Single-ply,SBD,F
Girls,51.94,2,Sydney Jo Sears,Center,51.26,106.59,45.36,104.33,256.28,Single-ply,SBD,F
Girls,51.94,3,Steff Moore,Shelbyville,49.53,99.79,40.82,104.33,244.94,Single-ply,SBD,F
Girls,51.94,4,Brittany Westbrook,Jacksonville,51.71,81.65,43.09,95.25,219.99,Single-ply,SBD,F
Girls,51.94,5,Kaitlyn Hays,Troup,51.26,95.25,36.29,79.38,210.92,Single-ply,SBD,F
Girls,51.94,6,Brylee Scarborough,Shelbyville,50.35,77.11,38.56,83.91,199.58,Single-ply,SBD,F
Girls,51.94,7,Jazmin Geuvara,Center,50.8,79.38,34.02,81.65,195.04,Single-ply,SBD,F
Girls,51.94,8,Emilee Young,Palestine Westwood,50.71,54.43,27.22,81.65,163.29,Single-ply,SBD,F
Girls,51.94,DQ,Morgan Turner,Cayuga,51.71,,,,,Single-ply,SBD,F
Girls,56.02,1,Savannah Barnett,Hemphill,55.97,117.93,68.04,120.2,306.17,Single-ply,SBD,F
Girls,56.02,2,Jaidea Rose,Shelbyville,55.79,122.47,56.7,120.2,299.37,Single-ply,SBD,F
Girls,56.02,3,Annalisa Trevino,Elkhart,53.52,122.47,58.97,102.06,283.5,Single-ply,SBD,F
Girls,56.02,4,Lexie Moody,Hemphill,53.8,106.59,58.97,117.93,283.5,Single-ply,SBD,F
Girls,56.02,5,Macy Smith,Whitehouse,55.97,106.59,56.7,117.93,281.23,Single-ply,SBD,F
Girls,56.02,6,Pel Htoo,Center,53.52,117.93,45.36,99.79,263.08,Single-ply,SBD,F
Girls,56.02,7,Keeaira Clark,Elkhart,54.98,97.52,52.16,99.79,249.48,Single-ply,SBD,F
Girls,56.02,8,Ashlee Taylor,Whitehouse,55.97,90.72,45.36,113.4,249.48,Single-ply,SBD,F
Girls,56.02,9,Kayla Moore,Elkhart,54.52,99.79,47.63,83.91,231.33,Single-ply,SBD,F
Girls,56.02,10,Sami Winkel,Cayuga,54.98,83.91,43.09,95.25,222.26,Single-ply,SBD,F
Girls,56.02,11,Hunter Gilmore,Elkhart,55.25,92.99,31.75,86.18,210.92,Single-ply,SBD,F
Girls,56.02,12,Madison Whitton,Troup,54.43,68.04,29.48,83.91,181.44,Single-ply,SBD,F
Girls,56.02,13,Dayana Munoz,Jacksonville,53.52,63.5,31.75,79.38,174.63,Single-ply,SBD,F
Girls,56.02,14,Victoria Rodriguez,Grapeland,54.88,36.29,20.41,54.43,111.13,Single-ply,SBD,F
Girls,60.1,1,Katie York,Troup,60.06,156.49,61.23,122.47,340.19,Single-ply,SBD,F
Girls,60.1,2,Chloe Ives,Elkhart,59.78,127.01,61.23,124.74,312.98,Single-ply,SBD,F
Girls,60.1,3,Arrana Gozales,Elkhart,59.51,122.47,52.16,111.13,285.76,Single-ply,SBD,F
Girls,60.1,4,Jessica Lyman,New London West Rusk,59.87,111.13,43.09,113.4,267.62,Single-ply,SBD,F
Girls,60.1,5,Dinorah Hernandez,Jacksonville,58.97,97.52,43.09,102.06,242.67,Single-ply,SBD,F
Girls,60.1,6,Alyssa Huff,Bullard,59.96,99.79,43.09,95.25,238.14,Single-ply,SBD,F
Girls,60.1,7,Francis Zuniga,Troup,58.51,77.11,29.48,92.99,199.58,Single-ply,SBD,F
Girls,60.1,8,Samantha Pineda,Bullard,59.96,72.57,34.02,92.99,199.58,Single-ply,SBD,F
Girls,60.1,9,Tatum Barnett,Whitehouse,59.87,79.38,31.75,72.57,183.7,Single-ply,SBD,F
Girls,60.1,10,Kayla McClendon,Palestine Westwood,57.61,68.04,31.75,79.38,179.17,Single-ply,SBD,F
Girls,60.1,11,Madison Hughes,Jacksonville,57.61,65.77,36.29,70.31,172.37,Single-ply,SBD,F
Girls,60.1,12,Mackenna Rains,Jacksonville,59.87,58.97,36.29,72.57,167.83,Single-ply,SBD,F
Girls,60.1,13,Keoria Shepherd,Grapeland,57.24,58.97,24.95,68.04,151.95,Single-ply,SBD,F
Girls,67.36,1,Brooklyn Thomas,Rusk,65.77,117.93,54.43,124.74,297.1,Single-ply,SBD,F
Girls,67.36,2,Miriam Almaguer,Center,66.77,115.67,47.63,120.2,283.5,Single-ply,SBD,F
Girls,67.36,3,Madison Blalock,Rusk,63.05,113.4,52.16,113.4,278.96,Single-ply,SBD,F
Girls,67.36,4,Breanna Warner,Elkhart,64.86,108.86,49.9,113.4,272.16,Single-ply,SBD,F
Girls,67.36,5,Mariana Gatlin,Troup,63.5,102.06,49.9,113.4,265.35,Single-ply,SBD,F
Girls,67.36,6,Ahlexcis Lackey,Bullard,61.05,97.52,45.36,108.86,251.74,Single-ply,SBD,F
Girls,67.36,7,Sydney Halbrook,Whitehouse,61.23,79.38,40.82,99.79,219.99,Single-ply,SBD,F
Girls,67.36,8,Melissa Springer,Palestine Westwood,64.86,77.11,43.09,95.25,215.46,Single-ply,SBD,F
Girls,67.36,9,Cheyenne Bowman,Grapeland,61.23,86.18,34.02,92.99,213.19,Single-ply,SBD,F
Girls,67.36,10,Morgan Washburn,Jacksonville,63.96,79.38,36.29,79.38,195.04,Single-ply,SBD,F
Girls,67.36,11,Cristi Rubio,Jacksonville,67.13,70.31,34.02,90.72,195.04,Single-ply,SBD,F
Girls,67.36,12,Roxeanne Marroquin,Jacksonville,61.23,56.7,27.22,77.11,161.03,Single-ply,SBD,F
Girls,67.36,13,Amanda Cook,New London West Rusk,67.13,77.11,36.29,,113.4,Single-ply,SB,F
Girls,67.36,DQ,Brook Henry,Bullard,67.31,,,,,Single-ply,SBD,F
Girls,75.07,1,Audrey Shelton,Bullard,72.57,149.69,77.11,138.35,365.14,Single-ply,SBD,F
Girls,75.07,2,Madison Taylor,Shelbyville,74.66,154.22,65.77,138.35,358.34,Single-ply,SBD,F
Girls,75.07,3,Charity Campbell,Bullard,75.02,142.88,63.5,136.08,342.46,Single-ply,SBD,F
Girls,75.07,4,Destiny McPherson,Whitehouse,73.21,124.74,52.16,131.54,308.44,Single-ply,SBD,F
Girls,75.07,5,Moria Vences,Bullard,74.21,142.88,49.9,113.4,306.17,Single-ply,SBD,F
Girls,75.07,6,Jaicee Walker,Whitehouse,73.48,111.13,49.9,120.2,281.23,Single-ply,SBD,F
Girls,75.07,7,Jessica Decco,New London West Rusk,70.76,95.25,54.43,106.59,256.28,Single-ply,SBD,F
Girls,75.07,8,Alexis Sheton,Troup,73.03,102.06,52.16,92.99,247.21,Single-ply,SBD,F
Girls,75.07,9,Kristi Jernigan,Shelbyville,72.67,97.52,34.02,97.52,229.06,Single-ply,SBD,F
Girls,75.07,10,Karime Vasquez,Elkhart,73.84,90.72,34.02,99.79,224.53,Single-ply,SBD,F
Girls,75.07,11,Maribel Chaparro,Jacksonville,73.03,79.38,43.09,92.99,215.46,Single-ply,SBD,F
Girls,75.07,12,Leslie Anderson,Palestine Westwood,70.94,81.65,40.82,90.72,213.19,Single-ply,SBD,F
Girls,75.07,13,Ally Currie,Elkhart,72.48,81.65,38.56,86.18,206.38,Single-ply,SBD,F
Girls,75.07,14,Amy Crook,Grapeland,72.12,83.91,,113.4,197.31,Single-ply,SD,F
Girls,75.07,15,Racheal Villareal,Palestine Westwood,69.04,68.04,29.48,81.65,179.17,Single-ply,SBD,F
Girls,82.33,1,David-Lee Martinez,Rusk,82.1,142.88,58.97,138.35,340.19,Single-ply,SBD,F
Girls,82.33,2,India Tennial,Jacksonville,76.11,127.01,54.43,131.54,312.98,Single-ply,SBD,F
Girls,82.33,3,Yanelly Barrera,Jacksonville,77.75,129.27,49.9,120.2,299.37,Single-ply,SBD,F
Girls,82.33,4,Emily Chavez,Palestine Westwood,78.38,90.72,34.02,111.13,235.87,Single-ply,SBD,F
Girls,82.33,5,Stacy Perez,Grapeland,81.65,72.57,34.02,111.13,217.72,Single-ply,SBD,F
Girls,82.33,6,Paris Sandofer,Palestine Westwood,79.83,77.11,36.29,102.06,215.46,Single-ply,SBD,F
Girls,90.04,1,Desere Cooper,Joaquin,82.92,170.1,81.65,167.83,419.57,Single-ply,SBD,F
Girls,90.04,2,Jaeda Garrett,Rusk,84.82,149.69,79.38,158.76,387.82,Single-ply,SBD,F
Girls,90.04,3,Maryssa Gilliam,Troup,82.83,147.42,65.77,124.74,337.93,Single-ply,SBD,F
Girls,90.04,4,Kailan Randle,Center,86.64,140.61,65.77,127.01,333.39,Single-ply,SBD,F
Girls,90.04,5,Randi Wilson,Troup,88.45,115.67,68.04,136.08,319.78,Single-ply,SBD,F
Girls,90.04,6,Kayla Anderson #3,Whitehouse,88.09,111.13,52.16,113.4,276.69,Single-ply,SBD,F
Girls,90.04,7,Mallory Hopper,Bullard,89.45,77.11,38.56,99.79,215.46,Single-ply,SBD,F
Girls,90.04,8,Madai Mendoza,Whitehouse,89.36,83.91,36.29,81.65,201.85,Single-ply,SBD,F
Girls,100.02,1,Harleigh McEnturff,Elkhart,95.25,188.24,86.18,156.49,430.91,Single-ply,SBD,F
Girls,100.02,2,Jalyce Dennis,Troup,93.89,158.76,74.84,163.29,396.89,Single-ply,SBD,F
Girls,100.02,3,Heather Coe,Bullard,96.43,147.42,70.31,136.08,353.8,Single-ply,SBD,F
Girls,100.02,4,Jocelyn Walston,Hemphill,90.36,145.15,72.57,131.54,349.27,Single-ply,SBD,F
Girls,100.02,5,Amber Karnes,Cayuga,93.89,149.69,65.77,124.74,340.19,Single-ply,SBD,F
Girls,100.02,6,Alex White,Hemphill,97.98,131.54,63.5,133.81,328.85,Single-ply,SBD,F
Girls,100.02,7,Annabelle Price,Bullard,92.17,158.76,58.97,102.06,319.78,Single-ply,SBD,F
Girls,100.02,8,Favour Thomas,Whitehouse,90.72,129.27,63.5,124.74,317.51,Single-ply,SBD,F
Girls,100.02,9,Jada Moore,Shelbyville,95.53,136.08,54.43,113.4,303.91,Single-ply,SBD,F
Girls,100.02,10,Keyasmine Johnson,Shelbyville,90.36,102.06,54.43,108.86,265.35,Single-ply,SBD,F
Girls,100.02,11,Jenni Lovell,Grapeland,99.61,68.04,43.09,102.06,213.19,Single-ply,SBD,F
Girls,100.02,12,Cierra Espinoza,Grapeland,90.26,70.31,34.02,79.38,183.7,Single-ply,SBD,F
Girls,100.02,13,Victoria Lane,Grapeland,91.17,29.48,34.02,92.99,156.49,Single-ply,SBD,F
Girls,117.71,1,Katie Casey,Shelbyville,102.42,199.58,,181.44,381.02,Single-ply,SD,F
Girls,117.71,2,Tawny Anderson,Elkhart,112.04,131.54,63.5,136.08,331.12,Single-ply,SBD,F
Girls,117.71,3,Alyssa Dilli,Grapeland,105.23,97.52,43.09,111.13,251.74,Single-ply,SBD,F
Girls,117.71,4,Andrica Cook,Jacksonville,103.42,83.91,38.56,102.06,224.53,Single-ply,SBD,F
Girls,117.71,5,Savannah Fitzgerald,Cayuga,101.24,,54.43,104.33,158.76,Single-ply,BD,F
Girls,117.71+,1,Leighann Langston,Bullard,136.98,154.22,58.97,136.08,349.27,Single-ply,SBD,F
Girls,117.71+,2,Alondra Salinas,Troup,120.97,142.88,74.84,113.4,331.12,Single-ply,SBD,F
Girls,117.71+,3,Natalie Defore,Elkhart,119.93,127.01,58.97,129.27,315.25,Single-ply,SBD,F
Girls,117.71+,4,Arionn Davis,Grapeland,122.47,102.06,49.9,97.52,249.48,Single-ply,SBD,F
