Division,WeightClassKg,Place,Name,Team,BodyweightKg,Best3SquatKg,Best3BenchKg,Best3DeadliftKg,TotalKg,Equipment,Event,Sex
Boys,51.71,1,Keegan Mantanona,Salado,51.07,99.79,61.23,106.59,267.62,Single-ply,SBD,M
Boys,51.71,2,Gus McNally,Holland,49.44,95.25,56.7,97.52,249.48,Single-ply,SBD,M
Boys,55.79,1,Richard Willess,Belton,55.16,156.49,74.84,154.22,385.55,Single-ply,SBD,M
Boys,55.79,2,Andrew Medina,Belton,55.7,129.27,65.77,154.22,349.27,Single-ply,SBD,M
Boys,55.79,3,Caleb Dawkins,Waco,55.79,131.54,81.65,113.4,326.59,Single-ply,SBD,M
Boys,55.79,4,Alex Vargas,Rogers,53.16,131.54,68.04,120.2,319.78,Single-ply,SBD,M
Boys,59.87,1,Juan Araujo,Taylor,59.69,167.83,83.91,176.9,428.64,Single-ply,SBD,M
Boys,59.87,2,Junior Cox,Belton,59.87,161.03,104.33,163.29,428.64,Single-ply,SBD,M
Boys,59.87,3,Kyle Gascon,Belton,59.83,174.63,81.65,147.42,403.7,Single-ply,SBD,M
Boys,59.87,4,Jeremy Powell,Waco,59.51,147.42,86.18,151.95,385.55,Single-ply,SBD,M
Boys,59.87,5,Lad Hargrove-Spring,Waco,59.78,142.88,86.18,156.49,385.55,Single-ply,SBD,M
Boys,59.87,6,Angel Longoria,Belton,59.33,138.35,86.18,149.69,374.21,Single-ply,SBD,M
Boys,59.87,7,Armando Barry,Waco,58.51,120.2,79.38,154.22,353.8,Single-ply,SBD,M
Boys,67.13,1,Stephen Leal,Taylor,65.32,219.99,117.93,206.38,544.31,Single-ply,SBD,M
Boys,67.13,2,Sergio Watkins,China Spring,65.5,226.8,122.47,195.04,544.31,Single-ply,SBD,M
Boys,67.13,3,Patrick Frazho,Belton,65.41,185.97,102.06,197.31,485.34,Single-ply,SBD,M
Boys,67.13,4,Cameron Naumann,Florence,65.77,188.24,92.99,188.24,469.47,Single-ply,SBD,M
Boys,67.13,5,Brett Lange,Holland,67.13,163.29,88.45,179.17,430.91,Single-ply,SBD,M
Boys,67.13,6,Jon McCullough,Gatesville,64.86,158.76,95.25,172.37,426.38,Single-ply,SBD,M
Boys,67.13,DQ,Daniel Strong,Killeen Ellison,65.23,161.03,102.06,,,Single-ply,SBD,M
Boys,67.13,DQ,Billy Gann,Axtell,66.86,188.24,102.06,,,Single-ply,SBD,M
Boys,74.84,1,Hugh Shelton,Taylor,71.58,195.04,117.93,235.87,548.85,Single-ply,SBD,M
Boys,74.84,2,Kj Peoples,China Spring,73.57,213.19,129.27,190.51,532.97,Single-ply,SBD,M
Boys,74.84,3,Christian Castillo,Belton,72.21,210.92,115.67,204.12,530.7,Single-ply,SBD,M
Boys,82.1,1,Christian Yannis,Taylor,80.38,233.6,124.74,226.8,585.13,Single-ply,SBD,M
Boys,82.1,2,Emmanuel Abdallah,China Spring,79.38,219.99,136.08,215.46,571.53,Single-ply,SBD,M
Boys,82.1,3,Ethan Rendon,Holland,77.11,181.44,102.06,176.9,460.4,Single-ply,SBD,M
Boys,89.81,1,Rene Aguirre,Taylor,89.81,233.6,136.08,215.46,585.13,Single-ply,SBD,M
Boys,89.81,2,John Jackson,Hempstead,83.91,208.65,131.54,233.6,573.79,Single-ply,SBD,M
Boys,89.81,3,Keaton Kaulfus,Belton,87.09,215.46,149.69,204.12,569.26,Single-ply,SBD,M
Boys,89.81,4,Mason Davis,Rogers,82.83,192.78,113.4,201.85,508.02,Single-ply,SBD,M
Boys,89.81,5,Corbin Preusse,Thorndale,87.36,190.51,115.67,190.51,496.68,Single-ply,SBD,M
Boys,89.81,6,Elijah Clough,Georgetown,88.09,172.37,106.59,204.12,483.08,Single-ply,SBD,M
Boys,89.81,7,Tommy Strickland,Holland,86.64,188.24,97.52,165.56,451.32,Single-ply,SBD,M
Boys,89.81,DQ,Patrick Tucker,Waco,87.36,,,,,Single-ply,SBD,M
Boys,89.81,DQ,Alan Hernandez,Georgetown,87.18,,,,,Single-ply,SBD,M
Boys,99.79,1,Jawaun Howard,Belton,98.79,242.67,167.83,233.6,644.1,Single-ply,SBD,M
Boys,99.79,2,Dai'Shawn Fisher,Waco,96.89,226.8,117.93,238.14,582.87,Single-ply,SBD,M
Boys,99.79,3,Joe Sampson,Salado,96.62,199.58,142.88,197.31,539.77,Single-ply,SBD,M
Boys,99.79,4,Ridic Meraz,Thorndale,97.34,208.65,113.4,199.58,521.63,Single-ply,SBD,M
Boys,99.79,5,Dawson Exline,China Spring,92.26,192.78,115.67,197.31,505.76,Single-ply,SBD,M
Boys,99.79,6,Blake Madden,Salado,97.52,190.51,127.01,170.1,487.61,Single-ply,SBD,M
Boys,99.79,DQ,Ethan Duckworth,China Spring,96.34,,,,,Single-ply,SBD,M
Boys,99.79,DQ,Andrew Mace,Belton,94.71,249.48,136.08,,,Single-ply,SBD,M
Boys,109.77,1,Tommie Barker,Salado,108.95,231.33,149.69,226.8,607.81,Single-ply,SBD,M
Boys,109.77,2,Ryan Poe,Salado,105.6,206.38,136.08,204.12,546.58,Single-ply,SBD,M
Boys,109.77,3,Omarian Gillum,Hempstead,107.95,206.38,122.47,190.51,519.36,Single-ply,SBD,M
Boys,109.77,4,Trenton Freeman,Waco,108.59,190.51,113.4,181.44,485.34,Single-ply,SBD,M
Boys,109.77,DQ,Jacob Pedroza,Thorndale,109.68,,,,,Single-ply,SBD,M
Boys,124.74,1,Josh Jett,Georgetown,117.93,235.87,129.27,210.92,576.06,Single-ply,SBD,M
Boys,124.74,DQ,John Gorrell,Waco Midway,117.21,,,,,Single-ply,SBD,M
Boys,124.74+,1,Jake Long,Waco Midway,156.85,244.94,183.7,231.33,659.98,Single-ply,SBD,M
Boys,124.74+,2,Eron Ortiz,Georgetown,157.12,272.16,156.49,226.8,655.44,Single-ply,SBD,M
Boys,124.74+,3,Chase Sharp,China Spring,128.73,267.62,161.03,217.72,646.37,Single-ply,SBD,M
Boys,124.74+,4,Josh Echeverria,Waco Midway,136.26,240.4,131.54,238.14,610.08,Single-ply,SBD,M
Boys,124.74+,5,Trace Lopez,Taylor,127.64,233.6,142.88,215.46,591.94,Single-ply,SBD,M
Boys,124.74+,6,Wyatt Bush,Hempstead,138.16,229.06,122.47,215.46,566.99,Single-ply,SBD,M
Boys,124.74+,7,Marshall Mayes,Holland,126.92,238.14,117.93,197.31,553.38,Single-ply,SBD,M
Boys,124.74+,8,Joseph Kiraly,Waco,141.61,226.8,122.47,192.78,542.04,Single-ply,SBD,M
Boys,124.74+,9,Juan Rivera,Waco,136.62,158.76,108.86,195.04,462.66,Single-ply,SBD,M
Boys,124.74+,DQ,Xamier Latchison,Waco,128.64,204.12,136.08,,,Single-ply,SBD,M
